G75*
%MOIN*%
%OFA0B0*%
%FSLAX25Y25*%
%IPPOS*%
%LPD*%
%AMOC8*
5,1,8,0,0,1.08239X$1,22.5*
%
%ADD10C,0.00000*%
%ADD11C,0.10000*%
%ADD12OC8,0.04362*%
%ADD13C,0.06000*%
%ADD14R,0.04750X0.04750*%
%ADD15C,0.02400*%
D10*
X0004326Y0001000D02*
X0004326Y0129543D01*
X0450704Y0129543D01*
X0450704Y0001000D01*
X0004326Y0001000D01*
X0011137Y0009189D02*
X0011139Y0009241D01*
X0011145Y0009293D01*
X0011155Y0009344D01*
X0011168Y0009394D01*
X0011186Y0009444D01*
X0011207Y0009491D01*
X0011231Y0009537D01*
X0011260Y0009581D01*
X0011291Y0009623D01*
X0011325Y0009662D01*
X0011362Y0009699D01*
X0011402Y0009732D01*
X0011445Y0009763D01*
X0011489Y0009790D01*
X0011535Y0009814D01*
X0011584Y0009834D01*
X0011633Y0009850D01*
X0011684Y0009863D01*
X0011735Y0009872D01*
X0011787Y0009877D01*
X0011839Y0009878D01*
X0011891Y0009875D01*
X0011943Y0009868D01*
X0011994Y0009857D01*
X0012044Y0009843D01*
X0012093Y0009824D01*
X0012140Y0009802D01*
X0012185Y0009777D01*
X0012229Y0009748D01*
X0012270Y0009716D01*
X0012309Y0009681D01*
X0012344Y0009643D01*
X0012377Y0009602D01*
X0012407Y0009560D01*
X0012433Y0009515D01*
X0012456Y0009468D01*
X0012475Y0009419D01*
X0012491Y0009369D01*
X0012503Y0009319D01*
X0012511Y0009267D01*
X0012515Y0009215D01*
X0012515Y0009163D01*
X0012511Y0009111D01*
X0012503Y0009059D01*
X0012491Y0009009D01*
X0012475Y0008959D01*
X0012456Y0008910D01*
X0012433Y0008863D01*
X0012407Y0008818D01*
X0012377Y0008776D01*
X0012344Y0008735D01*
X0012309Y0008697D01*
X0012270Y0008662D01*
X0012229Y0008630D01*
X0012185Y0008601D01*
X0012140Y0008576D01*
X0012093Y0008554D01*
X0012044Y0008535D01*
X0011994Y0008521D01*
X0011943Y0008510D01*
X0011891Y0008503D01*
X0011839Y0008500D01*
X0011787Y0008501D01*
X0011735Y0008506D01*
X0011684Y0008515D01*
X0011633Y0008528D01*
X0011584Y0008544D01*
X0011535Y0008564D01*
X0011489Y0008588D01*
X0011445Y0008615D01*
X0011402Y0008646D01*
X0011362Y0008679D01*
X0011325Y0008716D01*
X0011291Y0008755D01*
X0011260Y0008797D01*
X0011231Y0008841D01*
X0011207Y0008887D01*
X0011186Y0008934D01*
X0011168Y0008984D01*
X0011155Y0009034D01*
X0011145Y0009085D01*
X0011139Y0009137D01*
X0011137Y0009189D01*
X0138418Y0063689D02*
X0138421Y0063931D01*
X0138430Y0064172D01*
X0138445Y0064413D01*
X0138465Y0064654D01*
X0138492Y0064894D01*
X0138525Y0065133D01*
X0138563Y0065372D01*
X0138607Y0065609D01*
X0138657Y0065846D01*
X0138713Y0066081D01*
X0138775Y0066314D01*
X0138842Y0066546D01*
X0138915Y0066777D01*
X0138993Y0067005D01*
X0139078Y0067231D01*
X0139167Y0067456D01*
X0139262Y0067678D01*
X0139363Y0067897D01*
X0139469Y0068115D01*
X0139580Y0068329D01*
X0139697Y0068541D01*
X0139818Y0068749D01*
X0139945Y0068955D01*
X0140077Y0069157D01*
X0140214Y0069357D01*
X0140355Y0069552D01*
X0140501Y0069745D01*
X0140652Y0069933D01*
X0140808Y0070118D01*
X0140968Y0070299D01*
X0141132Y0070476D01*
X0141301Y0070649D01*
X0141474Y0070818D01*
X0141651Y0070982D01*
X0141832Y0071142D01*
X0142017Y0071298D01*
X0142205Y0071449D01*
X0142398Y0071595D01*
X0142593Y0071736D01*
X0142793Y0071873D01*
X0142995Y0072005D01*
X0143201Y0072132D01*
X0143409Y0072253D01*
X0143621Y0072370D01*
X0143835Y0072481D01*
X0144053Y0072587D01*
X0144272Y0072688D01*
X0144494Y0072783D01*
X0144719Y0072872D01*
X0144945Y0072957D01*
X0145173Y0073035D01*
X0145404Y0073108D01*
X0145636Y0073175D01*
X0145869Y0073237D01*
X0146104Y0073293D01*
X0146341Y0073343D01*
X0146578Y0073387D01*
X0146817Y0073425D01*
X0147056Y0073458D01*
X0147296Y0073485D01*
X0147537Y0073505D01*
X0147778Y0073520D01*
X0148019Y0073529D01*
X0148261Y0073532D01*
X0148503Y0073529D01*
X0148744Y0073520D01*
X0148985Y0073505D01*
X0149226Y0073485D01*
X0149466Y0073458D01*
X0149705Y0073425D01*
X0149944Y0073387D01*
X0150181Y0073343D01*
X0150418Y0073293D01*
X0150653Y0073237D01*
X0150886Y0073175D01*
X0151118Y0073108D01*
X0151349Y0073035D01*
X0151577Y0072957D01*
X0151803Y0072872D01*
X0152028Y0072783D01*
X0152250Y0072688D01*
X0152469Y0072587D01*
X0152687Y0072481D01*
X0152901Y0072370D01*
X0153113Y0072253D01*
X0153321Y0072132D01*
X0153527Y0072005D01*
X0153729Y0071873D01*
X0153929Y0071736D01*
X0154124Y0071595D01*
X0154317Y0071449D01*
X0154505Y0071298D01*
X0154690Y0071142D01*
X0154871Y0070982D01*
X0155048Y0070818D01*
X0155221Y0070649D01*
X0155390Y0070476D01*
X0155554Y0070299D01*
X0155714Y0070118D01*
X0155870Y0069933D01*
X0156021Y0069745D01*
X0156167Y0069552D01*
X0156308Y0069357D01*
X0156445Y0069157D01*
X0156577Y0068955D01*
X0156704Y0068749D01*
X0156825Y0068541D01*
X0156942Y0068329D01*
X0157053Y0068115D01*
X0157159Y0067897D01*
X0157260Y0067678D01*
X0157355Y0067456D01*
X0157444Y0067231D01*
X0157529Y0067005D01*
X0157607Y0066777D01*
X0157680Y0066546D01*
X0157747Y0066314D01*
X0157809Y0066081D01*
X0157865Y0065846D01*
X0157915Y0065609D01*
X0157959Y0065372D01*
X0157997Y0065133D01*
X0158030Y0064894D01*
X0158057Y0064654D01*
X0158077Y0064413D01*
X0158092Y0064172D01*
X0158101Y0063931D01*
X0158104Y0063689D01*
X0158101Y0063447D01*
X0158092Y0063206D01*
X0158077Y0062965D01*
X0158057Y0062724D01*
X0158030Y0062484D01*
X0157997Y0062245D01*
X0157959Y0062006D01*
X0157915Y0061769D01*
X0157865Y0061532D01*
X0157809Y0061297D01*
X0157747Y0061064D01*
X0157680Y0060832D01*
X0157607Y0060601D01*
X0157529Y0060373D01*
X0157444Y0060147D01*
X0157355Y0059922D01*
X0157260Y0059700D01*
X0157159Y0059481D01*
X0157053Y0059263D01*
X0156942Y0059049D01*
X0156825Y0058837D01*
X0156704Y0058629D01*
X0156577Y0058423D01*
X0156445Y0058221D01*
X0156308Y0058021D01*
X0156167Y0057826D01*
X0156021Y0057633D01*
X0155870Y0057445D01*
X0155714Y0057260D01*
X0155554Y0057079D01*
X0155390Y0056902D01*
X0155221Y0056729D01*
X0155048Y0056560D01*
X0154871Y0056396D01*
X0154690Y0056236D01*
X0154505Y0056080D01*
X0154317Y0055929D01*
X0154124Y0055783D01*
X0153929Y0055642D01*
X0153729Y0055505D01*
X0153527Y0055373D01*
X0153321Y0055246D01*
X0153113Y0055125D01*
X0152901Y0055008D01*
X0152687Y0054897D01*
X0152469Y0054791D01*
X0152250Y0054690D01*
X0152028Y0054595D01*
X0151803Y0054506D01*
X0151577Y0054421D01*
X0151349Y0054343D01*
X0151118Y0054270D01*
X0150886Y0054203D01*
X0150653Y0054141D01*
X0150418Y0054085D01*
X0150181Y0054035D01*
X0149944Y0053991D01*
X0149705Y0053953D01*
X0149466Y0053920D01*
X0149226Y0053893D01*
X0148985Y0053873D01*
X0148744Y0053858D01*
X0148503Y0053849D01*
X0148261Y0053846D01*
X0148019Y0053849D01*
X0147778Y0053858D01*
X0147537Y0053873D01*
X0147296Y0053893D01*
X0147056Y0053920D01*
X0146817Y0053953D01*
X0146578Y0053991D01*
X0146341Y0054035D01*
X0146104Y0054085D01*
X0145869Y0054141D01*
X0145636Y0054203D01*
X0145404Y0054270D01*
X0145173Y0054343D01*
X0144945Y0054421D01*
X0144719Y0054506D01*
X0144494Y0054595D01*
X0144272Y0054690D01*
X0144053Y0054791D01*
X0143835Y0054897D01*
X0143621Y0055008D01*
X0143409Y0055125D01*
X0143201Y0055246D01*
X0142995Y0055373D01*
X0142793Y0055505D01*
X0142593Y0055642D01*
X0142398Y0055783D01*
X0142205Y0055929D01*
X0142017Y0056080D01*
X0141832Y0056236D01*
X0141651Y0056396D01*
X0141474Y0056560D01*
X0141301Y0056729D01*
X0141132Y0056902D01*
X0140968Y0057079D01*
X0140808Y0057260D01*
X0140652Y0057445D01*
X0140501Y0057633D01*
X0140355Y0057826D01*
X0140214Y0058021D01*
X0140077Y0058221D01*
X0139945Y0058423D01*
X0139818Y0058629D01*
X0139697Y0058837D01*
X0139580Y0059049D01*
X0139469Y0059263D01*
X0139363Y0059481D01*
X0139262Y0059700D01*
X0139167Y0059922D01*
X0139078Y0060147D01*
X0138993Y0060373D01*
X0138915Y0060601D01*
X0138842Y0060832D01*
X0138775Y0061064D01*
X0138713Y0061297D01*
X0138657Y0061532D01*
X0138607Y0061769D01*
X0138563Y0062006D01*
X0138525Y0062245D01*
X0138492Y0062484D01*
X0138465Y0062724D01*
X0138445Y0062965D01*
X0138430Y0063206D01*
X0138421Y0063447D01*
X0138418Y0063689D01*
X0050733Y0064189D02*
X0050736Y0064431D01*
X0050745Y0064672D01*
X0050760Y0064913D01*
X0050780Y0065154D01*
X0050807Y0065394D01*
X0050840Y0065633D01*
X0050878Y0065872D01*
X0050922Y0066109D01*
X0050972Y0066346D01*
X0051028Y0066581D01*
X0051090Y0066814D01*
X0051157Y0067046D01*
X0051230Y0067277D01*
X0051308Y0067505D01*
X0051393Y0067731D01*
X0051482Y0067956D01*
X0051577Y0068178D01*
X0051678Y0068397D01*
X0051784Y0068615D01*
X0051895Y0068829D01*
X0052012Y0069041D01*
X0052133Y0069249D01*
X0052260Y0069455D01*
X0052392Y0069657D01*
X0052529Y0069857D01*
X0052670Y0070052D01*
X0052816Y0070245D01*
X0052967Y0070433D01*
X0053123Y0070618D01*
X0053283Y0070799D01*
X0053447Y0070976D01*
X0053616Y0071149D01*
X0053789Y0071318D01*
X0053966Y0071482D01*
X0054147Y0071642D01*
X0054332Y0071798D01*
X0054520Y0071949D01*
X0054713Y0072095D01*
X0054908Y0072236D01*
X0055108Y0072373D01*
X0055310Y0072505D01*
X0055516Y0072632D01*
X0055724Y0072753D01*
X0055936Y0072870D01*
X0056150Y0072981D01*
X0056368Y0073087D01*
X0056587Y0073188D01*
X0056809Y0073283D01*
X0057034Y0073372D01*
X0057260Y0073457D01*
X0057488Y0073535D01*
X0057719Y0073608D01*
X0057951Y0073675D01*
X0058184Y0073737D01*
X0058419Y0073793D01*
X0058656Y0073843D01*
X0058893Y0073887D01*
X0059132Y0073925D01*
X0059371Y0073958D01*
X0059611Y0073985D01*
X0059852Y0074005D01*
X0060093Y0074020D01*
X0060334Y0074029D01*
X0060576Y0074032D01*
X0060818Y0074029D01*
X0061059Y0074020D01*
X0061300Y0074005D01*
X0061541Y0073985D01*
X0061781Y0073958D01*
X0062020Y0073925D01*
X0062259Y0073887D01*
X0062496Y0073843D01*
X0062733Y0073793D01*
X0062968Y0073737D01*
X0063201Y0073675D01*
X0063433Y0073608D01*
X0063664Y0073535D01*
X0063892Y0073457D01*
X0064118Y0073372D01*
X0064343Y0073283D01*
X0064565Y0073188D01*
X0064784Y0073087D01*
X0065002Y0072981D01*
X0065216Y0072870D01*
X0065428Y0072753D01*
X0065636Y0072632D01*
X0065842Y0072505D01*
X0066044Y0072373D01*
X0066244Y0072236D01*
X0066439Y0072095D01*
X0066632Y0071949D01*
X0066820Y0071798D01*
X0067005Y0071642D01*
X0067186Y0071482D01*
X0067363Y0071318D01*
X0067536Y0071149D01*
X0067705Y0070976D01*
X0067869Y0070799D01*
X0068029Y0070618D01*
X0068185Y0070433D01*
X0068336Y0070245D01*
X0068482Y0070052D01*
X0068623Y0069857D01*
X0068760Y0069657D01*
X0068892Y0069455D01*
X0069019Y0069249D01*
X0069140Y0069041D01*
X0069257Y0068829D01*
X0069368Y0068615D01*
X0069474Y0068397D01*
X0069575Y0068178D01*
X0069670Y0067956D01*
X0069759Y0067731D01*
X0069844Y0067505D01*
X0069922Y0067277D01*
X0069995Y0067046D01*
X0070062Y0066814D01*
X0070124Y0066581D01*
X0070180Y0066346D01*
X0070230Y0066109D01*
X0070274Y0065872D01*
X0070312Y0065633D01*
X0070345Y0065394D01*
X0070372Y0065154D01*
X0070392Y0064913D01*
X0070407Y0064672D01*
X0070416Y0064431D01*
X0070419Y0064189D01*
X0070416Y0063947D01*
X0070407Y0063706D01*
X0070392Y0063465D01*
X0070372Y0063224D01*
X0070345Y0062984D01*
X0070312Y0062745D01*
X0070274Y0062506D01*
X0070230Y0062269D01*
X0070180Y0062032D01*
X0070124Y0061797D01*
X0070062Y0061564D01*
X0069995Y0061332D01*
X0069922Y0061101D01*
X0069844Y0060873D01*
X0069759Y0060647D01*
X0069670Y0060422D01*
X0069575Y0060200D01*
X0069474Y0059981D01*
X0069368Y0059763D01*
X0069257Y0059549D01*
X0069140Y0059337D01*
X0069019Y0059129D01*
X0068892Y0058923D01*
X0068760Y0058721D01*
X0068623Y0058521D01*
X0068482Y0058326D01*
X0068336Y0058133D01*
X0068185Y0057945D01*
X0068029Y0057760D01*
X0067869Y0057579D01*
X0067705Y0057402D01*
X0067536Y0057229D01*
X0067363Y0057060D01*
X0067186Y0056896D01*
X0067005Y0056736D01*
X0066820Y0056580D01*
X0066632Y0056429D01*
X0066439Y0056283D01*
X0066244Y0056142D01*
X0066044Y0056005D01*
X0065842Y0055873D01*
X0065636Y0055746D01*
X0065428Y0055625D01*
X0065216Y0055508D01*
X0065002Y0055397D01*
X0064784Y0055291D01*
X0064565Y0055190D01*
X0064343Y0055095D01*
X0064118Y0055006D01*
X0063892Y0054921D01*
X0063664Y0054843D01*
X0063433Y0054770D01*
X0063201Y0054703D01*
X0062968Y0054641D01*
X0062733Y0054585D01*
X0062496Y0054535D01*
X0062259Y0054491D01*
X0062020Y0054453D01*
X0061781Y0054420D01*
X0061541Y0054393D01*
X0061300Y0054373D01*
X0061059Y0054358D01*
X0060818Y0054349D01*
X0060576Y0054346D01*
X0060334Y0054349D01*
X0060093Y0054358D01*
X0059852Y0054373D01*
X0059611Y0054393D01*
X0059371Y0054420D01*
X0059132Y0054453D01*
X0058893Y0054491D01*
X0058656Y0054535D01*
X0058419Y0054585D01*
X0058184Y0054641D01*
X0057951Y0054703D01*
X0057719Y0054770D01*
X0057488Y0054843D01*
X0057260Y0054921D01*
X0057034Y0055006D01*
X0056809Y0055095D01*
X0056587Y0055190D01*
X0056368Y0055291D01*
X0056150Y0055397D01*
X0055936Y0055508D01*
X0055724Y0055625D01*
X0055516Y0055746D01*
X0055310Y0055873D01*
X0055108Y0056005D01*
X0054908Y0056142D01*
X0054713Y0056283D01*
X0054520Y0056429D01*
X0054332Y0056580D01*
X0054147Y0056736D01*
X0053966Y0056896D01*
X0053789Y0057060D01*
X0053616Y0057229D01*
X0053447Y0057402D01*
X0053283Y0057579D01*
X0053123Y0057760D01*
X0052967Y0057945D01*
X0052816Y0058133D01*
X0052670Y0058326D01*
X0052529Y0058521D01*
X0052392Y0058721D01*
X0052260Y0058923D01*
X0052133Y0059129D01*
X0052012Y0059337D01*
X0051895Y0059549D01*
X0051784Y0059763D01*
X0051678Y0059981D01*
X0051577Y0060200D01*
X0051482Y0060422D01*
X0051393Y0060647D01*
X0051308Y0060873D01*
X0051230Y0061101D01*
X0051157Y0061332D01*
X0051090Y0061564D01*
X0051028Y0061797D01*
X0050972Y0062032D01*
X0050922Y0062269D01*
X0050878Y0062506D01*
X0050840Y0062745D01*
X0050807Y0062984D01*
X0050780Y0063224D01*
X0050760Y0063465D01*
X0050745Y0063706D01*
X0050736Y0063947D01*
X0050733Y0064189D01*
X0011137Y0121689D02*
X0011139Y0121741D01*
X0011145Y0121793D01*
X0011155Y0121844D01*
X0011168Y0121894D01*
X0011186Y0121944D01*
X0011207Y0121991D01*
X0011231Y0122037D01*
X0011260Y0122081D01*
X0011291Y0122123D01*
X0011325Y0122162D01*
X0011362Y0122199D01*
X0011402Y0122232D01*
X0011445Y0122263D01*
X0011489Y0122290D01*
X0011535Y0122314D01*
X0011584Y0122334D01*
X0011633Y0122350D01*
X0011684Y0122363D01*
X0011735Y0122372D01*
X0011787Y0122377D01*
X0011839Y0122378D01*
X0011891Y0122375D01*
X0011943Y0122368D01*
X0011994Y0122357D01*
X0012044Y0122343D01*
X0012093Y0122324D01*
X0012140Y0122302D01*
X0012185Y0122277D01*
X0012229Y0122248D01*
X0012270Y0122216D01*
X0012309Y0122181D01*
X0012344Y0122143D01*
X0012377Y0122102D01*
X0012407Y0122060D01*
X0012433Y0122015D01*
X0012456Y0121968D01*
X0012475Y0121919D01*
X0012491Y0121869D01*
X0012503Y0121819D01*
X0012511Y0121767D01*
X0012515Y0121715D01*
X0012515Y0121663D01*
X0012511Y0121611D01*
X0012503Y0121559D01*
X0012491Y0121509D01*
X0012475Y0121459D01*
X0012456Y0121410D01*
X0012433Y0121363D01*
X0012407Y0121318D01*
X0012377Y0121276D01*
X0012344Y0121235D01*
X0012309Y0121197D01*
X0012270Y0121162D01*
X0012229Y0121130D01*
X0012185Y0121101D01*
X0012140Y0121076D01*
X0012093Y0121054D01*
X0012044Y0121035D01*
X0011994Y0121021D01*
X0011943Y0121010D01*
X0011891Y0121003D01*
X0011839Y0121000D01*
X0011787Y0121001D01*
X0011735Y0121006D01*
X0011684Y0121015D01*
X0011633Y0121028D01*
X0011584Y0121044D01*
X0011535Y0121064D01*
X0011489Y0121088D01*
X0011445Y0121115D01*
X0011402Y0121146D01*
X0011362Y0121179D01*
X0011325Y0121216D01*
X0011291Y0121255D01*
X0011260Y0121297D01*
X0011231Y0121341D01*
X0011207Y0121387D01*
X0011186Y0121434D01*
X0011168Y0121484D01*
X0011155Y0121534D01*
X0011145Y0121585D01*
X0011139Y0121637D01*
X0011137Y0121689D01*
X0295103Y0064189D02*
X0295106Y0064431D01*
X0295115Y0064672D01*
X0295130Y0064913D01*
X0295150Y0065154D01*
X0295177Y0065394D01*
X0295210Y0065633D01*
X0295248Y0065872D01*
X0295292Y0066109D01*
X0295342Y0066346D01*
X0295398Y0066581D01*
X0295460Y0066814D01*
X0295527Y0067046D01*
X0295600Y0067277D01*
X0295678Y0067505D01*
X0295763Y0067731D01*
X0295852Y0067956D01*
X0295947Y0068178D01*
X0296048Y0068397D01*
X0296154Y0068615D01*
X0296265Y0068829D01*
X0296382Y0069041D01*
X0296503Y0069249D01*
X0296630Y0069455D01*
X0296762Y0069657D01*
X0296899Y0069857D01*
X0297040Y0070052D01*
X0297186Y0070245D01*
X0297337Y0070433D01*
X0297493Y0070618D01*
X0297653Y0070799D01*
X0297817Y0070976D01*
X0297986Y0071149D01*
X0298159Y0071318D01*
X0298336Y0071482D01*
X0298517Y0071642D01*
X0298702Y0071798D01*
X0298890Y0071949D01*
X0299083Y0072095D01*
X0299278Y0072236D01*
X0299478Y0072373D01*
X0299680Y0072505D01*
X0299886Y0072632D01*
X0300094Y0072753D01*
X0300306Y0072870D01*
X0300520Y0072981D01*
X0300738Y0073087D01*
X0300957Y0073188D01*
X0301179Y0073283D01*
X0301404Y0073372D01*
X0301630Y0073457D01*
X0301858Y0073535D01*
X0302089Y0073608D01*
X0302321Y0073675D01*
X0302554Y0073737D01*
X0302789Y0073793D01*
X0303026Y0073843D01*
X0303263Y0073887D01*
X0303502Y0073925D01*
X0303741Y0073958D01*
X0303981Y0073985D01*
X0304222Y0074005D01*
X0304463Y0074020D01*
X0304704Y0074029D01*
X0304946Y0074032D01*
X0305188Y0074029D01*
X0305429Y0074020D01*
X0305670Y0074005D01*
X0305911Y0073985D01*
X0306151Y0073958D01*
X0306390Y0073925D01*
X0306629Y0073887D01*
X0306866Y0073843D01*
X0307103Y0073793D01*
X0307338Y0073737D01*
X0307571Y0073675D01*
X0307803Y0073608D01*
X0308034Y0073535D01*
X0308262Y0073457D01*
X0308488Y0073372D01*
X0308713Y0073283D01*
X0308935Y0073188D01*
X0309154Y0073087D01*
X0309372Y0072981D01*
X0309586Y0072870D01*
X0309798Y0072753D01*
X0310006Y0072632D01*
X0310212Y0072505D01*
X0310414Y0072373D01*
X0310614Y0072236D01*
X0310809Y0072095D01*
X0311002Y0071949D01*
X0311190Y0071798D01*
X0311375Y0071642D01*
X0311556Y0071482D01*
X0311733Y0071318D01*
X0311906Y0071149D01*
X0312075Y0070976D01*
X0312239Y0070799D01*
X0312399Y0070618D01*
X0312555Y0070433D01*
X0312706Y0070245D01*
X0312852Y0070052D01*
X0312993Y0069857D01*
X0313130Y0069657D01*
X0313262Y0069455D01*
X0313389Y0069249D01*
X0313510Y0069041D01*
X0313627Y0068829D01*
X0313738Y0068615D01*
X0313844Y0068397D01*
X0313945Y0068178D01*
X0314040Y0067956D01*
X0314129Y0067731D01*
X0314214Y0067505D01*
X0314292Y0067277D01*
X0314365Y0067046D01*
X0314432Y0066814D01*
X0314494Y0066581D01*
X0314550Y0066346D01*
X0314600Y0066109D01*
X0314644Y0065872D01*
X0314682Y0065633D01*
X0314715Y0065394D01*
X0314742Y0065154D01*
X0314762Y0064913D01*
X0314777Y0064672D01*
X0314786Y0064431D01*
X0314789Y0064189D01*
X0314786Y0063947D01*
X0314777Y0063706D01*
X0314762Y0063465D01*
X0314742Y0063224D01*
X0314715Y0062984D01*
X0314682Y0062745D01*
X0314644Y0062506D01*
X0314600Y0062269D01*
X0314550Y0062032D01*
X0314494Y0061797D01*
X0314432Y0061564D01*
X0314365Y0061332D01*
X0314292Y0061101D01*
X0314214Y0060873D01*
X0314129Y0060647D01*
X0314040Y0060422D01*
X0313945Y0060200D01*
X0313844Y0059981D01*
X0313738Y0059763D01*
X0313627Y0059549D01*
X0313510Y0059337D01*
X0313389Y0059129D01*
X0313262Y0058923D01*
X0313130Y0058721D01*
X0312993Y0058521D01*
X0312852Y0058326D01*
X0312706Y0058133D01*
X0312555Y0057945D01*
X0312399Y0057760D01*
X0312239Y0057579D01*
X0312075Y0057402D01*
X0311906Y0057229D01*
X0311733Y0057060D01*
X0311556Y0056896D01*
X0311375Y0056736D01*
X0311190Y0056580D01*
X0311002Y0056429D01*
X0310809Y0056283D01*
X0310614Y0056142D01*
X0310414Y0056005D01*
X0310212Y0055873D01*
X0310006Y0055746D01*
X0309798Y0055625D01*
X0309586Y0055508D01*
X0309372Y0055397D01*
X0309154Y0055291D01*
X0308935Y0055190D01*
X0308713Y0055095D01*
X0308488Y0055006D01*
X0308262Y0054921D01*
X0308034Y0054843D01*
X0307803Y0054770D01*
X0307571Y0054703D01*
X0307338Y0054641D01*
X0307103Y0054585D01*
X0306866Y0054535D01*
X0306629Y0054491D01*
X0306390Y0054453D01*
X0306151Y0054420D01*
X0305911Y0054393D01*
X0305670Y0054373D01*
X0305429Y0054358D01*
X0305188Y0054349D01*
X0304946Y0054346D01*
X0304704Y0054349D01*
X0304463Y0054358D01*
X0304222Y0054373D01*
X0303981Y0054393D01*
X0303741Y0054420D01*
X0303502Y0054453D01*
X0303263Y0054491D01*
X0303026Y0054535D01*
X0302789Y0054585D01*
X0302554Y0054641D01*
X0302321Y0054703D01*
X0302089Y0054770D01*
X0301858Y0054843D01*
X0301630Y0054921D01*
X0301404Y0055006D01*
X0301179Y0055095D01*
X0300957Y0055190D01*
X0300738Y0055291D01*
X0300520Y0055397D01*
X0300306Y0055508D01*
X0300094Y0055625D01*
X0299886Y0055746D01*
X0299680Y0055873D01*
X0299478Y0056005D01*
X0299278Y0056142D01*
X0299083Y0056283D01*
X0298890Y0056429D01*
X0298702Y0056580D01*
X0298517Y0056736D01*
X0298336Y0056896D01*
X0298159Y0057060D01*
X0297986Y0057229D01*
X0297817Y0057402D01*
X0297653Y0057579D01*
X0297493Y0057760D01*
X0297337Y0057945D01*
X0297186Y0058133D01*
X0297040Y0058326D01*
X0296899Y0058521D01*
X0296762Y0058721D01*
X0296630Y0058923D01*
X0296503Y0059129D01*
X0296382Y0059337D01*
X0296265Y0059549D01*
X0296154Y0059763D01*
X0296048Y0059981D01*
X0295947Y0060200D01*
X0295852Y0060422D01*
X0295763Y0060647D01*
X0295678Y0060873D01*
X0295600Y0061101D01*
X0295527Y0061332D01*
X0295460Y0061564D01*
X0295398Y0061797D01*
X0295342Y0062032D01*
X0295292Y0062269D01*
X0295248Y0062506D01*
X0295210Y0062745D01*
X0295177Y0062984D01*
X0295150Y0063224D01*
X0295130Y0063465D01*
X0295115Y0063706D01*
X0295106Y0063947D01*
X0295103Y0064189D01*
X0382040Y0063815D02*
X0382043Y0064057D01*
X0382052Y0064298D01*
X0382067Y0064539D01*
X0382087Y0064780D01*
X0382114Y0065020D01*
X0382147Y0065259D01*
X0382185Y0065498D01*
X0382229Y0065735D01*
X0382279Y0065972D01*
X0382335Y0066207D01*
X0382397Y0066440D01*
X0382464Y0066672D01*
X0382537Y0066903D01*
X0382615Y0067131D01*
X0382700Y0067357D01*
X0382789Y0067582D01*
X0382884Y0067804D01*
X0382985Y0068023D01*
X0383091Y0068241D01*
X0383202Y0068455D01*
X0383319Y0068667D01*
X0383440Y0068875D01*
X0383567Y0069081D01*
X0383699Y0069283D01*
X0383836Y0069483D01*
X0383977Y0069678D01*
X0384123Y0069871D01*
X0384274Y0070059D01*
X0384430Y0070244D01*
X0384590Y0070425D01*
X0384754Y0070602D01*
X0384923Y0070775D01*
X0385096Y0070944D01*
X0385273Y0071108D01*
X0385454Y0071268D01*
X0385639Y0071424D01*
X0385827Y0071575D01*
X0386020Y0071721D01*
X0386215Y0071862D01*
X0386415Y0071999D01*
X0386617Y0072131D01*
X0386823Y0072258D01*
X0387031Y0072379D01*
X0387243Y0072496D01*
X0387457Y0072607D01*
X0387675Y0072713D01*
X0387894Y0072814D01*
X0388116Y0072909D01*
X0388341Y0072998D01*
X0388567Y0073083D01*
X0388795Y0073161D01*
X0389026Y0073234D01*
X0389258Y0073301D01*
X0389491Y0073363D01*
X0389726Y0073419D01*
X0389963Y0073469D01*
X0390200Y0073513D01*
X0390439Y0073551D01*
X0390678Y0073584D01*
X0390918Y0073611D01*
X0391159Y0073631D01*
X0391400Y0073646D01*
X0391641Y0073655D01*
X0391883Y0073658D01*
X0392125Y0073655D01*
X0392366Y0073646D01*
X0392607Y0073631D01*
X0392848Y0073611D01*
X0393088Y0073584D01*
X0393327Y0073551D01*
X0393566Y0073513D01*
X0393803Y0073469D01*
X0394040Y0073419D01*
X0394275Y0073363D01*
X0394508Y0073301D01*
X0394740Y0073234D01*
X0394971Y0073161D01*
X0395199Y0073083D01*
X0395425Y0072998D01*
X0395650Y0072909D01*
X0395872Y0072814D01*
X0396091Y0072713D01*
X0396309Y0072607D01*
X0396523Y0072496D01*
X0396735Y0072379D01*
X0396943Y0072258D01*
X0397149Y0072131D01*
X0397351Y0071999D01*
X0397551Y0071862D01*
X0397746Y0071721D01*
X0397939Y0071575D01*
X0398127Y0071424D01*
X0398312Y0071268D01*
X0398493Y0071108D01*
X0398670Y0070944D01*
X0398843Y0070775D01*
X0399012Y0070602D01*
X0399176Y0070425D01*
X0399336Y0070244D01*
X0399492Y0070059D01*
X0399643Y0069871D01*
X0399789Y0069678D01*
X0399930Y0069483D01*
X0400067Y0069283D01*
X0400199Y0069081D01*
X0400326Y0068875D01*
X0400447Y0068667D01*
X0400564Y0068455D01*
X0400675Y0068241D01*
X0400781Y0068023D01*
X0400882Y0067804D01*
X0400977Y0067582D01*
X0401066Y0067357D01*
X0401151Y0067131D01*
X0401229Y0066903D01*
X0401302Y0066672D01*
X0401369Y0066440D01*
X0401431Y0066207D01*
X0401487Y0065972D01*
X0401537Y0065735D01*
X0401581Y0065498D01*
X0401619Y0065259D01*
X0401652Y0065020D01*
X0401679Y0064780D01*
X0401699Y0064539D01*
X0401714Y0064298D01*
X0401723Y0064057D01*
X0401726Y0063815D01*
X0401723Y0063573D01*
X0401714Y0063332D01*
X0401699Y0063091D01*
X0401679Y0062850D01*
X0401652Y0062610D01*
X0401619Y0062371D01*
X0401581Y0062132D01*
X0401537Y0061895D01*
X0401487Y0061658D01*
X0401431Y0061423D01*
X0401369Y0061190D01*
X0401302Y0060958D01*
X0401229Y0060727D01*
X0401151Y0060499D01*
X0401066Y0060273D01*
X0400977Y0060048D01*
X0400882Y0059826D01*
X0400781Y0059607D01*
X0400675Y0059389D01*
X0400564Y0059175D01*
X0400447Y0058963D01*
X0400326Y0058755D01*
X0400199Y0058549D01*
X0400067Y0058347D01*
X0399930Y0058147D01*
X0399789Y0057952D01*
X0399643Y0057759D01*
X0399492Y0057571D01*
X0399336Y0057386D01*
X0399176Y0057205D01*
X0399012Y0057028D01*
X0398843Y0056855D01*
X0398670Y0056686D01*
X0398493Y0056522D01*
X0398312Y0056362D01*
X0398127Y0056206D01*
X0397939Y0056055D01*
X0397746Y0055909D01*
X0397551Y0055768D01*
X0397351Y0055631D01*
X0397149Y0055499D01*
X0396943Y0055372D01*
X0396735Y0055251D01*
X0396523Y0055134D01*
X0396309Y0055023D01*
X0396091Y0054917D01*
X0395872Y0054816D01*
X0395650Y0054721D01*
X0395425Y0054632D01*
X0395199Y0054547D01*
X0394971Y0054469D01*
X0394740Y0054396D01*
X0394508Y0054329D01*
X0394275Y0054267D01*
X0394040Y0054211D01*
X0393803Y0054161D01*
X0393566Y0054117D01*
X0393327Y0054079D01*
X0393088Y0054046D01*
X0392848Y0054019D01*
X0392607Y0053999D01*
X0392366Y0053984D01*
X0392125Y0053975D01*
X0391883Y0053972D01*
X0391641Y0053975D01*
X0391400Y0053984D01*
X0391159Y0053999D01*
X0390918Y0054019D01*
X0390678Y0054046D01*
X0390439Y0054079D01*
X0390200Y0054117D01*
X0389963Y0054161D01*
X0389726Y0054211D01*
X0389491Y0054267D01*
X0389258Y0054329D01*
X0389026Y0054396D01*
X0388795Y0054469D01*
X0388567Y0054547D01*
X0388341Y0054632D01*
X0388116Y0054721D01*
X0387894Y0054816D01*
X0387675Y0054917D01*
X0387457Y0055023D01*
X0387243Y0055134D01*
X0387031Y0055251D01*
X0386823Y0055372D01*
X0386617Y0055499D01*
X0386415Y0055631D01*
X0386215Y0055768D01*
X0386020Y0055909D01*
X0385827Y0056055D01*
X0385639Y0056206D01*
X0385454Y0056362D01*
X0385273Y0056522D01*
X0385096Y0056686D01*
X0384923Y0056855D01*
X0384754Y0057028D01*
X0384590Y0057205D01*
X0384430Y0057386D01*
X0384274Y0057571D01*
X0384123Y0057759D01*
X0383977Y0057952D01*
X0383836Y0058147D01*
X0383699Y0058347D01*
X0383567Y0058549D01*
X0383440Y0058755D01*
X0383319Y0058963D01*
X0383202Y0059175D01*
X0383091Y0059389D01*
X0382985Y0059607D01*
X0382884Y0059826D01*
X0382789Y0060048D01*
X0382700Y0060273D01*
X0382615Y0060499D01*
X0382537Y0060727D01*
X0382464Y0060958D01*
X0382397Y0061190D01*
X0382335Y0061423D01*
X0382279Y0061658D01*
X0382229Y0061895D01*
X0382185Y0062132D01*
X0382147Y0062371D01*
X0382114Y0062610D01*
X0382087Y0062850D01*
X0382067Y0063091D01*
X0382052Y0063332D01*
X0382043Y0063573D01*
X0382040Y0063815D01*
X0442387Y0009189D02*
X0442389Y0009241D01*
X0442395Y0009293D01*
X0442405Y0009344D01*
X0442418Y0009394D01*
X0442436Y0009444D01*
X0442457Y0009491D01*
X0442481Y0009537D01*
X0442510Y0009581D01*
X0442541Y0009623D01*
X0442575Y0009662D01*
X0442612Y0009699D01*
X0442652Y0009732D01*
X0442695Y0009763D01*
X0442739Y0009790D01*
X0442785Y0009814D01*
X0442834Y0009834D01*
X0442883Y0009850D01*
X0442934Y0009863D01*
X0442985Y0009872D01*
X0443037Y0009877D01*
X0443089Y0009878D01*
X0443141Y0009875D01*
X0443193Y0009868D01*
X0443244Y0009857D01*
X0443294Y0009843D01*
X0443343Y0009824D01*
X0443390Y0009802D01*
X0443435Y0009777D01*
X0443479Y0009748D01*
X0443520Y0009716D01*
X0443559Y0009681D01*
X0443594Y0009643D01*
X0443627Y0009602D01*
X0443657Y0009560D01*
X0443683Y0009515D01*
X0443706Y0009468D01*
X0443725Y0009419D01*
X0443741Y0009369D01*
X0443753Y0009319D01*
X0443761Y0009267D01*
X0443765Y0009215D01*
X0443765Y0009163D01*
X0443761Y0009111D01*
X0443753Y0009059D01*
X0443741Y0009009D01*
X0443725Y0008959D01*
X0443706Y0008910D01*
X0443683Y0008863D01*
X0443657Y0008818D01*
X0443627Y0008776D01*
X0443594Y0008735D01*
X0443559Y0008697D01*
X0443520Y0008662D01*
X0443479Y0008630D01*
X0443435Y0008601D01*
X0443390Y0008576D01*
X0443343Y0008554D01*
X0443294Y0008535D01*
X0443244Y0008521D01*
X0443193Y0008510D01*
X0443141Y0008503D01*
X0443089Y0008500D01*
X0443037Y0008501D01*
X0442985Y0008506D01*
X0442934Y0008515D01*
X0442883Y0008528D01*
X0442834Y0008544D01*
X0442785Y0008564D01*
X0442739Y0008588D01*
X0442695Y0008615D01*
X0442652Y0008646D01*
X0442612Y0008679D01*
X0442575Y0008716D01*
X0442541Y0008755D01*
X0442510Y0008797D01*
X0442481Y0008841D01*
X0442457Y0008887D01*
X0442436Y0008934D01*
X0442418Y0008984D01*
X0442405Y0009034D01*
X0442395Y0009085D01*
X0442389Y0009137D01*
X0442387Y0009189D01*
X0442387Y0121689D02*
X0442389Y0121741D01*
X0442395Y0121793D01*
X0442405Y0121844D01*
X0442418Y0121894D01*
X0442436Y0121944D01*
X0442457Y0121991D01*
X0442481Y0122037D01*
X0442510Y0122081D01*
X0442541Y0122123D01*
X0442575Y0122162D01*
X0442612Y0122199D01*
X0442652Y0122232D01*
X0442695Y0122263D01*
X0442739Y0122290D01*
X0442785Y0122314D01*
X0442834Y0122334D01*
X0442883Y0122350D01*
X0442934Y0122363D01*
X0442985Y0122372D01*
X0443037Y0122377D01*
X0443089Y0122378D01*
X0443141Y0122375D01*
X0443193Y0122368D01*
X0443244Y0122357D01*
X0443294Y0122343D01*
X0443343Y0122324D01*
X0443390Y0122302D01*
X0443435Y0122277D01*
X0443479Y0122248D01*
X0443520Y0122216D01*
X0443559Y0122181D01*
X0443594Y0122143D01*
X0443627Y0122102D01*
X0443657Y0122060D01*
X0443683Y0122015D01*
X0443706Y0121968D01*
X0443725Y0121919D01*
X0443741Y0121869D01*
X0443753Y0121819D01*
X0443761Y0121767D01*
X0443765Y0121715D01*
X0443765Y0121663D01*
X0443761Y0121611D01*
X0443753Y0121559D01*
X0443741Y0121509D01*
X0443725Y0121459D01*
X0443706Y0121410D01*
X0443683Y0121363D01*
X0443657Y0121318D01*
X0443627Y0121276D01*
X0443594Y0121235D01*
X0443559Y0121197D01*
X0443520Y0121162D01*
X0443479Y0121130D01*
X0443435Y0121101D01*
X0443390Y0121076D01*
X0443343Y0121054D01*
X0443294Y0121035D01*
X0443244Y0121021D01*
X0443193Y0121010D01*
X0443141Y0121003D01*
X0443089Y0121000D01*
X0443037Y0121001D01*
X0442985Y0121006D01*
X0442934Y0121015D01*
X0442883Y0121028D01*
X0442834Y0121044D01*
X0442785Y0121064D01*
X0442739Y0121088D01*
X0442695Y0121115D01*
X0442652Y0121146D01*
X0442612Y0121179D01*
X0442575Y0121216D01*
X0442541Y0121255D01*
X0442510Y0121297D01*
X0442481Y0121341D01*
X0442457Y0121387D01*
X0442436Y0121434D01*
X0442418Y0121484D01*
X0442405Y0121534D01*
X0442395Y0121585D01*
X0442389Y0121637D01*
X0442387Y0121689D01*
D11*
X0390633Y0098530D03*
X0374885Y0094593D03*
X0406381Y0094593D03*
X0411755Y0081531D03*
X0368261Y0081531D03*
X0324818Y0081906D03*
X0319444Y0094967D03*
X0303696Y0098904D03*
X0287948Y0094967D03*
X0281324Y0081906D03*
X0280824Y0064189D03*
X0325318Y0064189D03*
X0367761Y0063815D03*
X0412255Y0063815D03*
X0411755Y0046098D03*
X0406381Y0033037D03*
X0390633Y0029100D03*
X0374885Y0033037D03*
X0368261Y0046098D03*
X0324818Y0046472D03*
X0319444Y0033411D03*
X0303696Y0029474D03*
X0287948Y0033411D03*
X0281324Y0046472D03*
X0168633Y0063689D03*
X0124139Y0063689D03*
X0080948Y0064189D03*
X0036454Y0064189D03*
X0036954Y0081906D03*
X0080448Y0081906D03*
X0075074Y0094967D03*
X0059326Y0098904D03*
X0043578Y0094967D03*
X0124639Y0081406D03*
X0168133Y0081406D03*
X0162759Y0094467D03*
X0147011Y0098404D03*
X0131263Y0094467D03*
X0124639Y0045972D03*
X0168133Y0045972D03*
X0162759Y0032911D03*
X0147011Y0028974D03*
X0131263Y0032911D03*
X0080448Y0046472D03*
X0036954Y0046472D03*
X0043578Y0033411D03*
X0059326Y0029474D03*
X0075074Y0033411D03*
D12*
X0221865Y0064799D03*
X0234365Y0064799D03*
D13*
X0437576Y0068689D02*
X0443576Y0068689D01*
X0443576Y0078689D02*
X0437576Y0078689D01*
X0437576Y0088689D02*
X0443576Y0088689D01*
X0443576Y0058689D02*
X0437576Y0058689D01*
X0437576Y0048689D02*
X0443576Y0048689D01*
X0443576Y0038689D02*
X0437576Y0038689D01*
X0017700Y0039689D02*
X0011700Y0039689D01*
X0011700Y0049689D02*
X0017700Y0049689D01*
X0017700Y0059689D02*
X0011700Y0059689D01*
X0011700Y0069689D02*
X0017700Y0069689D01*
X0017700Y0079689D02*
X0011700Y0079689D01*
X0011700Y0089689D02*
X0017700Y0089689D01*
X0017700Y0099689D02*
X0011700Y0099689D01*
X0011700Y0109689D02*
X0017700Y0109689D01*
X0017700Y0029689D02*
X0011700Y0029689D01*
X0011700Y0019689D02*
X0017700Y0019689D01*
D14*
X0027076Y0029689D03*
X0026826Y0039189D03*
X0026826Y0049189D03*
X0091826Y0037939D03*
X0110576Y0026689D03*
X0180576Y0036030D03*
X0204326Y0024189D03*
X0204326Y0012939D03*
X0328076Y0025439D03*
X0338076Y0025439D03*
X0353076Y0046689D03*
X0415576Y0036689D03*
X0434326Y0027939D03*
X0434326Y0017939D03*
X0431984Y0049189D03*
X0351826Y0080439D03*
X0390576Y0084189D03*
X0363076Y0096689D03*
X0343076Y0094189D03*
X0335576Y0094189D03*
X0303076Y0086689D03*
X0269326Y0086689D03*
X0273076Y0096689D03*
X0335576Y0110439D03*
X0404951Y0111064D03*
X0421826Y0104189D03*
X0195576Y0122939D03*
X0186826Y0116689D03*
X0178076Y0110439D03*
X0178076Y0094189D03*
X0186826Y0094189D03*
X0150576Y0086689D03*
X0136826Y0084189D03*
X0106826Y0080439D03*
X0059326Y0086689D03*
X0045576Y0081689D03*
X0024167Y0080439D03*
X0026826Y0070439D03*
X0089326Y0095439D03*
X0098076Y0095439D03*
X0118076Y0096689D03*
X0089326Y0110439D03*
X0098076Y0116689D03*
X0106826Y0122939D03*
X0195576Y0076689D03*
D15*
X0195576Y0122939D01*
X0186826Y0116689D02*
X0186826Y0094189D01*
X0178076Y0094189D02*
X0178076Y0110439D01*
X0221865Y0109228D02*
X0221865Y0064799D01*
X0234365Y0064799D02*
X0234365Y0097978D01*
X0248076Y0111689D01*
X0321826Y0111689D01*
X0328076Y0117939D01*
X0420576Y0117939D01*
X0428076Y0110439D01*
X0428076Y0084189D01*
X0433076Y0079189D01*
X0440076Y0079189D01*
X0440576Y0078689D01*
X0440576Y0088689D02*
X0434326Y0094939D01*
X0434326Y0115439D01*
X0426826Y0122939D01*
X0300576Y0122939D01*
X0295576Y0117939D01*
X0230576Y0117939D01*
X0221865Y0109228D01*
X0259326Y0089189D02*
X0266826Y0096689D01*
X0273076Y0096689D01*
X0259326Y0089189D02*
X0259326Y0070439D01*
X0243076Y0054189D01*
X0203076Y0054189D01*
X0184326Y0072939D01*
X0160284Y0072939D01*
X0154326Y0078897D01*
X0154326Y0082939D01*
X0150576Y0086689D01*
X0136826Y0084189D02*
X0136826Y0082939D01*
X0133219Y0079331D01*
X0133219Y0057939D01*
X0130719Y0055439D01*
X0135238Y0055439D01*
X0142030Y0048646D01*
X0154492Y0048646D01*
X0160034Y0054189D01*
X0191826Y0054189D01*
X0200576Y0045439D01*
X0261826Y0045439D01*
X0269326Y0052939D01*
X0269326Y0055439D01*
X0292423Y0055439D01*
X0298715Y0049146D01*
X0311177Y0049146D01*
X0317469Y0055439D01*
X0375576Y0055439D01*
X0376841Y0056704D01*
X0376841Y0070046D01*
X0389326Y0082531D01*
X0389326Y0084189D01*
X0390576Y0084189D01*
X0359326Y0077939D02*
X0359326Y0094189D01*
X0361826Y0096689D01*
X0363076Y0096689D01*
X0351826Y0096689D02*
X0363076Y0107939D01*
X0395576Y0107939D01*
X0399326Y0104189D01*
X0421826Y0104189D01*
X0404951Y0111064D02*
X0403076Y0112939D01*
X0358076Y0112939D01*
X0343076Y0097939D01*
X0343076Y0094189D01*
X0335576Y0094189D02*
X0335576Y0110439D01*
X0351826Y0096689D02*
X0351826Y0080439D01*
X0354326Y0072939D02*
X0359326Y0077939D01*
X0354326Y0072939D02*
X0317469Y0072939D01*
X0303719Y0086689D01*
X0303076Y0086689D01*
X0269951Y0086064D02*
X0269326Y0086689D01*
X0269326Y0055439D01*
X0328076Y0031689D02*
X0336826Y0040439D01*
X0346826Y0040439D01*
X0353076Y0046689D01*
X0328076Y0031689D02*
X0328076Y0025439D01*
X0338076Y0025439D02*
X0338076Y0019189D01*
X0283076Y0019189D01*
X0266235Y0036030D01*
X0180576Y0036030D01*
X0180576Y0025439D01*
X0174326Y0019189D01*
X0129326Y0019189D01*
X0110576Y0037939D01*
X0091826Y0037939D01*
X0091826Y0032939D01*
X0078576Y0019689D01*
X0014700Y0019689D01*
X0014700Y0029689D02*
X0027076Y0029689D01*
X0026826Y0039189D02*
X0026326Y0039689D01*
X0014700Y0039689D01*
X0026326Y0049689D02*
X0026826Y0049189D01*
X0026326Y0049689D02*
X0014700Y0049689D01*
X0027576Y0059689D02*
X0031826Y0055439D01*
X0048053Y0055439D01*
X0054345Y0049146D01*
X0066807Y0049146D01*
X0073099Y0055439D01*
X0130719Y0055439D01*
X0115576Y0074189D02*
X0108076Y0066689D01*
X0098076Y0066689D01*
X0091826Y0072939D01*
X0073099Y0072939D01*
X0066807Y0079231D01*
X0066783Y0079231D01*
X0059326Y0086689D01*
X0045576Y0081689D02*
X0045576Y0070462D01*
X0045533Y0070420D01*
X0045533Y0057958D01*
X0048053Y0055439D01*
X0027576Y0059689D02*
X0014700Y0059689D01*
X0014700Y0069689D02*
X0027326Y0069689D01*
X0028076Y0070439D01*
X0026826Y0070439D01*
X0023576Y0079689D02*
X0014700Y0079689D01*
X0023576Y0079689D02*
X0024326Y0080439D01*
X0024167Y0080439D01*
X0022326Y0089689D02*
X0014700Y0089689D01*
X0022326Y0089689D02*
X0043076Y0110439D01*
X0089326Y0110439D01*
X0089326Y0095439D01*
X0098076Y0095439D02*
X0098076Y0116689D01*
X0041826Y0116689D01*
X0024826Y0099689D01*
X0014700Y0099689D01*
X0014700Y0109689D02*
X0027950Y0122939D01*
X0106826Y0122939D01*
X0106826Y0080439D01*
X0115576Y0074189D02*
X0115576Y0094189D01*
X0118076Y0096689D01*
X0268076Y0087939D02*
X0269326Y0086689D01*
X0421826Y0061689D02*
X0428826Y0068689D01*
X0440576Y0068689D01*
X0421826Y0061689D02*
X0421826Y0016530D01*
X0418234Y0012939D01*
X0278076Y0012939D01*
X0260576Y0030439D01*
X0196826Y0030439D01*
X0179326Y0012939D01*
X0124326Y0012939D01*
X0110576Y0026689D01*
X0180576Y0036030D02*
X0180576Y0036689D01*
X0204326Y0024189D02*
X0204326Y0012939D01*
X0338076Y0019189D02*
X0415576Y0019189D01*
X0415576Y0036689D01*
X0438076Y0027939D02*
X0440576Y0030439D01*
X0440576Y0038689D01*
X0440576Y0048689D02*
X0440076Y0049189D01*
X0431984Y0049189D01*
X0426826Y0055439D02*
X0426826Y0021689D01*
X0430576Y0017939D01*
X0434326Y0017939D01*
X0434326Y0027939D02*
X0438076Y0027939D01*
X0426826Y0055439D02*
X0430076Y0058689D01*
X0440576Y0058689D01*
M02*
