%
M48
M72
T01C0.01378
T02C0.02362
T03C0.03150
T04C0.04000
T05C0.04331
T06C0.19685
%
T01
X11826Y9189
X11826Y121689
X443076Y121689
X443076Y9189
T02
X234365Y64799
X221865Y64799
T03
X195576Y76689
X150576Y86689
X136826Y84189
X106826Y80439
X59326Y86689
X45576Y81689
X24167Y80439
X26826Y70439
X26826Y49189
X26826Y39189
X27076Y29689
X91826Y37939
X110576Y26689
X180576Y36030
X204326Y24189
X204326Y12939
X328076Y25439
X338076Y25439
X353076Y46689
X415576Y36689
X434326Y27939
X434326Y17939
X431984Y49189
X351826Y80439
X390576Y84189
X363076Y96689
X343076Y94189
X335576Y94189
X303076Y86689
X269326Y86689
X273076Y96689
X335576Y110439
X404951Y111064
X421826Y104189
X195576Y122939
X186826Y116689
X178076Y110439
X178076Y94189
X186826Y94189
X118076Y96689
X98076Y95439
X89326Y95439
X89326Y110439
X98076Y116689
X106826Y122939
T04
X14700Y109689
X14700Y99689
X14700Y89689
X14700Y79689
X14700Y69689
X14700Y59689
X14700Y49689
X14700Y39689
X14700Y29689
X14700Y19689
X440576Y38689
X440576Y48689
X440576Y58689
X440576Y68689
X440576Y78689
X440576Y88689
T05
X411755Y81531
X406381Y94593
X390633Y98530
X374885Y94593
X368261Y81531
X324818Y81906
X319444Y94967
X303696Y98904
X287948Y94967
X281324Y81906
X280824Y64189
X325318Y64189
X367761Y63815
X412255Y63815
X411755Y46098
X406381Y33037
X390633Y29100
X374885Y33037
X368261Y46098
X324818Y46472
X319444Y33411
X303696Y29474
X287948Y33411
X281324Y46472
X168633Y63689
X124139Y63689
X80948Y64189
X36454Y64189
X36954Y81906
X80448Y81906
X75074Y94967
X59326Y98904
X43578Y94967
X124639Y81406
X168133Y81406
X162759Y94467
X147011Y98404
X131263Y94467
X124639Y45972
X168133Y45972
X162759Y32911
X147011Y28974
X131263Y32911
X80448Y46472
X36954Y46472
X43578Y33411
X59326Y29474
X75074Y33411
T06
X148261Y63689
X60576Y64189
X304946Y64189
X391883Y63815
M30
