<?xml version="1.0" encoding="utf-8"?>
<!DOCTYPE eagle SYSTEM "eagle.dtd">
<eagle version="8.6.3">
<drawing>
<settings>
<setting alwaysvectorfont="no"/>
<setting verticaltext="up"/>
</settings>
<grid distance="0.1" unitdist="inch" unit="inch" style="lines" multiple="1" display="no" altdistance="0.01" altunitdist="inch" altunit="inch"/>
<layers>
<layer number="1" name="Top" color="4" fill="1" visible="no" active="no"/>
<layer number="16" name="Bottom" color="1" fill="1" visible="no" active="no"/>
<layer number="17" name="Pads" color="2" fill="1" visible="no" active="no"/>
<layer number="18" name="Vias" color="2" fill="1" visible="no" active="no"/>
<layer number="19" name="Unrouted" color="6" fill="1" visible="no" active="no"/>
<layer number="20" name="Dimension" color="15" fill="1" visible="no" active="no"/>
<layer number="21" name="tPlace" color="7" fill="1" visible="no" active="no"/>
<layer number="22" name="bPlace" color="7" fill="1" visible="no" active="no"/>
<layer number="23" name="tOrigins" color="15" fill="1" visible="no" active="no"/>
<layer number="24" name="bOrigins" color="15" fill="1" visible="no" active="no"/>
<layer number="25" name="tNames" color="7" fill="1" visible="no" active="no"/>
<layer number="26" name="bNames" color="7" fill="1" visible="no" active="no"/>
<layer number="27" name="tValues" color="7" fill="1" visible="no" active="no"/>
<layer number="28" name="bValues" color="7" fill="1" visible="no" active="no"/>
<layer number="29" name="tStop" color="7" fill="3" visible="no" active="no"/>
<layer number="30" name="bStop" color="7" fill="6" visible="no" active="no"/>
<layer number="31" name="tCream" color="7" fill="4" visible="no" active="no"/>
<layer number="32" name="bCream" color="7" fill="5" visible="no" active="no"/>
<layer number="33" name="tFinish" color="6" fill="3" visible="no" active="no"/>
<layer number="34" name="bFinish" color="6" fill="6" visible="no" active="no"/>
<layer number="35" name="tGlue" color="7" fill="4" visible="no" active="no"/>
<layer number="36" name="bGlue" color="7" fill="5" visible="no" active="no"/>
<layer number="37" name="tTest" color="7" fill="1" visible="no" active="no"/>
<layer number="38" name="bTest" color="7" fill="1" visible="no" active="no"/>
<layer number="39" name="tKeepout" color="4" fill="11" visible="no" active="no"/>
<layer number="40" name="bKeepout" color="1" fill="11" visible="no" active="no"/>
<layer number="41" name="tRestrict" color="4" fill="10" visible="no" active="no"/>
<layer number="42" name="bRestrict" color="1" fill="10" visible="no" active="no"/>
<layer number="43" name="vRestrict" color="2" fill="10" visible="no" active="no"/>
<layer number="44" name="Drills" color="7" fill="1" visible="no" active="no"/>
<layer number="45" name="Holes" color="7" fill="1" visible="no" active="no"/>
<layer number="46" name="Milling" color="3" fill="1" visible="no" active="no"/>
<layer number="47" name="Measures" color="7" fill="1" visible="no" active="no"/>
<layer number="48" name="Document" color="7" fill="1" visible="no" active="no"/>
<layer number="49" name="Reference" color="7" fill="1" visible="no" active="no"/>
<layer number="51" name="tDocu" color="7" fill="1" visible="no" active="no"/>
<layer number="52" name="bDocu" color="7" fill="1" visible="no" active="no"/>
<layer number="88" name="SimResults" color="9" fill="1" visible="yes" active="yes"/>
<layer number="89" name="SimProbes" color="9" fill="1" visible="yes" active="yes"/>
<layer number="90" name="Modules" color="5" fill="1" visible="yes" active="yes"/>
<layer number="91" name="Nets" color="2" fill="1" visible="yes" active="yes"/>
<layer number="92" name="Busses" color="1" fill="1" visible="yes" active="yes"/>
<layer number="93" name="Pins" color="2" fill="1" visible="no" active="yes"/>
<layer number="94" name="Symbols" color="4" fill="1" visible="yes" active="yes"/>
<layer number="95" name="Names" color="7" fill="1" visible="yes" active="yes"/>
<layer number="96" name="Values" color="7" fill="1" visible="yes" active="yes"/>
<layer number="97" name="Info" color="7" fill="1" visible="yes" active="yes"/>
<layer number="98" name="Guide" color="6" fill="1" visible="yes" active="yes"/>
</layers>
<schematic xreflabel="%F%N/%S.%C%R" xrefpart="/%S.%C%R">
<libraries>
<library name="switch-omron" urn="urn:adsk.eagle:library:377">
<description>&lt;b&gt;Omron Switches&lt;/b&gt;&lt;p&gt;
&lt;author&gt;Created by librarian@cadsoft.de&lt;/author&gt;</description>
<packages>
<package name="B3F-40XX" urn="urn:adsk.eagle:footprint:27470/1" library_version="1">
<description>&lt;b&gt;OMRON SWITCH&lt;/b&gt;</description>
<wire x1="-1.905" y1="1.905" x2="1.905" y2="1.905" width="0.1524" layer="21"/>
<wire x1="1.905" y1="-1.905" x2="1.905" y2="1.905" width="0.1524" layer="21"/>
<wire x1="1.905" y1="-1.905" x2="-1.905" y2="-1.905" width="0.1524" layer="21"/>
<wire x1="-1.905" y1="1.905" x2="-1.905" y2="-1.905" width="0.1524" layer="21"/>
<wire x1="-1.651" y1="1.651" x2="1.651" y2="1.651" width="0.0508" layer="21"/>
<wire x1="1.651" y1="-1.651" x2="1.651" y2="1.651" width="0.0508" layer="21"/>
<wire x1="1.651" y1="-1.651" x2="-1.651" y2="-1.651" width="0.0508" layer="21"/>
<wire x1="-1.651" y1="1.651" x2="-1.651" y2="-1.651" width="0.0508" layer="21"/>
<wire x1="-1.016" y1="6.096" x2="-1.016" y2="6.477" width="0.1524" layer="21"/>
<wire x1="-1.016" y1="6.096" x2="1.016" y2="6.096" width="0.1524" layer="21"/>
<wire x1="-1.016" y1="6.477" x2="1.016" y2="6.477" width="0.1524" layer="21"/>
<wire x1="1.016" y1="6.477" x2="1.016" y2="6.096" width="0.1524" layer="21"/>
<wire x1="6.096" y1="5.08" x2="5.08" y2="6.096" width="0.1524" layer="21"/>
<wire x1="5.08" y1="6.096" x2="1.778" y2="6.096" width="0.1524" layer="21"/>
<wire x1="6.096" y1="5.08" x2="6.096" y2="3.81" width="0.1524" layer="21"/>
<wire x1="6.096" y1="1.143" x2="6.096" y2="3.81" width="0.1524" layer="51"/>
<wire x1="6.096" y1="1.143" x2="6.096" y2="-1.143" width="0.1524" layer="21"/>
<wire x1="6.096" y1="-3.81" x2="6.096" y2="-1.143" width="0.1524" layer="51"/>
<wire x1="5.08" y1="-6.096" x2="6.096" y2="-5.08" width="0.1524" layer="21"/>
<wire x1="6.096" y1="-5.08" x2="6.096" y2="-3.81" width="0.1524" layer="21"/>
<wire x1="-6.096" y1="1.143" x2="-6.096" y2="3.81" width="0.1524" layer="51"/>
<wire x1="-6.096" y1="1.143" x2="-6.096" y2="-1.143" width="0.1524" layer="21"/>
<wire x1="-6.096" y1="-3.81" x2="-6.096" y2="-1.143" width="0.1524" layer="51"/>
<wire x1="-6.096" y1="-3.81" x2="-6.096" y2="-5.08" width="0.1524" layer="21"/>
<wire x1="-6.096" y1="-5.08" x2="-5.08" y2="-6.096" width="0.1524" layer="21"/>
<wire x1="-5.08" y1="-6.096" x2="-1.778" y2="-6.096" width="0.1524" layer="21"/>
<wire x1="-5.08" y1="6.096" x2="-1.778" y2="6.096" width="0.1524" layer="21"/>
<wire x1="-5.08" y1="6.096" x2="-6.096" y2="5.08" width="0.1524" layer="21"/>
<wire x1="-6.096" y1="5.08" x2="-6.096" y2="3.81" width="0.1524" layer="21"/>
<wire x1="-1.016" y1="-6.477" x2="1.016" y2="-6.477" width="0.1524" layer="21"/>
<wire x1="-1.016" y1="-6.477" x2="-1.016" y2="-6.096" width="0.1524" layer="21"/>
<wire x1="1.016" y1="-6.096" x2="1.016" y2="-6.477" width="0.1524" layer="21"/>
<wire x1="5.08" y1="6.096" x2="4.826" y2="6.35" width="0.1524" layer="21"/>
<wire x1="4.826" y1="6.35" x2="1.778" y2="6.35" width="0.1524" layer="21"/>
<wire x1="1.778" y1="6.35" x2="1.778" y2="6.096" width="0.1524" layer="21"/>
<wire x1="1.778" y1="6.096" x2="1.016" y2="6.096" width="0.1524" layer="21"/>
<wire x1="-1.778" y1="6.35" x2="-1.778" y2="6.096" width="0.1524" layer="21"/>
<wire x1="-1.778" y1="6.096" x2="-1.016" y2="6.096" width="0.1524" layer="21"/>
<wire x1="-1.778" y1="6.35" x2="-4.826" y2="6.35" width="0.1524" layer="21"/>
<wire x1="-5.08" y1="6.096" x2="-4.826" y2="6.35" width="0.1524" layer="21"/>
<wire x1="-1.016" y1="-6.096" x2="1.016" y2="-6.096" width="0.1524" layer="21"/>
<wire x1="1.016" y1="-6.096" x2="1.778" y2="-6.096" width="0.1524" layer="21"/>
<wire x1="-1.778" y1="-6.096" x2="-1.778" y2="-6.35" width="0.1524" layer="21"/>
<wire x1="-1.778" y1="-6.096" x2="-1.016" y2="-6.096" width="0.1524" layer="21"/>
<wire x1="-1.778" y1="-6.35" x2="-4.826" y2="-6.35" width="0.1524" layer="21"/>
<wire x1="-4.826" y1="-6.35" x2="-5.08" y2="-6.096" width="0.1524" layer="21"/>
<wire x1="1.778" y1="-6.096" x2="1.778" y2="-6.35" width="0.1524" layer="21"/>
<wire x1="1.778" y1="-6.096" x2="5.08" y2="-6.096" width="0.1524" layer="21"/>
<wire x1="4.826" y1="-6.35" x2="1.778" y2="-6.35" width="0.1524" layer="21"/>
<wire x1="5.08" y1="-6.096" x2="4.826" y2="-6.35" width="0.1524" layer="21"/>
<wire x1="-5.08" y1="2.54" x2="-4.572" y2="2.54" width="0.1524" layer="51"/>
<wire x1="2.921" y1="2.54" x2="5.08" y2="2.54" width="0.1524" layer="51"/>
<wire x1="-5.08" y1="-2.54" x2="-4.572" y2="-2.54" width="0.1524" layer="51"/>
<wire x1="2.921" y1="-2.54" x2="5.08" y2="-2.54" width="0.1524" layer="51"/>
<wire x1="-4.572" y1="2.54" x2="-4.572" y2="0.762" width="0.1524" layer="51"/>
<wire x1="-4.572" y1="2.54" x2="-2.921" y2="2.54" width="0.1524" layer="51"/>
<wire x1="-4.572" y1="0.762" x2="-5.08" y2="-0.762" width="0.1524" layer="51"/>
<wire x1="-4.572" y1="-0.762" x2="-4.572" y2="-2.54" width="0.1524" layer="51"/>
<wire x1="-4.572" y1="-2.54" x2="-2.921" y2="-2.54" width="0.1524" layer="51"/>
<circle x="0" y="0" radius="3.556" width="0.1524" layer="21"/>
<circle x="0" y="0" radius="1.016" width="0.0508" layer="21"/>
<circle x="0" y="0" radius="0.762" width="0.0508" layer="21"/>
<circle x="-4.572" y="2.54" radius="0.127" width="0.1524" layer="51"/>
<circle x="-4.572" y="-2.54" radius="0.127" width="0.1524" layer="51"/>
<pad name="3" x="-6.2484" y="-2.4892" drill="1.1938" shape="long"/>
<pad name="4" x="6.2484" y="-2.4892" drill="1.1938" shape="long"/>
<pad name="1" x="-6.2484" y="2.4892" drill="1.1938" shape="long"/>
<pad name="2" x="6.2484" y="2.4892" drill="1.1938" shape="long"/>
<text x="-5.08" y="6.985" size="1.27" layer="25" ratio="10">&gt;NAME</text>
<text x="-3.175" y="-5.08" size="1.27" layer="27" ratio="10">&gt;VALUE</text>
<text x="-5.207" y="3.302" size="1.27" layer="21" ratio="10">1</text>
<text x="3.937" y="3.302" size="1.27" layer="21" ratio="10">2</text>
<text x="-5.207" y="-4.699" size="1.27" layer="21" ratio="10">3</text>
<text x="4.064" y="-4.699" size="1.27" layer="21" ratio="10">4</text>
<rectangle x1="6.096" y1="-2.921" x2="6.604" y2="-2.032" layer="51"/>
<rectangle x1="6.096" y1="2.032" x2="6.604" y2="2.921" layer="51"/>
<rectangle x1="-6.604" y1="2.032" x2="-6.096" y2="2.921" layer="51"/>
<rectangle x1="-6.604" y1="-2.921" x2="-6.096" y2="-2.032" layer="51"/>
<rectangle x1="2.286" y1="5.842" x2="4.445" y2="6.35" layer="21"/>
<rectangle x1="-4.445" y1="5.842" x2="-2.286" y2="6.35" layer="21"/>
<rectangle x1="2.286" y1="-6.35" x2="4.445" y2="-5.842" layer="21"/>
<rectangle x1="-4.445" y1="-6.35" x2="-2.286" y2="-5.842" layer="21"/>
<hole x="0" y="-4.4958" drill="1.8034"/>
<hole x="0" y="4.4958" drill="1.8034"/>
</package>
</packages>
<packages3d>
<package3d name="B3F-40XX" urn="urn:adsk.eagle:package:27483/1" type="box" library_version="1">
<description>OMRON SWITCH</description>
</package3d>
</packages3d>
<symbols>
<symbol name="TS2" urn="urn:adsk.eagle:symbol:27469/1" library_version="1">
<wire x1="0" y1="1.905" x2="0" y2="2.54" width="0.254" layer="94"/>
<wire x1="-4.445" y1="1.905" x2="-3.175" y2="1.905" width="0.254" layer="94"/>
<wire x1="-4.445" y1="-1.905" x2="-3.175" y2="-1.905" width="0.254" layer="94"/>
<wire x1="-4.445" y1="1.905" x2="-4.445" y2="0" width="0.254" layer="94"/>
<wire x1="-4.445" y1="0" x2="-4.445" y2="-1.905" width="0.254" layer="94"/>
<wire x1="-2.54" y1="0" x2="-1.905" y2="0" width="0.1524" layer="94"/>
<wire x1="-1.27" y1="0" x2="-0.635" y2="0" width="0.1524" layer="94"/>
<wire x1="-4.445" y1="0" x2="-3.175" y2="0" width="0.1524" layer="94"/>
<wire x1="2.54" y1="2.54" x2="0" y2="2.54" width="0.1524" layer="94"/>
<wire x1="2.54" y1="-2.54" x2="0" y2="-2.54" width="0.1524" layer="94"/>
<wire x1="0" y1="-2.54" x2="-1.27" y2="1.905" width="0.254" layer="94"/>
<circle x="0" y="-2.54" radius="0.127" width="0.4064" layer="94"/>
<circle x="0" y="2.54" radius="0.127" width="0.4064" layer="94"/>
<text x="-6.35" y="-2.54" size="1.778" layer="95" rot="R90">&gt;NAME</text>
<text x="-3.81" y="3.175" size="1.778" layer="96" rot="R90">&gt;VALUE</text>
<pin name="P" x="0" y="-5.08" visible="pad" length="short" direction="pas" swaplevel="2" rot="R90"/>
<pin name="S" x="0" y="5.08" visible="pad" length="short" direction="pas" swaplevel="1" rot="R270"/>
<pin name="S1" x="2.54" y="5.08" visible="pad" length="short" direction="pas" swaplevel="1" rot="R270"/>
<pin name="P1" x="2.54" y="-5.08" visible="pad" length="short" direction="pas" swaplevel="2" rot="R90"/>
</symbol>
</symbols>
<devicesets>
<deviceset name="40-XX" urn="urn:adsk.eagle:component:27497/1" prefix="S" uservalue="yes" library_version="1">
<description>&lt;b&gt;OMRON SWITCH&lt;/b&gt;</description>
<gates>
<gate name="1" symbol="TS2" x="0" y="0"/>
</gates>
<devices>
<device name="" package="B3F-40XX">
<connects>
<connect gate="1" pin="P" pad="3"/>
<connect gate="1" pin="P1" pad="4"/>
<connect gate="1" pin="S" pad="1"/>
<connect gate="1" pin="S1" pad="2"/>
</connects>
<package3dinstances>
<package3dinstance package3d_urn="urn:adsk.eagle:package:27483/1"/>
</package3dinstances>
<technologies>
<technology name="">
<attribute name="MF" value="OMRON COMPONENTS USA" constant="no"/>
<attribute name="MPN" value="B3F-4000" constant="no"/>
<attribute name="OC_FARNELL" value="176434" constant="no"/>
<attribute name="OC_NEWARK" value="36K3105" constant="no"/>
</technology>
</technologies>
</device>
</devices>
</deviceset>
</devicesets>
</library>
<library name="con-lstb" urn="urn:adsk.eagle:library:162">
<description>&lt;b&gt;Pin Headers&lt;/b&gt;&lt;p&gt;
Naming:&lt;p&gt;
MA = male&lt;p&gt;
# contacts - # rows&lt;p&gt;
W = angled&lt;p&gt;
&lt;author&gt;Created by librarian@cadsoft.de&lt;/author&gt;</description>
<packages>
<package name="MA05-1" urn="urn:adsk.eagle:footprint:8283/1" library_version="1">
<description>&lt;b&gt;PIN HEADER&lt;/b&gt;</description>
<wire x1="-5.715" y1="1.27" x2="-4.445" y2="1.27" width="0.1524" layer="21"/>
<wire x1="-4.445" y1="1.27" x2="-3.81" y2="0.635" width="0.1524" layer="21"/>
<wire x1="-3.81" y1="-0.635" x2="-4.445" y2="-1.27" width="0.1524" layer="21"/>
<wire x1="-3.81" y1="0.635" x2="-3.175" y2="1.27" width="0.1524" layer="21"/>
<wire x1="-3.175" y1="1.27" x2="-1.905" y2="1.27" width="0.1524" layer="21"/>
<wire x1="-1.905" y1="1.27" x2="-1.27" y2="0.635" width="0.1524" layer="21"/>
<wire x1="-1.27" y1="-0.635" x2="-1.905" y2="-1.27" width="0.1524" layer="21"/>
<wire x1="-1.905" y1="-1.27" x2="-3.175" y2="-1.27" width="0.1524" layer="21"/>
<wire x1="-3.175" y1="-1.27" x2="-3.81" y2="-0.635" width="0.1524" layer="21"/>
<wire x1="-6.35" y1="0.635" x2="-6.35" y2="-0.635" width="0.1524" layer="21"/>
<wire x1="-5.715" y1="1.27" x2="-6.35" y2="0.635" width="0.1524" layer="21"/>
<wire x1="-6.35" y1="-0.635" x2="-5.715" y2="-1.27" width="0.1524" layer="21"/>
<wire x1="-4.445" y1="-1.27" x2="-5.715" y2="-1.27" width="0.1524" layer="21"/>
<wire x1="-1.27" y1="0.635" x2="-0.635" y2="1.27" width="0.1524" layer="21"/>
<wire x1="-0.635" y1="1.27" x2="0.635" y2="1.27" width="0.1524" layer="21"/>
<wire x1="0.635" y1="1.27" x2="1.27" y2="0.635" width="0.1524" layer="21"/>
<wire x1="1.27" y1="-0.635" x2="0.635" y2="-1.27" width="0.1524" layer="21"/>
<wire x1="0.635" y1="-1.27" x2="-0.635" y2="-1.27" width="0.1524" layer="21"/>
<wire x1="-0.635" y1="-1.27" x2="-1.27" y2="-0.635" width="0.1524" layer="21"/>
<wire x1="1.905" y1="1.27" x2="3.175" y2="1.27" width="0.1524" layer="21"/>
<wire x1="3.175" y1="1.27" x2="3.81" y2="0.635" width="0.1524" layer="21"/>
<wire x1="3.81" y1="-0.635" x2="3.175" y2="-1.27" width="0.1524" layer="21"/>
<wire x1="3.81" y1="0.635" x2="4.445" y2="1.27" width="0.1524" layer="21"/>
<wire x1="4.445" y1="1.27" x2="5.715" y2="1.27" width="0.1524" layer="21"/>
<wire x1="5.715" y1="1.27" x2="6.35" y2="0.635" width="0.1524" layer="21"/>
<wire x1="6.35" y1="0.635" x2="6.35" y2="-0.635" width="0.1524" layer="21"/>
<wire x1="6.35" y1="-0.635" x2="5.715" y2="-1.27" width="0.1524" layer="21"/>
<wire x1="5.715" y1="-1.27" x2="4.445" y2="-1.27" width="0.1524" layer="21"/>
<wire x1="4.445" y1="-1.27" x2="3.81" y2="-0.635" width="0.1524" layer="21"/>
<wire x1="1.905" y1="1.27" x2="1.27" y2="0.635" width="0.1524" layer="21"/>
<wire x1="1.27" y1="-0.635" x2="1.905" y2="-1.27" width="0.1524" layer="21"/>
<wire x1="3.175" y1="-1.27" x2="1.905" y2="-1.27" width="0.1524" layer="21"/>
<pad name="1" x="-5.08" y="0" drill="1.016" shape="long" rot="R90"/>
<pad name="2" x="-2.54" y="0" drill="1.016" shape="long" rot="R90"/>
<pad name="3" x="0" y="0" drill="1.016" shape="long" rot="R90"/>
<pad name="4" x="2.54" y="0" drill="1.016" shape="long" rot="R90"/>
<pad name="5" x="5.08" y="0" drill="1.016" shape="long" rot="R90"/>
<text x="-6.35" y="1.651" size="1.27" layer="25" ratio="10">&gt;NAME</text>
<text x="-5.715" y="-2.921" size="1.27" layer="21" ratio="10">1</text>
<text x="4.445" y="1.651" size="1.27" layer="21" ratio="10">5</text>
<text x="-2.54" y="-2.921" size="1.27" layer="27" ratio="10">&gt;VALUE</text>
<rectangle x1="-2.794" y1="-0.254" x2="-2.286" y2="0.254" layer="51"/>
<rectangle x1="-5.334" y1="-0.254" x2="-4.826" y2="0.254" layer="51"/>
<rectangle x1="-0.254" y1="-0.254" x2="0.254" y2="0.254" layer="51"/>
<rectangle x1="4.826" y1="-0.254" x2="5.334" y2="0.254" layer="51"/>
<rectangle x1="2.286" y1="-0.254" x2="2.794" y2="0.254" layer="51"/>
</package>
</packages>
<packages3d>
<package3d name="MA05-1" urn="urn:adsk.eagle:package:8332/1" type="box" library_version="1">
<description>PIN HEADER</description>
</package3d>
</packages3d>
<symbols>
<symbol name="MA05-1" urn="urn:adsk.eagle:symbol:8282/1" library_version="1">
<wire x1="3.81" y1="-7.62" x2="-1.27" y2="-7.62" width="0.4064" layer="94"/>
<wire x1="1.27" y1="0" x2="2.54" y2="0" width="0.6096" layer="94"/>
<wire x1="1.27" y1="-2.54" x2="2.54" y2="-2.54" width="0.6096" layer="94"/>
<wire x1="1.27" y1="-5.08" x2="2.54" y2="-5.08" width="0.6096" layer="94"/>
<wire x1="-1.27" y1="7.62" x2="-1.27" y2="-7.62" width="0.4064" layer="94"/>
<wire x1="3.81" y1="-7.62" x2="3.81" y2="7.62" width="0.4064" layer="94"/>
<wire x1="-1.27" y1="7.62" x2="3.81" y2="7.62" width="0.4064" layer="94"/>
<wire x1="1.27" y1="5.08" x2="2.54" y2="5.08" width="0.6096" layer="94"/>
<wire x1="1.27" y1="2.54" x2="2.54" y2="2.54" width="0.6096" layer="94"/>
<text x="-1.27" y="-10.16" size="1.778" layer="96">&gt;VALUE</text>
<text x="-1.27" y="8.382" size="1.778" layer="95">&gt;NAME</text>
<pin name="1" x="7.62" y="-5.08" visible="pad" length="middle" direction="pas" swaplevel="1" rot="R180"/>
<pin name="2" x="7.62" y="-2.54" visible="pad" length="middle" direction="pas" swaplevel="1" rot="R180"/>
<pin name="3" x="7.62" y="0" visible="pad" length="middle" direction="pas" swaplevel="1" rot="R180"/>
<pin name="4" x="7.62" y="2.54" visible="pad" length="middle" direction="pas" swaplevel="1" rot="R180"/>
<pin name="5" x="7.62" y="5.08" visible="pad" length="middle" direction="pas" swaplevel="1" rot="R180"/>
</symbol>
</symbols>
<devicesets>
<deviceset name="MA05-1" urn="urn:adsk.eagle:component:8379/1" prefix="SV" uservalue="yes" library_version="1">
<description>&lt;b&gt;PIN HEADER&lt;/b&gt;</description>
<gates>
<gate name="G$1" symbol="MA05-1" x="0" y="0"/>
</gates>
<devices>
<device name="" package="MA05-1">
<connects>
<connect gate="G$1" pin="1" pad="1"/>
<connect gate="G$1" pin="2" pad="2"/>
<connect gate="G$1" pin="3" pad="3"/>
<connect gate="G$1" pin="4" pad="4"/>
<connect gate="G$1" pin="5" pad="5"/>
</connects>
<package3dinstances>
<package3dinstance package3d_urn="urn:adsk.eagle:package:8332/1"/>
</package3dinstances>
<technologies>
<technology name="">
<attribute name="MF" value="" constant="no"/>
<attribute name="MPN" value="" constant="no"/>
<attribute name="OC_FARNELL" value="unknown" constant="no"/>
<attribute name="OC_NEWARK" value="unknown" constant="no"/>
</technology>
</technologies>
</device>
</devices>
</deviceset>
</devicesets>
</library>
</libraries>
<attributes>
</attributes>
<variantdefs>
</variantdefs>
<classes>
<class number="0" name="default" width="0" drill="0">
</class>
</classes>
<parts>
<part name="S1" library="switch-omron" library_urn="urn:adsk.eagle:library:377" deviceset="40-XX" device="" package3d_urn="urn:adsk.eagle:package:27483/1"/>
<part name="S2" library="switch-omron" library_urn="urn:adsk.eagle:library:377" deviceset="40-XX" device="" package3d_urn="urn:adsk.eagle:package:27483/1"/>
<part name="S3" library="switch-omron" library_urn="urn:adsk.eagle:library:377" deviceset="40-XX" device="" package3d_urn="urn:adsk.eagle:package:27483/1"/>
<part name="S4" library="switch-omron" library_urn="urn:adsk.eagle:library:377" deviceset="40-XX" device="" package3d_urn="urn:adsk.eagle:package:27483/1"/>
<part name="SV1" library="con-lstb" library_urn="urn:adsk.eagle:library:162" deviceset="MA05-1" device="" package3d_urn="urn:adsk.eagle:package:8332/1"/>
</parts>
<sheets>
<sheet>
<plain>
</plain>
<instances>
<instance part="S1" gate="1" x="35.56" y="55.88" rot="R90"/>
<instance part="S2" gate="1" x="53.34" y="55.88" rot="R90"/>
<instance part="S3" gate="1" x="71.12" y="55.88" rot="R90"/>
<instance part="S4" gate="1" x="88.9" y="55.88" rot="R90"/>
<instance part="SV1" gate="G$1" x="15.24" y="68.58"/>
</instances>
<busses>
</busses>
<nets>
<net name="N$1" class="0">
<segment>
<pinref part="S1" gate="1" pin="S"/>
<wire x1="30.48" y1="55.88" x2="25.4" y2="55.88" width="0.1524" layer="91"/>
<wire x1="25.4" y1="55.88" x2="25.4" y2="63.5" width="0.1524" layer="91"/>
<pinref part="SV1" gate="G$1" pin="1"/>
<wire x1="25.4" y1="63.5" x2="22.86" y2="63.5" width="0.1524" layer="91"/>
</segment>
</net>
<net name="N$2" class="0">
<segment>
<pinref part="S2" gate="1" pin="S"/>
<wire x1="48.26" y1="55.88" x2="45.72" y2="55.88" width="0.1524" layer="91"/>
<wire x1="45.72" y1="55.88" x2="45.72" y2="66.04" width="0.1524" layer="91"/>
<pinref part="SV1" gate="G$1" pin="2"/>
<wire x1="45.72" y1="66.04" x2="22.86" y2="66.04" width="0.1524" layer="91"/>
</segment>
</net>
<net name="N$3" class="0">
<segment>
<pinref part="S3" gate="1" pin="S"/>
<wire x1="66.04" y1="55.88" x2="60.96" y2="55.88" width="0.1524" layer="91"/>
<wire x1="60.96" y1="55.88" x2="60.96" y2="68.58" width="0.1524" layer="91"/>
<pinref part="SV1" gate="G$1" pin="3"/>
<wire x1="60.96" y1="68.58" x2="22.86" y2="68.58" width="0.1524" layer="91"/>
</segment>
</net>
<net name="N$4" class="0">
<segment>
<pinref part="SV1" gate="G$1" pin="4"/>
<wire x1="22.86" y1="71.12" x2="81.28" y2="71.12" width="0.1524" layer="91"/>
<pinref part="S4" gate="1" pin="S"/>
<wire x1="81.28" y1="71.12" x2="81.28" y2="55.88" width="0.1524" layer="91"/>
<wire x1="81.28" y1="55.88" x2="83.82" y2="55.88" width="0.1524" layer="91"/>
</segment>
</net>
<net name="N$5" class="0">
<segment>
<pinref part="S1" gate="1" pin="P"/>
<wire x1="40.64" y1="55.88" x2="43.18" y2="55.88" width="0.1524" layer="91"/>
<wire x1="43.18" y1="55.88" x2="43.18" y2="43.18" width="0.1524" layer="91"/>
<wire x1="43.18" y1="43.18" x2="58.42" y2="43.18" width="0.1524" layer="91"/>
<wire x1="58.42" y1="43.18" x2="76.2" y2="43.18" width="0.1524" layer="91"/>
<wire x1="76.2" y1="43.18" x2="93.98" y2="43.18" width="0.1524" layer="91"/>
<wire x1="93.98" y1="43.18" x2="96.52" y2="43.18" width="0.1524" layer="91"/>
<wire x1="96.52" y1="43.18" x2="96.52" y2="73.66" width="0.1524" layer="91"/>
<pinref part="SV1" gate="G$1" pin="5"/>
<wire x1="96.52" y1="73.66" x2="22.86" y2="73.66" width="0.1524" layer="91"/>
<pinref part="S2" gate="1" pin="P"/>
<wire x1="58.42" y1="55.88" x2="58.42" y2="43.18" width="0.1524" layer="91"/>
<junction x="58.42" y="43.18"/>
<pinref part="S3" gate="1" pin="P"/>
<wire x1="76.2" y1="55.88" x2="76.2" y2="43.18" width="0.1524" layer="91"/>
<junction x="76.2" y="43.18"/>
<pinref part="S4" gate="1" pin="P"/>
<wire x1="93.98" y1="55.88" x2="93.98" y2="43.18" width="0.1524" layer="91"/>
<junction x="93.98" y="43.18"/>
</segment>
</net>
</nets>
</sheet>
</sheets>
</schematic>
</drawing>
<compatibility>
<note version="8.2" severity="warning">
Since Version 8.2, EAGLE supports online libraries. The ids
of those online libraries will not be understood (or retained)
with this version.
</note>
<note version="8.3" severity="warning">
Since Version 8.3, EAGLE supports URNs for individual library
assets (packages, symbols, and devices). The URNs of those assets
will not be understood (or retained) with this version.
</note>
<note version="8.3" severity="warning">
Since Version 8.3, EAGLE supports the association of 3D packages
with devices in libraries, schematics, and board files. Those 3D
packages will not be understood (or retained) with this version.
</note>
</compatibility>
</eagle>
