  0
SECTION
  2
HEADER
  9
$ACADVER
  1
AC1009
999
DXF CREATED BY CADSTD VERSION 3.7.6
999
CadStd_Unit=mm
999
CadStd_Export_Unit=mm
999
CadStd_Paper_Size=C
999
CadStd_Drawing_Width=558.800000000000068
999
CadStd_Drawing_Height=431.800000000000011
999
CadStd_Paper_Orientation=Landscape
999
CadStd_Paper_Origin_X=0.0
999
CadStd_Paper_Origin_Y=0.0
999
CadStd_Paper_Scale=1
999
CadStd_Dim_Accuracy_General=2
999
CadStd_Dim_Accuracy_Radial=2
999
CadStd_Dim_Accuracy_Angular=1
999
CadStd_Dim_Simplify=FALSE
999
CadStd_Dim_Style=Horizontal
999
CadStd_Dim_ArrowStyle=Closed
999
CadStd_Dim_LeadArrowStyle=Closed
999
CadStd_Dim_AngularDimStyle=Decimal
999
CadStd_Text_Slant=FALSE
999
CadStd_Text_ZeroSlash=FALSE
  0
ENDSEC
  0
SECTION
  2
TABLES
  0
TABLE
  2
LTYPE
 70
     3
  0
LTYPE
  2
LINETYPE_1
 70
    64
  3
See CAD-STD manual for LINETYPE_1
 72
    65
 73
     0
 40
0.0
  0
LTYPE
  2
LINETYPE_2
 70
    64
  3
See CAD-STD manual for LINETYPE_2
 72
    65
 73
     0
 40
0.0
  0
LTYPE
  2
LINETYPE_3
 70
    64
  3
See CAD-STD manual for LINETYPE_3
 72
    65
 73
     2
 40
3.9674800000000001
 49
3.1750000000000003
 49
-0.7924800000000001
  0
LTYPE
  2
LINETYPE_4
 70
    64
  3
See CAD-STD manual for LINETYPE_4
 72
    65
 73
     4
 40
25.4000000000000021
 49
19.0500000000000007
 49
-1.5875000000000001
 49
3.1750000000000003
 49
-1.5875000000000001
  0
LTYPE
  2
LINETYPE_5
 70
    64
  3
See CAD-STD manual for LINETYPE_5
 72
    65
 73
     2
 40
7.9375000000000009
 49
6.3500000000000005
 49
-1.5875000000000001
  0
LTYPE
  2
LINETYPE_6
 70
    64
  3
See CAD-STD manual for LINETYPE_6
 72
    65
 73
     6
 40
30.1625000000000014
 49
19.0500000000000007
 49
-1.5875000000000001
 49
3.1750000000000003
 49
-1.5875000000000001
 49
3.1750000000000003
 49
-1.5875000000000001
  0
LTYPE
  2
LINETYPE_7
 70
    64
  3
See CAD-STD manual for LINETYPE_7
 72
    65
 73
     6
 40
30.1625000000000014
 49
19.0500000000000007
 49
-1.5875000000000001
 49
3.1750000000000003
 49
-1.5875000000000001
 49
3.1750000000000003
 49
-1.5875000000000001
  0
LTYPE
  2
LINETYPE_8
 70
    64
  3
See CAD-STD manual for LINETYPE_8
 72
    65
 73
     2
 40
3.1750000000000003
 49
1.5875000000000001
 49
-1.5875000000000001
  0
LTYPE
  2
LINETYPE_9
 70
    64
  3
See CAD-STD manual for LINETYPE_9
 72
    65
 73
     2
 40
1.5875000000000001
 49
0.00254
 49
-1.5849600000000002
  0
LTYPE
  2
LINETYPE_10
 70
    64
  3
See CAD-STD manual for LINETYPE_10
 72
    65
 73
     4
 40
14.2875000000000014
 49
9.5250000000000004
 49
-1.5875000000000001
 49
1.5875000000000001
 49
-1.5875000000000001
  0
LTYPE
  2
LINETYPE_11
 70
    64
  3
See CAD-STD manual for LINETYPE_11
 72
    65
 73
     0
 40
0.0
  0
ENDTAB
  0
TABLE
  2
LAYER
 70
    16
  0
LAYER
  2
0
 70
     0
 62
     7
  6
CONTINUOUS
  0
LAYER
  2
1
 70
     0
 62
     2
  6
CONTINUOUS
  0
LAYER
  2
2
 70
     0
 62
     4
  6
CONTINUOUS
  0
LAYER
  2
3
 70
     0
 62
     3
  6
CONTINUOUS
  0
LAYER
  2
4
 70
     0
 62
     9
  6
CONTINUOUS
  0
LAYER
  2
5
 70
     0
 62
     5
  6
CONTINUOUS
  0
LAYER
  2
6
 70
     0
 62
     6
  6
CONTINUOUS
  0
LAYER
  2
7
 70
     0
 62
     1
  6
CONTINUOUS
  0
LAYER
  2
8
 70
     0
 62
    40
  6
CONTINUOUS
  0
LAYER
  2
9
 70
     0
 62
    30
  6
CONTINUOUS
  0
LAYER
  2
10
 70
     0
 62
   134
  6
CONTINUOUS
  0
LAYER
  2
11
 70
     0
 62
    94
  6
CONTINUOUS
  0
LAYER
  2
12
 70
     0
 62
   254
  6
CONTINUOUS
  0
LAYER
  2
13
 70
     0
 62
   174
  6
CONTINUOUS
  0
LAYER
  2
14
 70
     0
 62
   214
  6
CONTINUOUS
  0
LAYER
  2
15
 70
     0
 62
    32
  6
CONTINUOUS
  0
ENDTAB
  0
ENDSEC
  0
SECTION
  2
ENTITIES
  0
POLYLINE
  8
0
  6
LINETYPE_1
 66
     1
 10
0.0
 20
0.0
 30
0.0
  0
VERTEX
  8
0
 10
128.998980000000017
 20
392.000740000000008
 30
0.0
  0
VERTEX
  8
0
 10
128.998980000000017
 20
398.000220000000013
 30
0.0
  0
SEQEND
  0
POLYLINE
  8
0
  6
LINETYPE_1
 66
     1
 10
0.0
 20
0.0
 30
0.0
  0
VERTEX
  8
0
 10
138.998960000000011
 20
392.000740000000008
 30
0.0
  0
VERTEX
  8
0
 10
138.998960000000011
 20
398.000220000000013
 30
0.0
  0
SEQEND
  0
POLYLINE
  8
0
  6
LINETYPE_1
 66
     1
 10
0.0
 20
0.0
 30
0.0
  0
VERTEX
  8
0
 10
148.998940000000005
 20
392.000740000000008
 30
0.0
  0
VERTEX
  8
0
 10
148.998940000000005
 20
398.000220000000013
 30
0.0
  0
SEQEND
  0
POLYLINE
  8
0
  6
LINETYPE_1
 66
     1
 10
0.0
 20
0.0
 30
0.0
  0
VERTEX
  8
0
 10
158.998919999999998
 20
392.000740000000008
 30
0.0
  0
VERTEX
  8
0
 10
158.998919999999998
 20
398.000220000000013
 30
0.0
  0
SEQEND
  0
POLYLINE
  8
0
  6
LINETYPE_1
 66
     1
 10
0.0
 20
0.0
 30
0.0
  0
VERTEX
  8
0
 10
168.99890000000002
 20
392.000740000000008
 30
0.0
  0
VERTEX
  8
0
 10
168.99890000000002
 20
398.000220000000013
 30
0.0
  0
SEQEND
  0
POLYLINE
  8
0
  6
LINETYPE_1
 66
     1
 10
0.0
 20
0.0
 30
0.0
  0
VERTEX
  8
0
 10
178.998880000000014
 20
392.000740000000008
 30
0.0
  0
VERTEX
  8
0
 10
178.998880000000014
 20
398.000220000000013
 30
0.0
  0
SEQEND
  0
POLYLINE
  8
0
  6
LINETYPE_1
 66
     1
 10
0.0
 20
0.0
 30
0.0
  0
VERTEX
  8
0
 10
188.998860000000008
 20
398.000220000000013
 30
0.0
  0
VERTEX
  8
0
 10
188.998860000000008
 20
392.000740000000008
 30
0.0
  0
SEQEND
  0
POLYLINE
  8
0
  6
LINETYPE_1
 66
     1
 10
0.0
 20
0.0
 30
0.0
  0
VERTEX
  8
0
 10
198.998840000000001
 20
398.000220000000013
 30
0.0
  0
VERTEX
  8
0
 10
198.998840000000001
 20
392.000740000000008
 30
0.0
  0
SEQEND
  0
POLYLINE
  8
0
  6
LINETYPE_1
 66
     1
 10
0.0
 20
0.0
 30
0.0
  0
VERTEX
  8
0
 10
208.998820000000023
 20
49.9999000000000038
 30
0.0
  0
VERTEX
  8
0
 10
208.998820000000023
 20
265.998960000000011
 30
0.0
  0
SEQEND
  0
POLYLINE
  8
0
  6
LINETYPE_1
 66
     1
 10
0.0
 20
0.0
 30
0.0
  0
VERTEX
  8
0
 10
118.9990000000000094
 20
265.998960000000011
 30
0.0
  0
VERTEX
  8
0
 10
118.9990000000000094
 20
392.000740000000008
 30
0.0
  0
SEQEND
  0
POLYLINE
  8
0
  6
LINETYPE_1
 66
     1
 10
0.0
 20
0.0
 30
0.0
  0
VERTEX
  8
0
 10
208.998820000000023
 20
392.000740000000008
 30
0.0
  0
VERTEX
  8
0
 10
208.998820000000023
 20
265.998960000000011
 30
0.0
  0
SEQEND
  0
POLYLINE
  8
0
  6
LINETYPE_1
 66
     1
 10
0.0
 20
0.0
 30
0.0
  0
VERTEX
  8
0
 10
118.9990000000000094
 20
265.998960000000011
 30
0.0
  0
VERTEX
  8
0
 10
118.9990000000000094
 20
49.9999000000000038
 30
0.0
  0
SEQEND
  0
POLYLINE
  8
0
  6
LINETYPE_1
 66
     1
 10
0.0
 20
0.0
 30
0.0
  0
VERTEX
  8
0
 10
128.998980000000017
 20
398.000220000000013
 30
0.0
  0
VERTEX
  8
0
 10
138.998960000000011
 20
398.000220000000013
 30
0.0
  0
SEQEND
  0
POLYLINE
  8
0
  6
LINETYPE_1
 66
     1
 10
0.0
 20
0.0
 30
0.0
  0
VERTEX
  8
0
 10
148.998940000000005
 20
398.000220000000013
 30
0.0
  0
VERTEX
  8
0
 10
158.998919999999998
 20
398.000220000000013
 30
0.0
  0
SEQEND
  0
POLYLINE
  8
0
  6
LINETYPE_1
 66
     1
 10
0.0
 20
0.0
 30
0.0
  0
VERTEX
  8
0
 10
168.99890000000002
 20
398.000220000000013
 30
0.0
  0
VERTEX
  8
0
 10
178.998880000000014
 20
398.000220000000013
 30
0.0
  0
SEQEND
  0
POLYLINE
  8
0
  6
LINETYPE_1
 66
     1
 10
0.0
 20
0.0
 30
0.0
  0
VERTEX
  8
0
 10
188.998860000000008
 20
398.000220000000013
 30
0.0
  0
VERTEX
  8
0
 10
198.998840000000001
 20
398.000220000000013
 30
0.0
  0
SEQEND
  0
POLYLINE
  8
0
  6
LINETYPE_1
 66
     1
 10
0.0
 20
0.0
 30
0.0
  0
VERTEX
  8
0
 10
128.998980000000017
 20
266.001500000000021
 30
0.0
  0
VERTEX
  8
0
 10
128.998980000000017
 20
272.000980000000027
 30
0.0
  0
SEQEND
  0
POLYLINE
  8
0
  6
LINETYPE_1
 66
     1
 10
0.0
 20
0.0
 30
0.0
  0
VERTEX
  8
0
 10
138.998960000000011
 20
266.001500000000021
 30
0.0
  0
VERTEX
  8
0
 10
138.998960000000011
 20
272.000980000000027
 30
0.0
  0
SEQEND
  0
POLYLINE
  8
0
  6
LINETYPE_1
 66
     1
 10
0.0
 20
0.0
 30
0.0
  0
VERTEX
  8
0
 10
148.998940000000005
 20
266.001500000000021
 30
0.0
  0
VERTEX
  8
0
 10
148.998940000000005
 20
272.000980000000027
 30
0.0
  0
SEQEND
  0
POLYLINE
  8
0
  6
LINETYPE_1
 66
     1
 10
0.0
 20
0.0
 30
0.0
  0
VERTEX
  8
0
 10
158.998919999999998
 20
266.001500000000021
 30
0.0
  0
VERTEX
  8
0
 10
158.998919999999998
 20
272.000980000000027
 30
0.0
  0
SEQEND
  0
POLYLINE
  8
0
  6
LINETYPE_1
 66
     1
 10
0.0
 20
0.0
 30
0.0
  0
VERTEX
  8
0
 10
168.99890000000002
 20
266.001500000000021
 30
0.0
  0
VERTEX
  8
0
 10
168.99890000000002
 20
272.000980000000027
 30
0.0
  0
SEQEND
  0
POLYLINE
  8
0
  6
LINETYPE_1
 66
     1
 10
0.0
 20
0.0
 30
0.0
  0
VERTEX
  8
0
 10
178.998880000000014
 20
266.001500000000021
 30
0.0
  0
VERTEX
  8
0
 10
178.998880000000014
 20
272.000980000000027
 30
0.0
  0
SEQEND
  0
POLYLINE
  8
0
  6
LINETYPE_1
 66
     1
 10
0.0
 20
0.0
 30
0.0
  0
VERTEX
  8
0
 10
188.998860000000008
 20
272.000980000000027
 30
0.0
  0
VERTEX
  8
0
 10
188.998860000000008
 20
266.001500000000021
 30
0.0
  0
SEQEND
  0
POLYLINE
  8
0
  6
LINETYPE_1
 66
     1
 10
0.0
 20
0.0
 30
0.0
  0
VERTEX
  8
0
 10
198.998840000000001
 20
272.000980000000027
 30
0.0
  0
VERTEX
  8
0
 10
198.998840000000001
 20
266.001500000000021
 30
0.0
  0
SEQEND
  0
POLYLINE
  8
0
  6
LINETYPE_1
 66
     1
 10
0.0
 20
0.0
 30
0.0
  0
VERTEX
  8
0
 10
128.998980000000017
 20
218.000580000000014
 30
0.0
  0
VERTEX
  8
0
 10
128.998980000000017
 20
224.000060000000019
 30
0.0
  0
SEQEND
  0
POLYLINE
  8
0
  6
LINETYPE_1
 66
     1
 10
0.0
 20
0.0
 30
0.0
  0
VERTEX
  8
0
 10
138.998960000000011
 20
218.000580000000014
 30
0.0
  0
VERTEX
  8
0
 10
138.998960000000011
 20
224.000060000000019
 30
0.0
  0
SEQEND
  0
POLYLINE
  8
0
  6
LINETYPE_1
 66
     1
 10
0.0
 20
0.0
 30
0.0
  0
VERTEX
  8
0
 10
148.998940000000005
 20
218.000580000000014
 30
0.0
  0
VERTEX
  8
0
 10
148.998940000000005
 20
224.000060000000019
 30
0.0
  0
SEQEND
  0
POLYLINE
  8
0
  6
LINETYPE_1
 66
     1
 10
0.0
 20
0.0
 30
0.0
  0
VERTEX
  8
0
 10
158.998919999999998
 20
218.000580000000014
 30
0.0
  0
VERTEX
  8
0
 10
158.998919999999998
 20
224.000060000000019
 30
0.0
  0
SEQEND
  0
POLYLINE
  8
0
  6
LINETYPE_1
 66
     1
 10
0.0
 20
0.0
 30
0.0
  0
VERTEX
  8
0
 10
168.99890000000002
 20
218.000580000000014
 30
0.0
  0
VERTEX
  8
0
 10
168.99890000000002
 20
224.000060000000019
 30
0.0
  0
SEQEND
  0
POLYLINE
  8
0
  6
LINETYPE_1
 66
     1
 10
0.0
 20
0.0
 30
0.0
  0
VERTEX
  8
0
 10
178.998880000000014
 20
218.000580000000014
 30
0.0
  0
VERTEX
  8
0
 10
178.998880000000014
 20
224.000060000000019
 30
0.0
  0
SEQEND
  0
POLYLINE
  8
0
  6
LINETYPE_1
 66
     1
 10
0.0
 20
0.0
 30
0.0
  0
VERTEX
  8
0
 10
188.998860000000008
 20
224.000060000000019
 30
0.0
  0
VERTEX
  8
0
 10
188.998860000000008
 20
218.000580000000014
 30
0.0
  0
SEQEND
  0
POLYLINE
  8
0
  6
LINETYPE_1
 66
     1
 10
0.0
 20
0.0
 30
0.0
  0
VERTEX
  8
0
 10
198.998840000000001
 20
224.000060000000019
 30
0.0
  0
VERTEX
  8
0
 10
198.998840000000001
 20
218.000580000000014
 30
0.0
  0
SEQEND
  0
POLYLINE
  8
0
  6
LINETYPE_1
 66
     1
 10
0.0
 20
0.0
 30
0.0
  0
VERTEX
  8
0
 10
128.998980000000017
 20
92.001339999999999
 30
0.0
  0
VERTEX
  8
0
 10
128.998980000000017
 20
98.0008200000000045
 30
0.0
  0
SEQEND
  0
POLYLINE
  8
0
  6
LINETYPE_1
 66
     1
 10
0.0
 20
0.0
 30
0.0
  0
VERTEX
  8
0
 10
138.998960000000011
 20
92.001339999999999
 30
0.0
  0
VERTEX
  8
0
 10
138.998960000000011
 20
98.0008200000000045
 30
0.0
  0
SEQEND
  0
POLYLINE
  8
0
  6
LINETYPE_1
 66
     1
 10
0.0
 20
0.0
 30
0.0
  0
VERTEX
  8
0
 10
148.998940000000005
 20
92.001339999999999
 30
0.0
  0
VERTEX
  8
0
 10
148.998940000000005
 20
98.0008200000000045
 30
0.0
  0
SEQEND
  0
POLYLINE
  8
0
  6
LINETYPE_1
 66
     1
 10
0.0
 20
0.0
 30
0.0
  0
VERTEX
  8
0
 10
158.998919999999998
 20
92.001339999999999
 30
0.0
  0
VERTEX
  8
0
 10
158.998919999999998
 20
98.0008200000000045
 30
0.0
  0
SEQEND
  0
POLYLINE
  8
0
  6
LINETYPE_1
 66
     1
 10
0.0
 20
0.0
 30
0.0
  0
VERTEX
  8
0
 10
168.99890000000002
 20
92.001339999999999
 30
0.0
  0
VERTEX
  8
0
 10
168.99890000000002
 20
98.0008200000000045
 30
0.0
  0
SEQEND
  0
POLYLINE
  8
0
  6
LINETYPE_1
 66
     1
 10
0.0
 20
0.0
 30
0.0
  0
VERTEX
  8
0
 10
178.998880000000014
 20
92.001339999999999
 30
0.0
  0
VERTEX
  8
0
 10
178.998880000000014
 20
98.0008200000000045
 30
0.0
  0
SEQEND
  0
POLYLINE
  8
0
  6
LINETYPE_1
 66
     1
 10
0.0
 20
0.0
 30
0.0
  0
VERTEX
  8
0
 10
188.998860000000008
 20
98.0008200000000045
 30
0.0
  0
VERTEX
  8
0
 10
188.998860000000008
 20
92.001339999999999
 30
0.0
  0
SEQEND
  0
POLYLINE
  8
0
  6
LINETYPE_1
 66
     1
 10
0.0
 20
0.0
 30
0.0
  0
VERTEX
  8
0
 10
198.998840000000001
 20
98.0008200000000045
 30
0.0
  0
VERTEX
  8
0
 10
198.998840000000001
 20
92.001339999999999
 30
0.0
  0
SEQEND
  0
POLYLINE
  8
0
  6
LINETYPE_1
 66
     1
 10
0.0
 20
0.0
 30
0.0
  0
VERTEX
  8
0
 10
128.998980000000017
 20
44.0004200000000054
 30
0.0
  0
VERTEX
  8
0
 10
128.998980000000017
 20
49.9999000000000038
 30
0.0
  0
SEQEND
  0
POLYLINE
  8
0
  6
LINETYPE_1
 66
     1
 10
0.0
 20
0.0
 30
0.0
  0
VERTEX
  8
0
 10
138.998960000000011
 20
44.0004200000000054
 30
0.0
  0
VERTEX
  8
0
 10
138.998960000000011
 20
49.9999000000000038
 30
0.0
  0
SEQEND
  0
POLYLINE
  8
0
  6
LINETYPE_1
 66
     1
 10
0.0
 20
0.0
 30
0.0
  0
VERTEX
  8
0
 10
148.998940000000005
 20
44.0004200000000054
 30
0.0
  0
VERTEX
  8
0
 10
148.998940000000005
 20
49.9999000000000038
 30
0.0
  0
SEQEND
  0
POLYLINE
  8
0
  6
LINETYPE_1
 66
     1
 10
0.0
 20
0.0
 30
0.0
  0
VERTEX
  8
0
 10
158.998919999999998
 20
44.0004200000000054
 30
0.0
  0
VERTEX
  8
0
 10
158.998919999999998
 20
49.9999000000000038
 30
0.0
  0
SEQEND
  0
POLYLINE
  8
0
  6
LINETYPE_1
 66
     1
 10
0.0
 20
0.0
 30
0.0
  0
VERTEX
  8
0
 10
168.99890000000002
 20
44.0004200000000054
 30
0.0
  0
VERTEX
  8
0
 10
168.99890000000002
 20
49.9999000000000038
 30
0.0
  0
SEQEND
  0
POLYLINE
  8
0
  6
LINETYPE_1
 66
     1
 10
0.0
 20
0.0
 30
0.0
  0
VERTEX
  8
0
 10
178.998880000000014
 20
44.0004200000000054
 30
0.0
  0
VERTEX
  8
0
 10
178.998880000000014
 20
49.9999000000000038
 30
0.0
  0
SEQEND
  0
POLYLINE
  8
0
  6
LINETYPE_1
 66
     1
 10
0.0
 20
0.0
 30
0.0
  0
VERTEX
  8
0
 10
188.998860000000008
 20
49.9999000000000038
 30
0.0
  0
VERTEX
  8
0
 10
188.998860000000008
 20
44.0004200000000054
 30
0.0
  0
SEQEND
  0
POLYLINE
  8
0
  6
LINETYPE_1
 66
     1
 10
0.0
 20
0.0
 30
0.0
  0
VERTEX
  8
0
 10
198.998840000000001
 20
49.9999000000000038
 30
0.0
  0
VERTEX
  8
0
 10
198.998840000000001
 20
44.0004200000000054
 30
0.0
  0
SEQEND
  0
POLYLINE
  8
0
  6
LINETYPE_1
 66
     1
 10
0.0
 20
0.0
 30
0.0
  0
VERTEX
  8
0
 10
118.9990000000000094
 20
49.9999000000000038
 30
0.0
  0
VERTEX
  8
0
 10
118.9990000000000094
 20
44.0004200000000054
 30
0.0
  0
SEQEND
  0
POLYLINE
  8
0
  6
LINETYPE_1
 66
     1
 10
0.0
 20
0.0
 30
0.0
  0
VERTEX
  8
0
 10
118.9990000000000094
 20
44.0004200000000054
 30
0.0
  0
VERTEX
  8
0
 10
128.998980000000017
 20
44.0004200000000054
 30
0.0
  0
SEQEND
  0
POLYLINE
  8
0
  6
LINETYPE_1
 66
     1
 10
0.0
 20
0.0
 30
0.0
  0
VERTEX
  8
0
 10
138.998960000000011
 20
44.0004200000000054
 30
0.0
  0
VERTEX
  8
0
 10
148.998940000000005
 20
44.0004200000000054
 30
0.0
  0
SEQEND
  0
POLYLINE
  8
0
  6
LINETYPE_1
 66
     1
 10
0.0
 20
0.0
 30
0.0
  0
VERTEX
  8
0
 10
158.998919999999998
 20
44.0004200000000054
 30
0.0
  0
VERTEX
  8
0
 10
168.99890000000002
 20
44.0004200000000054
 30
0.0
  0
SEQEND
  0
POLYLINE
  8
0
  6
LINETYPE_1
 66
     1
 10
0.0
 20
0.0
 30
0.0
  0
VERTEX
  8
0
 10
178.998880000000014
 20
44.0004200000000054
 30
0.0
  0
VERTEX
  8
0
 10
188.998860000000008
 20
44.0004200000000054
 30
0.0
  0
SEQEND
  0
POLYLINE
  8
0
  6
LINETYPE_1
 66
     1
 10
0.0
 20
0.0
 30
0.0
  0
VERTEX
  8
0
 10
198.998840000000001
 20
44.0004200000000054
 30
0.0
  0
VERTEX
  8
0
 10
208.998820000000023
 20
44.0004200000000054
 30
0.0
  0
SEQEND
  0
POLYLINE
  8
0
  6
LINETYPE_1
 66
     1
 10
0.0
 20
0.0
 30
0.0
  0
VERTEX
  8
0
 10
208.998820000000023
 20
44.0004200000000054
 30
0.0
  0
VERTEX
  8
0
 10
208.998820000000023
 20
49.9999000000000038
 30
0.0
  0
SEQEND
  0
POLYLINE
  8
0
  6
LINETYPE_1
 66
     1
 10
0.0
 20
0.0
 30
0.0
  0
VERTEX
  8
0
 10
118.9990000000000094
 20
98.0008200000000045
 30
0.0
  0
VERTEX
  8
0
 10
128.998980000000017
 20
98.0008200000000045
 30
0.0
  0
SEQEND
  0
POLYLINE
  8
0
  6
LINETYPE_1
 66
     1
 10
0.0
 20
0.0
 30
0.0
  0
VERTEX
  8
0
 10
128.998980000000017
 20
91.9988000000000028
 30
0.0
  0
VERTEX
  8
0
 10
138.998960000000011
 20
91.9988000000000028
 30
0.0
  0
SEQEND
  0
POLYLINE
  8
0
  6
LINETYPE_1
 66
     1
 10
0.0
 20
0.0
 30
0.0
  0
VERTEX
  8
0
 10
138.998960000000011
 20
98.0008200000000045
 30
0.0
  0
VERTEX
  8
0
 10
148.998940000000005
 20
98.0008200000000045
 30
0.0
  0
SEQEND
  0
POLYLINE
  8
0
  6
LINETYPE_1
 66
     1
 10
0.0
 20
0.0
 30
0.0
  0
VERTEX
  8
0
 10
148.998940000000005
 20
91.9988000000000028
 30
0.0
  0
VERTEX
  8
0
 10
158.998919999999998
 20
91.9988000000000028
 30
0.0
  0
SEQEND
  0
POLYLINE
  8
0
  6
LINETYPE_1
 66
     1
 10
0.0
 20
0.0
 30
0.0
  0
VERTEX
  8
0
 10
158.998919999999998
 20
98.0008200000000045
 30
0.0
  0
VERTEX
  8
0
 10
168.99890000000002
 20
98.0008200000000045
 30
0.0
  0
SEQEND
  0
POLYLINE
  8
0
  6
LINETYPE_1
 66
     1
 10
0.0
 20
0.0
 30
0.0
  0
VERTEX
  8
0
 10
168.99890000000002
 20
91.9988000000000028
 30
0.0
  0
VERTEX
  8
0
 10
178.998880000000014
 20
91.9988000000000028
 30
0.0
  0
SEQEND
  0
POLYLINE
  8
0
  6
LINETYPE_1
 66
     1
 10
0.0
 20
0.0
 30
0.0
  0
VERTEX
  8
0
 10
178.998880000000014
 20
98.0008200000000045
 30
0.0
  0
VERTEX
  8
0
 10
188.998860000000008
 20
98.0008200000000045
 30
0.0
  0
SEQEND
  0
POLYLINE
  8
0
  6
LINETYPE_1
 66
     1
 10
0.0
 20
0.0
 30
0.0
  0
VERTEX
  8
0
 10
188.998860000000008
 20
91.9988000000000028
 30
0.0
  0
VERTEX
  8
0
 10
198.998840000000001
 20
91.9988000000000028
 30
0.0
  0
SEQEND
  0
POLYLINE
  8
0
  6
LINETYPE_1
 66
     1
 10
0.0
 20
0.0
 30
0.0
  0
VERTEX
  8
0
 10
198.998840000000001
 20
98.0008200000000045
 30
0.0
  0
VERTEX
  8
0
 10
208.998820000000023
 20
98.0008200000000045
 30
0.0
  0
SEQEND
  0
POLYLINE
  8
0
  6
LINETYPE_1
 66
     1
 10
0.0
 20
0.0
 30
0.0
  0
VERTEX
  8
0
 10
128.998980000000017
 20
224.000060000000019
 30
0.0
  0
VERTEX
  8
0
 10
138.998960000000011
 20
224.000060000000019
 30
0.0
  0
SEQEND
  0
POLYLINE
  8
0
  6
LINETYPE_1
 66
     1
 10
0.0
 20
0.0
 30
0.0
  0
VERTEX
  8
0
 10
128.998980000000017
 20
218.000580000000014
 30
0.0
  0
VERTEX
  8
0
 10
118.9990000000000094
 20
218.000580000000014
 30
0.0
  0
SEQEND
  0
POLYLINE
  8
0
  6
LINETYPE_1
 66
     1
 10
0.0
 20
0.0
 30
0.0
  0
VERTEX
  8
0
 10
138.998960000000011
 20
218.000580000000014
 30
0.0
  0
VERTEX
  8
0
 10
148.998940000000005
 20
218.000580000000014
 30
0.0
  0
SEQEND
  0
POLYLINE
  8
0
  6
LINETYPE_1
 66
     1
 10
0.0
 20
0.0
 30
0.0
  0
VERTEX
  8
0
 10
148.998940000000005
 20
224.000060000000019
 30
0.0
  0
VERTEX
  8
0
 10
158.998919999999998
 20
224.000060000000019
 30
0.0
  0
SEQEND
  0
POLYLINE
  8
0
  6
LINETYPE_1
 66
     1
 10
0.0
 20
0.0
 30
0.0
  0
VERTEX
  8
0
 10
158.998919999999998
 20
218.000580000000014
 30
0.0
  0
VERTEX
  8
0
 10
168.99890000000002
 20
218.000580000000014
 30
0.0
  0
SEQEND
  0
POLYLINE
  8
0
  6
LINETYPE_1
 66
     1
 10
0.0
 20
0.0
 30
0.0
  0
VERTEX
  8
0
 10
168.99890000000002
 20
224.000060000000019
 30
0.0
  0
VERTEX
  8
0
 10
178.998880000000014
 20
224.000060000000019
 30
0.0
  0
SEQEND
  0
POLYLINE
  8
0
  6
LINETYPE_1
 66
     1
 10
0.0
 20
0.0
 30
0.0
  0
VERTEX
  8
0
 10
178.998880000000014
 20
218.000580000000014
 30
0.0
  0
VERTEX
  8
0
 10
188.998860000000008
 20
218.000580000000014
 30
0.0
  0
SEQEND
  0
POLYLINE
  8
0
  6
LINETYPE_1
 66
     1
 10
0.0
 20
0.0
 30
0.0
  0
VERTEX
  8
0
 10
188.998860000000008
 20
224.000060000000019
 30
0.0
  0
VERTEX
  8
0
 10
198.998840000000001
 20
224.000060000000019
 30
0.0
  0
SEQEND
  0
POLYLINE
  8
0
  6
LINETYPE_1
 66
     1
 10
0.0
 20
0.0
 30
0.0
  0
VERTEX
  8
0
 10
198.998840000000001
 20
218.000580000000014
 30
0.0
  0
VERTEX
  8
0
 10
208.998820000000023
 20
218.000580000000014
 30
0.0
  0
SEQEND
  0
POLYLINE
  8
0
  6
LINETYPE_1
 66
     1
 10
0.0
 20
0.0
 30
0.0
  0
VERTEX
  8
0
 10
128.998980000000017
 20
49.9999000000000038
 30
0.0
  0
VERTEX
  8
0
 10
138.998960000000011
 20
49.9999000000000038
 30
0.0
  0
SEQEND
  0
POLYLINE
  8
0
  6
LINETYPE_1
 66
     1
 10
0.0
 20
0.0
 30
0.0
  0
VERTEX
  8
0
 10
148.998940000000005
 20
49.9999000000000038
 30
0.0
  0
VERTEX
  8
0
 10
158.998919999999998
 20
49.9999000000000038
 30
0.0
  0
SEQEND
  0
POLYLINE
  8
0
  6
LINETYPE_1
 66
     1
 10
0.0
 20
0.0
 30
0.0
  0
VERTEX
  8
0
 10
168.99890000000002
 20
49.9999000000000038
 30
0.0
  0
VERTEX
  8
0
 10
178.998880000000014
 20
49.9999000000000038
 30
0.0
  0
SEQEND
  0
POLYLINE
  8
0
  6
LINETYPE_1
 66
     1
 10
0.0
 20
0.0
 30
0.0
  0
VERTEX
  8
0
 10
188.998860000000008
 20
49.9999000000000038
 30
0.0
  0
VERTEX
  8
0
 10
198.998840000000001
 20
49.9999000000000038
 30
0.0
  0
SEQEND
  0
POLYLINE
  8
0
  6
LINETYPE_1
 66
     1
 10
0.0
 20
0.0
 30
0.0
  0
VERTEX
  8
0
 10
128.998980000000017
 20
272.000980000000027
 30
0.0
  0
VERTEX
  8
0
 10
118.9990000000000094
 20
272.000980000000027
 30
0.0
  0
SEQEND
  0
POLYLINE
  8
0
  6
LINETYPE_1
 66
     1
 70
     1
 10
0.0
 20
0.0
 30
0.0
  0
VERTEX
  8
0
 10
118.9990000000000094
 20
272.000980000000027
 30
0.0
  0
SEQEND
  0
POLYLINE
  8
0
  6
LINETYPE_1
 66
     1
 10
0.0
 20
0.0
 30
0.0
  0
VERTEX
  8
0
 10
128.998980000000017
 20
265.998960000000011
 30
0.0
  0
VERTEX
  8
0
 10
138.998960000000011
 20
265.998960000000011
 30
0.0
  0
SEQEND
  0
POLYLINE
  8
0
  6
LINETYPE_1
 66
     1
 10
0.0
 20
0.0
 30
0.0
  0
VERTEX
  8
0
 10
138.998960000000011
 20
272.000980000000027
 30
0.0
  0
VERTEX
  8
0
 10
148.998940000000005
 20
272.000980000000027
 30
0.0
  0
SEQEND
  0
POLYLINE
  8
0
  6
LINETYPE_1
 66
     1
 10
0.0
 20
0.0
 30
0.0
  0
VERTEX
  8
0
 10
148.998940000000005
 20
265.998960000000011
 30
0.0
  0
VERTEX
  8
0
 10
158.998919999999998
 20
265.998960000000011
 30
0.0
  0
SEQEND
  0
POLYLINE
  8
0
  6
LINETYPE_1
 66
     1
 10
0.0
 20
0.0
 30
0.0
  0
VERTEX
  8
0
 10
158.998919999999998
 20
272.000980000000027
 30
0.0
  0
VERTEX
  8
0
 10
168.99890000000002
 20
272.000980000000027
 30
0.0
  0
SEQEND
  0
POLYLINE
  8
0
  6
LINETYPE_1
 66
     1
 10
0.0
 20
0.0
 30
0.0
  0
VERTEX
  8
0
 10
168.99890000000002
 20
265.998960000000011
 30
0.0
  0
VERTEX
  8
0
 10
178.998880000000014
 20
265.998960000000011
 30
0.0
  0
SEQEND
  0
POLYLINE
  8
0
  6
LINETYPE_1
 66
     1
 10
0.0
 20
0.0
 30
0.0
  0
VERTEX
  8
0
 10
178.998880000000014
 20
272.000980000000027
 30
0.0
  0
VERTEX
  8
0
 10
188.998860000000008
 20
272.000980000000027
 30
0.0
  0
SEQEND
  0
POLYLINE
  8
0
  6
LINETYPE_1
 66
     1
 10
0.0
 20
0.0
 30
0.0
  0
VERTEX
  8
0
 10
188.998860000000008
 20
265.998960000000011
 30
0.0
  0
VERTEX
  8
0
 10
198.998840000000001
 20
265.998960000000011
 30
0.0
  0
SEQEND
  0
POLYLINE
  8
0
  6
LINETYPE_1
 66
     1
 10
0.0
 20
0.0
 30
0.0
  0
VERTEX
  8
0
 10
198.998840000000001
 20
272.000980000000027
 30
0.0
  0
VERTEX
  8
0
 10
208.998820000000023
 20
272.000980000000027
 30
0.0
  0
SEQEND
  0
POLYLINE
  8
0
  6
LINETYPE_1
 66
     1
 10
0.0
 20
0.0
 30
0.0
  0
VERTEX
  8
0
 10
118.9990000000000094
 20
392.000740000000008
 30
0.0
  0
VERTEX
  8
0
 10
128.998980000000017
 20
392.000740000000008
 30
0.0
  0
SEQEND
  0
POLYLINE
  8
0
  6
LINETYPE_1
 66
     1
 10
0.0
 20
0.0
 30
0.0
  0
VERTEX
  8
0
 10
138.998960000000011
 20
392.000740000000008
 30
0.0
  0
VERTEX
  8
0
 10
148.998940000000005
 20
392.000740000000008
 30
0.0
  0
SEQEND
  0
POLYLINE
  8
0
  6
LINETYPE_1
 66
     1
 10
0.0
 20
0.0
 30
0.0
  0
VERTEX
  8
0
 10
158.998919999999998
 20
392.000740000000008
 30
0.0
  0
VERTEX
  8
0
 10
168.99890000000002
 20
392.000740000000008
 30
0.0
  0
SEQEND
  0
POLYLINE
  8
0
  6
LINETYPE_1
 66
     1
 10
0.0
 20
0.0
 30
0.0
  0
VERTEX
  8
0
 10
178.998880000000014
 20
392.000740000000008
 30
0.0
  0
VERTEX
  8
0
 10
188.998860000000008
 20
392.000740000000008
 30
0.0
  0
SEQEND
  0
POLYLINE
  8
0
  6
LINETYPE_1
 66
     1
 10
0.0
 20
0.0
 30
0.0
  0
VERTEX
  8
0
 10
198.998840000000001
 20
392.000740000000008
 30
0.0
  0
VERTEX
  8
0
 10
208.998820000000023
 20
392.000740000000008
 30
0.0
  0
SEQEND
  0
POLYLINE
  8
0
  6
LINETYPE_2
 66
     1
 10
0.0
 20
0.0
 30
0.0
  0
VERTEX
  8
0
 10
199.575420000000008
 20
49.9999000000000038
 30
0.0
  0
VERTEX
  8
0
 10
229.174040000000019
 20
49.9999000000000038
 30
0.0
  0
SEQEND
  0
POLYLINE
  8
0
  6
LINETYPE_2
 66
     1
 10
0.0
 20
0.0
 30
0.0
  0
VERTEX
  8
0
 10
199.575420000000008
 20
91.9988000000000028
 30
0.0
  0
VERTEX
  8
0
 10
229.174040000000019
 20
91.9988000000000028
 30
0.0
  0
SEQEND
  0
POLYLINE
  8
0
  6
LINETYPE_2
 66
     1
 10
0.0
 20
0.0
 30
0.0
  0
VERTEX
  8
0
 10
225.999040000000008
 20
43.6499000000000024
 30
0.0
  0
VERTEX
  8
0
 10
225.999040000000008
 20
49.9999000000000038
 30
0.0
  0
SEQEND
  0
POLYLINE
  8
0
  6
LINETYPE_2
 66
     1
 10
0.0
 20
0.0
 30
0.0
  0
VERTEX
  8
0
 10
225.999040000000008
 20
49.9999000000000038
 30
0.0
  0
VERTEX
  8
0
 10
225.364040000000017
 20
46.8248999999999995
 30
0.0
  0
SEQEND
  0
POLYLINE
  8
0
  6
LINETYPE_2
 66
     1
 10
0.0
 20
0.0
 30
0.0
  0
VERTEX
  8
0
 10
225.364040000000017
 20
46.8248999999999995
 30
0.0
  0
VERTEX
  8
0
 10
226.634040000000027
 20
46.8248999999999995
 30
0.0
  0
SEQEND
  0
POLYLINE
  8
0
  6
LINETYPE_2
 66
     1
 10
0.0
 20
0.0
 30
0.0
  0
VERTEX
  8
0
 10
226.634040000000027
 20
46.8248999999999995
 30
0.0
  0
VERTEX
  8
0
 10
225.999040000000008
 20
49.9999000000000038
 30
0.0
  0
SEQEND
  0
POLYLINE
  8
0
  6
LINETYPE_2
 66
     1
 10
0.0
 20
0.0
 30
0.0
  0
VERTEX
  8
0
 10
225.999040000000008
 20
98.3488000000000113
 30
0.0
  0
VERTEX
  8
0
 10
225.999040000000008
 20
91.9988000000000028
 30
0.0
  0
SEQEND
  0
POLYLINE
  8
0
  6
LINETYPE_2
 66
     1
 10
0.0
 20
0.0
 30
0.0
  0
VERTEX
  8
0
 10
225.999040000000008
 20
91.9988000000000028
 30
0.0
  0
VERTEX
  8
0
 10
226.634040000000027
 20
95.1738
 30
0.0
  0
SEQEND
  0
POLYLINE
  8
0
  6
LINETYPE_2
 66
     1
 10
0.0
 20
0.0
 30
0.0
  0
VERTEX
  8
0
 10
226.634040000000027
 20
95.1738
 30
0.0
  0
VERTEX
  8
0
 10
225.364040000000017
 20
95.1738
 30
0.0
  0
SEQEND
  0
POLYLINE
  8
0
  6
LINETYPE_2
 66
     1
 10
0.0
 20
0.0
 30
0.0
  0
VERTEX
  8
0
 10
225.364040000000017
 20
95.1738
 30
0.0
  0
VERTEX
  8
0
 10
225.999040000000008
 20
91.9988000000000028
 30
0.0
  0
SEQEND
  0
TEXT
999
CadStd_TT=2
  8
0
 10
218.371420000000001
 20
38.5749800000000036
 30
0.0
 40
3.5001200000000003
  1
42,00
 50
0.0000000000000000
  0
POLYLINE
  8
0
  6
LINETYPE_2
 66
     1
 10
0.0
 20
0.0
 30
0.0
  0
VERTEX
  8
0
 10
209.575400000000002
 20
98.0008200000000045
 30
0.0
  0
VERTEX
  8
0
 10
228.175820000000016
 20
98.0008200000000045
 30
0.0
  0
SEQEND
  0
POLYLINE
  8
0
  6
LINETYPE_2
 66
     1
 10
0.0
 20
0.0
 30
0.0
  0
VERTEX
  8
0
 10
210.573620000000005
 20
218.000580000000014
 30
0.0
  0
VERTEX
  8
0
 10
228.175820000000016
 20
218.000580000000014
 30
0.0
  0
SEQEND
  0
POLYLINE
  8
0
  6
LINETYPE_2
 66
     1
 10
0.0
 20
0.0
 30
0.0
  0
VERTEX
  8
0
 10
225.000820000000004
 20
91.6508200000000102
 30
0.0
  0
VERTEX
  8
0
 10
225.000820000000004
 20
98.0008200000000045
 30
0.0
  0
SEQEND
  0
POLYLINE
  8
0
  6
LINETYPE_2
 66
     1
 10
0.0
 20
0.0
 30
0.0
  0
VERTEX
  8
0
 10
225.000820000000004
 20
98.0008200000000045
 30
0.0
  0
VERTEX
  8
0
 10
224.365820000000014
 20
94.8258200000000073
 30
0.0
  0
SEQEND
  0
POLYLINE
  8
0
  6
LINETYPE_2
 66
     1
 10
0.0
 20
0.0
 30
0.0
  0
VERTEX
  8
0
 10
224.365820000000014
 20
94.8258200000000073
 30
0.0
  0
VERTEX
  8
0
 10
225.635820000000024
 20
94.8258200000000073
 30
0.0
  0
SEQEND
  0
POLYLINE
  8
0
  6
LINETYPE_2
 66
     1
 10
0.0
 20
0.0
 30
0.0
  0
VERTEX
  8
0
 10
225.635820000000024
 20
94.8258200000000073
 30
0.0
  0
VERTEX
  8
0
 10
225.000820000000004
 20
98.0008200000000045
 30
0.0
  0
SEQEND
  0
POLYLINE
  8
0
  6
LINETYPE_2
 66
     1
 10
0.0
 20
0.0
 30
0.0
  0
VERTEX
  8
0
 10
225.000820000000004
 20
224.350580000000008
 30
0.0
  0
VERTEX
  8
0
 10
225.000820000000004
 20
218.000580000000014
 30
0.0
  0
SEQEND
  0
POLYLINE
  8
0
  6
LINETYPE_2
 66
     1
 10
0.0
 20
0.0
 30
0.0
  0
VERTEX
  8
0
 10
225.000820000000004
 20
218.000580000000014
 30
0.0
  0
VERTEX
  8
0
 10
225.635820000000024
 20
221.175580000000025
 30
0.0
  0
SEQEND
  0
POLYLINE
  8
0
  6
LINETYPE_2
 66
     1
 10
0.0
 20
0.0
 30
0.0
  0
VERTEX
  8
0
 10
225.635820000000024
 20
221.175580000000025
 30
0.0
  0
VERTEX
  8
0
 10
224.365820000000014
 20
221.175580000000025
 30
0.0
  0
SEQEND
  0
POLYLINE
  8
0
  6
LINETYPE_2
 66
     1
 10
0.0
 20
0.0
 30
0.0
  0
VERTEX
  8
0
 10
224.365820000000014
 20
221.175580000000025
 30
0.0
  0
VERTEX
  8
0
 10
225.000820000000004
 20
218.000580000000014
 30
0.0
  0
SEQEND
  0
TEXT
999
CadStd_TT=2
  8
0
 10
215.623140000000006
 20
207.248760000000004
 30
0.0
 40
3.5001200000000003
  1
120,00
 50
0.0000000000000000
  0
POLYLINE
  8
0
  6
LINETYPE_2
 66
     1
 10
0.0
 20
0.0
 30
0.0
  0
VERTEX
  8
0
 10
200.573640000000012
 20
224.000060000000019
 30
0.0
  0
VERTEX
  8
0
 10
224.175320000000028
 20
224.000060000000019
 30
0.0
  0
SEQEND
  0
POLYLINE
  8
0
  6
LINETYPE_2
 66
     1
 10
0.0
 20
0.0
 30
0.0
  0
VERTEX
  8
0
 10
200.573640000000012
 20
265.998960000000011
 30
0.0
  0
VERTEX
  8
0
 10
224.175320000000028
 20
265.998960000000011
 30
0.0
  0
SEQEND
  0
POLYLINE
  8
0
  6
LINETYPE_2
 66
     1
 10
0.0
 20
0.0
 30
0.0
  0
VERTEX
  8
0
 10
221.000320000000016
 20
217.650060000000025
 30
0.0
  0
VERTEX
  8
0
 10
221.000320000000016
 20
224.000060000000019
 30
0.0
  0
SEQEND
  0
POLYLINE
  8
0
  6
LINETYPE_2
 66
     1
 10
0.0
 20
0.0
 30
0.0
  0
VERTEX
  8
0
 10
221.000320000000016
 20
224.000060000000019
 30
0.0
  0
VERTEX
  8
0
 10
220.365320000000025
 20
220.825060000000008
 30
0.0
  0
SEQEND
  0
POLYLINE
  8
0
  6
LINETYPE_2
 66
     1
 10
0.0
 20
0.0
 30
0.0
  0
VERTEX
  8
0
 10
220.365320000000025
 20
220.825060000000008
 30
0.0
  0
VERTEX
  8
0
 10
221.635320000000007
 20
220.825060000000008
 30
0.0
  0
SEQEND
  0
POLYLINE
  8
0
  6
LINETYPE_2
 66
     1
 10
0.0
 20
0.0
 30
0.0
  0
VERTEX
  8
0
 10
221.635320000000007
 20
220.825060000000008
 30
0.0
  0
VERTEX
  8
0
 10
221.000320000000016
 20
224.000060000000019
 30
0.0
  0
SEQEND
  0
POLYLINE
  8
0
  6
LINETYPE_2
 66
     1
 10
0.0
 20
0.0
 30
0.0
  0
VERTEX
  8
0
 10
221.000320000000016
 20
272.348960000000034
 30
0.0
  0
VERTEX
  8
0
 10
221.000320000000016
 20
265.998960000000011
 30
0.0
  0
SEQEND
  0
POLYLINE
  8
0
  6
LINETYPE_2
 66
     1
 10
0.0
 20
0.0
 30
0.0
  0
VERTEX
  8
0
 10
221.000320000000016
 20
265.998960000000011
 30
0.0
  0
VERTEX
  8
0
 10
221.635320000000007
 20
269.173960000000022
 30
0.0
  0
SEQEND
  0
POLYLINE
  8
0
  6
LINETYPE_2
 66
     1
 10
0.0
 20
0.0
 30
0.0
  0
VERTEX
  8
0
 10
221.635320000000007
 20
269.173960000000022
 30
0.0
  0
VERTEX
  8
0
 10
220.365320000000025
 20
269.173960000000022
 30
0.0
  0
SEQEND
  0
POLYLINE
  8
0
  6
LINETYPE_2
 66
     1
 10
0.0
 20
0.0
 30
0.0
  0
VERTEX
  8
0
 10
220.365320000000025
 20
269.173960000000022
 30
0.0
  0
VERTEX
  8
0
 10
221.000320000000016
 20
265.998960000000011
 30
0.0
  0
SEQEND
  0
TEXT
999
CadStd_TT=2
  8
0
 10
213.372700000000009
 20
257.25120000000004
 30
0.0
 40
3.5001200000000003
  1
42,00
 50
0.0000000000000000
  0
POLYLINE
  8
0
  6
LINETYPE_2
 66
     1
 10
0.0
 20
0.0
 30
0.0
  0
VERTEX
  8
0
 10
209.575400000000002
 20
272.000980000000027
 30
0.0
  0
VERTEX
  8
0
 10
228.175820000000016
 20
272.000980000000027
 30
0.0
  0
SEQEND
  0
POLYLINE
  8
0
  6
LINETYPE_2
 66
     1
 10
0.0
 20
0.0
 30
0.0
  0
VERTEX
  8
0
 10
207.573880000000003
 20
392.000740000000008
 30
0.0
  0
VERTEX
  8
0
 10
228.175820000000016
 20
392.000740000000008
 30
0.0
  0
SEQEND
  0
POLYLINE
  8
0
  6
LINETYPE_2
 66
     1
 10
0.0
 20
0.0
 30
0.0
  0
VERTEX
  8
0
 10
225.000820000000004
 20
265.650980000000004
 30
0.0
  0
VERTEX
  8
0
 10
225.000820000000004
 20
272.000980000000027
 30
0.0
  0
SEQEND
  0
POLYLINE
  8
0
  6
LINETYPE_2
 66
     1
 10
0.0
 20
0.0
 30
0.0
  0
VERTEX
  8
0
 10
225.000820000000004
 20
272.000980000000027
 30
0.0
  0
VERTEX
  8
0
 10
224.365820000000014
 20
268.825980000000015
 30
0.0
  0
SEQEND
  0
POLYLINE
  8
0
  6
LINETYPE_2
 66
     1
 10
0.0
 20
0.0
 30
0.0
  0
VERTEX
  8
0
 10
224.365820000000014
 20
268.825980000000015
 30
0.0
  0
VERTEX
  8
0
 10
225.635820000000024
 20
268.825980000000015
 30
0.0
  0
SEQEND
  0
POLYLINE
  8
0
  6
LINETYPE_2
 66
     1
 10
0.0
 20
0.0
 30
0.0
  0
VERTEX
  8
0
 10
225.635820000000024
 20
268.825980000000015
 30
0.0
  0
VERTEX
  8
0
 10
225.000820000000004
 20
272.000980000000027
 30
0.0
  0
SEQEND
  0
POLYLINE
  8
0
  6
LINETYPE_2
 66
     1
 10
0.0
 20
0.0
 30
0.0
  0
VERTEX
  8
0
 10
225.000820000000004
 20
398.35074000000003
 30
0.0
  0
VERTEX
  8
0
 10
225.000820000000004
 20
392.000740000000008
 30
0.0
  0
SEQEND
  0
POLYLINE
  8
0
  6
LINETYPE_2
 66
     1
 10
0.0
 20
0.0
 30
0.0
  0
VERTEX
  8
0
 10
225.000820000000004
 20
392.000740000000008
 30
0.0
  0
VERTEX
  8
0
 10
225.635820000000024
 20
395.175740000000019
 30
0.0
  0
SEQEND
  0
POLYLINE
  8
0
  6
LINETYPE_2
 66
     1
 10
0.0
 20
0.0
 30
0.0
  0
VERTEX
  8
0
 10
225.635820000000024
 20
395.175740000000019
 30
0.0
  0
VERTEX
  8
0
 10
224.365820000000014
 20
395.175740000000019
 30
0.0
  0
SEQEND
  0
POLYLINE
  8
0
  6
LINETYPE_2
 66
     1
 10
0.0
 20
0.0
 30
0.0
  0
VERTEX
  8
0
 10
224.365820000000014
 20
395.175740000000019
 30
0.0
  0
VERTEX
  8
0
 10
225.000820000000004
 20
392.000740000000008
 30
0.0
  0
SEQEND
  0
TEXT
999
CadStd_TT=2
  8
0
 10
215.623140000000006
 20
385.249420000000043
 30
0.0
 40
3.5001200000000003
  1
120,00
 50
0.0000000000000000
  0
ENDSEC
  0
EOF
