<?xml version="1.0" encoding="utf-8"?>
<!DOCTYPE eagle SYSTEM "eagle.dtd">
<eagle version="6.2">
<drawing>
<settings>
<setting alwaysvectorfont="no"/>
<setting verticaltext="up"/>
</settings>
<grid distance="0.1" unitdist="inch" unit="inch" style="lines" multiple="1" display="no" altdistance="0.01" altunitdist="inch" altunit="inch"/>
<layers>
<layer number="1" name="Top" color="4" fill="1" visible="yes" active="yes"/>
<layer number="16" name="Bottom" color="1" fill="1" visible="yes" active="yes"/>
<layer number="17" name="Pads" color="2" fill="1" visible="yes" active="yes"/>
<layer number="18" name="Vias" color="2" fill="1" visible="yes" active="yes"/>
<layer number="19" name="Unrouted" color="6" fill="1" visible="yes" active="yes"/>
<layer number="20" name="Dimension" color="15" fill="1" visible="yes" active="yes"/>
<layer number="21" name="tPlace" color="7" fill="1" visible="yes" active="yes"/>
<layer number="22" name="bPlace" color="7" fill="1" visible="yes" active="yes"/>
<layer number="23" name="tOrigins" color="15" fill="1" visible="yes" active="yes"/>
<layer number="24" name="bOrigins" color="15" fill="1" visible="yes" active="yes"/>
<layer number="25" name="tNames" color="7" fill="1" visible="yes" active="yes"/>
<layer number="26" name="bNames" color="7" fill="1" visible="yes" active="yes"/>
<layer number="27" name="tValues" color="7" fill="1" visible="yes" active="yes"/>
<layer number="28" name="bValues" color="7" fill="1" visible="yes" active="yes"/>
<layer number="29" name="tStop" color="7" fill="3" visible="no" active="yes"/>
<layer number="30" name="bStop" color="7" fill="6" visible="no" active="yes"/>
<layer number="41" name="tRestrict" color="4" fill="10" visible="yes" active="yes"/>
<layer number="42" name="bRestrict" color="1" fill="10" visible="yes" active="yes"/>
<layer number="43" name="vRestrict" color="2" fill="10" visible="yes" active="yes"/>
<layer number="44" name="Drills" color="7" fill="1" visible="no" active="yes"/>
<layer number="45" name="Holes" color="7" fill="1" visible="no" active="yes"/>
<layer number="46" name="Milling" color="3" fill="1" visible="no" active="yes"/>
<layer number="47" name="Measures" color="7" fill="1" visible="no" active="yes"/>
<layer number="48" name="Document" color="7" fill="1" visible="yes" active="yes"/>
<layer number="49" name="Reference" color="7" fill="1" visible="yes" active="yes"/>
<layer number="51" name="tDocu" color="7" fill="1" visible="yes" active="yes"/>
<layer number="52" name="bDocu" color="7" fill="1" visible="yes" active="yes"/>
<layer number="91" name="Nets" color="2" fill="1" visible="yes" active="yes"/>
<layer number="92" name="Busses" color="1" fill="1" visible="yes" active="yes"/>
<layer number="93" name="Pins" color="2" fill="1" visible="no" active="yes"/>
<layer number="94" name="Symbols" color="4" fill="1" visible="yes" active="yes"/>
<layer number="95" name="Names" color="7" fill="1" visible="yes" active="yes"/>
<layer number="96" name="Values" color="7" fill="1" visible="yes" active="yes"/>
<layer number="100" name="Muster" color="7" fill="1" visible="no" active="yes"/>
<layer number="2" name="Route2" color="1" fill="3" visible="no" active="yes"/>
<layer number="3" name="Route3" color="4" fill="3" visible="no" active="yes"/>
<layer number="4" name="Route4" color="1" fill="4" visible="no" active="yes"/>
<layer number="5" name="Route5" color="4" fill="4" visible="no" active="yes"/>
<layer number="6" name="Route6" color="1" fill="8" visible="no" active="yes"/>
<layer number="7" name="Route7" color="4" fill="8" visible="no" active="yes"/>
<layer number="8" name="Route8" color="1" fill="2" visible="no" active="yes"/>
<layer number="9" name="Route9" color="4" fill="2" visible="no" active="yes"/>
<layer number="10" name="Route10" color="1" fill="7" visible="no" active="yes"/>
<layer number="11" name="Route11" color="4" fill="7" visible="no" active="yes"/>
<layer number="12" name="Route12" color="1" fill="5" visible="no" active="yes"/>
<layer number="13" name="Route13" color="4" fill="5" visible="no" active="yes"/>
<layer number="14" name="Route14" color="1" fill="6" visible="no" active="yes"/>
<layer number="15" name="Route15" color="4" fill="6" visible="no" active="yes"/>
<layer number="31" name="tCream" color="7" fill="4" visible="no" active="yes"/>
<layer number="32" name="bCream" color="7" fill="5" visible="no" active="yes"/>
<layer number="33" name="tFinish" color="6" fill="3" visible="no" active="yes"/>
<layer number="34" name="bFinish" color="6" fill="6" visible="no" active="yes"/>
<layer number="35" name="tGlue" color="7" fill="4" visible="no" active="yes"/>
<layer number="36" name="bGlue" color="7" fill="5" visible="no" active="yes"/>
<layer number="37" name="tTest" color="7" fill="1" visible="no" active="yes"/>
<layer number="38" name="bTest" color="7" fill="1" visible="no" active="yes"/>
<layer number="39" name="tKeepout" color="4" fill="11" visible="yes" active="yes"/>
<layer number="40" name="bKeepout" color="1" fill="11" visible="yes" active="yes"/>
<layer number="53" name="tPadExt" color="7" fill="1" visible="no" active="no"/>
<layer number="54" name="bPadExt" color="1" fill="1" visible="no" active="no"/>
<layer number="97" name="Info" color="7" fill="1" visible="no" active="no"/>
<layer number="98" name="Guide" color="6" fill="1" visible="no" active="no"/>
<layer number="250" name="Descript" color="3" fill="1" visible="no" active="no"/>
<layer number="251" name="SMDround" color="12" fill="11" visible="no" active="no"/>
</layers>
<library>
<description>&lt;H1&gt;FNE Library - Bipolar General Purpose Tranzistor&lt;/H1&gt;

&lt;p&gt;Knihovna obsahuje bipolární tranzistory pro obecné použití (malovýkonové) &lt;/p&gt;
&lt;p&gt;Library contain bipolar general purpose transistors (low power).&lt;/p&gt;</description>
<packages>
<package name="SOT23">
<description>&lt;b&gt;SOT-23&lt;/b&gt;</description>
<wire x1="1.4224" y1="0.6604" x2="1.4224" y2="-0.6604" width="0.1524" layer="51"/>
<wire x1="1.4224" y1="-0.6604" x2="-1.4224" y2="-0.6604" width="0.1524" layer="51"/>
<wire x1="-1.4224" y1="-0.6604" x2="-1.4224" y2="0.6604" width="0.1524" layer="51"/>
<wire x1="-1.4224" y1="0.6604" x2="1.4224" y2="0.6604" width="0.1524" layer="51"/>
<smd name="3" x="0" y="1.1" dx="1" dy="1.4" layer="1"/>
<smd name="2" x="0.95" y="-1.1" dx="1" dy="1.4" layer="1"/>
<smd name="1" x="-0.95" y="-1.1" dx="1" dy="1.4" layer="1"/>
<text x="-1.905" y="1.905" size="1.27" layer="25">&gt;NAME</text>
<text x="-1.905" y="-3.175" size="1.27" layer="27">&gt;VALUE</text>
<rectangle x1="-0.2286" y1="0.7112" x2="0.2286" y2="1.2954" layer="51"/>
<rectangle x1="0.7112" y1="-1.2954" x2="1.1684" y2="-0.7112" layer="51"/>
<rectangle x1="-1.1684" y1="-1.2954" x2="-0.7112" y2="-0.7112" layer="51"/>
</package>
</packages>
<symbols>
<symbol name="TRANSISTOR_NPN">
<wire x1="0" y1="2.54" x2="0" y2="1.778" width="0.254" layer="94"/>
<wire x1="0" y1="1.778" x2="0" y2="0" width="0.254" layer="94"/>
<wire x1="0" y1="0" x2="0" y2="-1.778" width="0.254" layer="94"/>
<wire x1="0" y1="-1.778" x2="0" y2="-2.54" width="0.254" layer="94"/>
<wire x1="0" y1="-1.778" x2="2.54" y2="-2.54" width="0.254" layer="94"/>
<wire x1="0" y1="1.778" x2="2.54" y2="2.54" width="0.254" layer="94"/>
<wire x1="-0.254" y1="2.54" x2="-0.254" y2="-2.54" width="0.254" layer="94"/>
<wire x1="-0.254" y1="-2.54" x2="0" y2="-2.54" width="0.254" layer="94"/>
<wire x1="-0.254" y1="2.54" x2="0" y2="2.54" width="0.254" layer="94"/>
<wire x1="2.54" y1="-2.54" x2="2.032" y2="-1.778" width="0.254" layer="94"/>
<wire x1="2.032" y1="-1.778" x2="1.651" y2="-2.794" width="0.254" layer="94"/>
<wire x1="1.651" y1="-2.794" x2="2.54" y2="-2.54" width="0.254" layer="94"/>
<wire x1="2.54" y1="-2.54" x2="2.032" y2="-2.286" width="0.254" layer="94"/>
<wire x1="1.905" y1="-2.54" x2="2.032" y2="-2.54" width="0.254" layer="94"/>
<wire x1="2.032" y1="-2.54" x2="2.032" y2="-2.032" width="0.254" layer="94"/>
<wire x1="2.032" y1="-2.032" x2="2.286" y2="-2.286" width="0.254" layer="94"/>
<text x="5.08" y="0" size="1.778" layer="95">&gt;NAME</text>
<text x="5.08" y="-2.54" size="1.778" layer="96">&gt;VALUE</text>
<pin name="C" x="2.54" y="5.08" visible="off" length="short" rot="R270"/>
<pin name="E" x="2.54" y="-5.08" visible="off" length="short" rot="R90"/>
<pin name="B" x="-2.54" y="0" visible="off" length="short"/>
</symbol>
<symbol name="TRANSISTOR_PNP">
<wire x1="0" y1="2.54" x2="0" y2="1.778" width="0.254" layer="94"/>
<wire x1="0" y1="1.778" x2="0" y2="0" width="0.254" layer="94"/>
<wire x1="0" y1="0" x2="0" y2="-1.778" width="0.254" layer="94"/>
<wire x1="0" y1="-1.778" x2="0" y2="-2.54" width="0.254" layer="94"/>
<wire x1="0" y1="1.778" x2="2.54" y2="2.54" width="0.254" layer="94"/>
<wire x1="0" y1="-1.778" x2="2.54" y2="-2.54" width="0.254" layer="94"/>
<wire x1="0" y1="1.778" x2="0.762" y2="2.54" width="0.254" layer="94"/>
<wire x1="0.762" y1="2.54" x2="1.016" y2="1.651" width="0.254" layer="94"/>
<wire x1="1.016" y1="1.651" x2="0" y2="1.778" width="0.254" layer="94"/>
<wire x1="0" y1="1.778" x2="0.889" y2="1.778" width="0.254" layer="94"/>
<wire x1="0.889" y1="1.778" x2="0.635" y2="2.286" width="0.254" layer="94"/>
<wire x1="0.635" y1="2.286" x2="0.381" y2="2.032" width="0.254" layer="94"/>
<text x="5.08" y="-2.54" size="1.778" layer="96">&gt;VALUE</text>
<text x="5.08" y="0" size="1.778" layer="95">&gt;NAME</text>
<pin name="E" x="2.54" y="5.08" visible="off" length="short" rot="R270"/>
<pin name="C" x="2.54" y="-5.08" visible="off" length="short" rot="R90"/>
<pin name="B" x="-2.54" y="0" visible="off" length="short"/>
</symbol>
</symbols>
<devicesets>
<deviceset name="BC847" prefix="Q" uservalue="yes">
<description>&lt;H1&gt;NPN general-purpose transistors &lt;/H1&gt;
&lt;H2&gt;BC847/BC547 series&lt;/h2&gt;&lt;br&gt;

&lt;b&gt;&lt;i&gt;45 V, 100 mA&lt;/i&gt;&lt;/b&gt; &lt;br&gt;&lt;br&gt;

Datasheet: &lt;a href="\bipolar-datasheets\BC847.pdf"&gt;\bipolar-datasheets\BC847.pdf&lt;/a&gt;&lt;br&gt;&lt;br&gt;


&lt;b&gt;Features&lt;/b&gt;&lt;br&gt;
- Low current&lt;br&gt;
- Low voltage&lt;br&gt;
- Three different gain selections&lt;br&gt;&lt;br&gt;
&lt;b&gt;Applications&lt;/b&gt;&lt;br&gt;
- General-purpose switching and amplification
&lt;br&gt;

&lt;table border = 1 cellpadding=2 cellspacing=0&gt;
&lt;tr&gt;&lt;th&gt;Symbol &lt;/th&gt;&lt;th&gt;Parameter&lt;/th&gt;&lt;th&gt; Conditions &lt;/th&gt;&lt;th&gt;Min&lt;/th&gt;&lt;th&gt; Typ&lt;/th&gt;&lt;th&gt; Max&lt;/th&gt;&lt;th&gt; Unit&lt;/th&gt;&lt;/tr&gt;
&lt;tr&gt;&lt;td&gt;VCEO&lt;/td&gt;&lt;td&gt; collector-emitter voltage &lt;/td&gt;&lt;td&gt;open base&lt;/td&gt;&lt;td&gt; -&lt;/td&gt;&lt;td&gt; -&lt;/td&gt;&lt;td&gt; 45&lt;/td&gt;&lt;td&gt; V&lt;/td&gt;&lt;/tr&gt;
&lt;tr&gt;&lt;td&gt;IC &lt;/td&gt;&lt;td&gt;collector current&lt;/td&gt;&lt;td&gt;&lt;/td&gt;&lt;td&gt; -&lt;/td&gt;&lt;td&gt; -&lt;/td&gt;&lt;td&gt; 100&lt;/td&gt;&lt;td&gt; mA&lt;/td&gt;&lt;/tr&gt;
&lt;tr&gt;&lt;td&gt;hFE&lt;/td&gt;&lt;td&gt; DC current gain&lt;/td&gt;&lt;td&gt; VCE = 5 V; IC = 2 mA&lt;/td&gt;&lt;td&gt; 110&lt;/td&gt;&lt;td&gt; -&lt;/td&gt;&lt;td&gt; 800&lt;/td&gt;&lt;td&gt;-&lt;/td&gt;&lt;/tr&gt;
&lt;tr&gt;&lt;td&gt;&lt;/td&gt;&lt;td&gt;hFE group A &lt;/td&gt;&lt;td&gt;&lt;/td&gt;&lt;td&gt;110&lt;/td&gt;&lt;td&gt; 180&lt;/td&gt;&lt;td&gt; 220&lt;/td&gt;&lt;td&gt;-&lt;/td&gt;&lt;/tr&gt;
&lt;tr&gt;&lt;td&gt;&lt;/td&gt;&lt;td&gt;hFE group B&lt;/td&gt;&lt;td&gt; &lt;/td&gt;&lt;td&gt;200&lt;/td&gt;&lt;td&gt; 290&lt;/td&gt;&lt;td&gt; 450&lt;/td&gt;&lt;td&gt;-&lt;/td&gt;&lt;/tr&gt;
&lt;tr&gt;&lt;td&gt;&lt;/td&gt;&lt;td&gt;hFE group C&lt;/td&gt;&lt;td&gt;&lt;/td&gt;&lt;td&gt; 420&lt;/td&gt;&lt;td&gt; 520&lt;/td&gt;&lt;td&gt; 800&lt;/td&gt;&lt;td&gt;-&lt;/td&gt;&lt;/tr&gt;
&lt;/table&gt;</description>
<gates>
<gate name="G$1" symbol="TRANSISTOR_NPN" x="0" y="0"/>
</gates>
<devices>
<device name="_SOT23" package="SOT23">
<connects>
<connect gate="G$1" pin="B" pad="1"/>
<connect gate="G$1" pin="C" pad="3"/>
<connect gate="G$1" pin="E" pad="2"/>
</connects>
<technologies>
<technology name="">
<attribute name="MPN" value="BC847B" constant="no"/>
<attribute name="OC_FARNELL" value="1081232" constant="no"/>
<attribute name="OC_NEWARK" value="" constant="no"/>
<attribute name="PACKAGE" value="SOT23" constant="no"/>
<attribute name="SUPPLIER" value="NXP" constant="no"/>
</technology>
</technologies>
</device>
</devices>
</deviceset>
<deviceset name="BC857" prefix="Q" uservalue="yes">
<description>&lt;H1&gt;PNP general-purpose transistors &lt;/H1&gt;
&lt;br&gt;
&lt;b&gt;BC856, BC857, BC858
 &lt;/b&gt;

&lt;br&gt;&lt;br&gt;

Datasheet: &lt;a href="\bipolar-datasheets\BC857.pdf"&gt;\bipolar-datasheets\BC857.pdf&lt;/a&gt;&lt;br&gt;&lt;br&gt;

&lt;b&gt;FEATURES&lt;/b&gt;&lt;br&gt;
-Low current (max. 100 mA)&lt;br&gt;
-Low voltage (max. 65 V).&lt;br&gt;&lt;br&gt;
&lt;b&gt;APPLICATIONS&lt;/b&gt;&lt;br&gt;
General purpose switching and amplification.&lt;br&gt;&lt;br&gt;
&lt;b&gt;DESCRIPTION&lt;/b&gt;&lt;br&gt;
PNP transistor in a SOT23 plastic package. NPN complements: BC846, BC847 and BC848.&lt;br&gt;

&lt;H2&gt;LIMITING VALUES&lt;/H2&gt;
In accordance with the Absolute Maximum System (IEC 60134).&lt;br&gt;
&lt;table border=1 cellspacing=0&gt;

&lt;tr&gt;&lt;th&gt;SYMBOL&lt;/th&gt;&lt;th&gt;PARAMETER&lt;/th&gt;&lt;th&gt;CONDITIONS&lt;/th&gt;&lt;th&gt;MIN.&lt;/th&gt;&lt;th&gt;MAX.&lt;/th&gt;&lt;th&gt;UNIT&lt;/th&gt;&lt;/tr&gt;
&lt;tr&gt;&lt;td rowspan=4&gt;VCBO&lt;/td&gt;&lt;td&gt;
collector-base voltage&lt;/td&gt;&lt;td&gt;
open emitter&lt;/td&gt;&lt;td&gt;&lt;/td&gt;&lt;td&gt;&lt;/td&gt;&lt;td&gt;&lt;/td&gt;&lt;/tr&gt;
&lt;tr&gt;&lt;td&gt;BC856&lt;/td&gt;&lt;td&gt;&lt;/td&gt;&lt;td&gt;
−&lt;/td&gt;&lt;td&gt;
−80&lt;/td&gt;&lt;td&gt;
V&lt;/td&gt;&lt;/tr&gt;
&lt;tr&gt;&lt;td&gt;BC857&lt;/td&gt;&lt;td&gt;&lt;/td&gt;&lt;td&gt;
−&lt;/td&gt;&lt;td&gt;
−50&lt;/td&gt;&lt;td&gt;
V&lt;/td&gt;&lt;/tr&gt;
&lt;tr&gt;&lt;td&gt;BC858&lt;/td&gt;&lt;td&gt;&lt;/td&gt;&lt;td&gt;
−&lt;/td&gt;&lt;td&gt;
−30&lt;/td&gt;&lt;td&gt;
V&lt;/td&gt;&lt;/tr&gt;
&lt;tr&gt;&lt;td rowspan=4&gt;VCEO&lt;/td&gt;&lt;td&gt;
collector-emitter voltage&lt;/td&gt;&lt;td&gt;
open base&lt;/td&gt;&lt;td&gt;
&lt;tr&gt;&lt;td&gt;BC856&lt;/td&gt;&lt;td&gt;&lt;/td&gt;&lt;td&gt;
−&lt;/td&gt;&lt;td&gt;
−65&lt;/td&gt;&lt;td&gt;
V&lt;/td&gt;&lt;/tr&gt;
&lt;tr&gt;&lt;td&gt;BC857&lt;/td&gt;&lt;td&gt;&lt;/td&gt;&lt;td&gt;
−&lt;/td&gt;&lt;td&gt;
−45&lt;/td&gt;&lt;td&gt;
V&lt;/td&gt;&lt;/tr&gt;
&lt;tr&gt;&lt;td&gt;BC858&lt;/td&gt;&lt;td&gt;&lt;/td&gt;&lt;td&gt;
−&lt;/td&gt;&lt;td&gt;
−30&lt;/td&gt;&lt;td&gt;
V&lt;/td&gt;&lt;/tr&gt;
&lt;tr&gt;&lt;td&gt;VEBO&lt;/td&gt;&lt;td&gt;
emitter-base voltage&lt;/td&gt;&lt;td&gt;
open collector&lt;/td&gt;&lt;td&gt;
−&lt;/td&gt;&lt;td&gt;
−5&lt;/td&gt;&lt;td&gt;
V
&lt;tr&gt;&lt;td&gt;IC&lt;/td&gt;&lt;td&gt;
collector current (DC)&lt;/td&gt;&lt;td&gt;&lt;/td&gt;&lt;td&gt;
−&lt;/td&gt;&lt;td&gt;
−100&lt;/td&gt;&lt;td&gt;
mA&lt;/td&gt;&lt;/tr&gt;
&lt;tr&gt;&lt;td&gt;ICM&lt;/td&gt;&lt;td&gt;
peak collector current&lt;/td&gt;&lt;td&gt;&lt;/td&gt;&lt;td&gt;
−&lt;/td&gt;&lt;td&gt;
−200&lt;/td&gt;&lt;td&gt;
mA&lt;/td&gt;&lt;/tr&gt;
&lt;tr&gt;&lt;td&gt;IBM&lt;/td&gt;&lt;td&gt;
peak base current&lt;/td&gt;&lt;td&gt;&lt;/td&gt;&lt;td&gt;
−&lt;/td&gt;&lt;td&gt;
−200&lt;/td&gt;&lt;td&gt;
mA
&lt;tr&gt;&lt;td&gt;Ptot&lt;/td&gt;&lt;td&gt;
total power dissipation&lt;/td&gt;&lt;td&gt;
Tamb ≤ 25 °C&lt;/td&gt;&lt;td&gt;
−&lt;/td&gt;&lt;td&gt;
250&lt;/td&gt;&lt;td&gt;
mW&lt;/td&gt;&lt;/tr&gt;
&lt;tr&gt;&lt;td&gt;Tstg&lt;/td&gt;&lt;td&gt;
storage temperature&lt;/td&gt;&lt;td&gt;&lt;/td&gt;&lt;td&gt;
−65&lt;/td&gt;&lt;td&gt;
+150&lt;/td&gt;&lt;td&gt;
°C&lt;/td&gt;&lt;/tr&gt;
&lt;tr&gt;&lt;td&gt;Tj&lt;/td&gt;&lt;td&gt;
junction temperature&lt;/td&gt;&lt;td&gt;&lt;/td&gt;&lt;td&gt;
−&lt;/td&gt;&lt;td&gt;
+150&lt;/td&gt;&lt;td&gt;
°C&lt;/td&gt;&lt;/tr&gt;
&lt;tr&gt;&lt;td&gt;Tamb&lt;/td&gt;&lt;td&gt;
operating ambient temperature&lt;/td&gt;&lt;td&gt;&lt;/td&gt;&lt;td&gt;
−65&lt;/td&gt;&lt;td&gt;
+150&lt;/td&gt;&lt;td&gt;
°C&lt;/td&gt;&lt;/tr&gt;
&lt;/table&gt;</description>
<gates>
<gate name="G$1" symbol="TRANSISTOR_PNP" x="0" y="0"/>
</gates>
<devices>
<device name="_SOT23" package="SOT23">
<connects>
<connect gate="G$1" pin="B" pad="1"/>
<connect gate="G$1" pin="C" pad="3"/>
<connect gate="G$1" pin="E" pad="2"/>
</connects>
<technologies>
<technology name="">
<attribute name="MPN" value="BC857" constant="no"/>
<attribute name="OC_FARNELL" value="1081244" constant="no"/>
<attribute name="OC_NEWARK" value="" constant="no"/>
<attribute name="PACKAGE" value="SOT23" constant="no"/>
<attribute name="SUPPLIER" value="NXP" constant="no"/>
</technology>
</technologies>
</device>
</devices>
</deviceset>
<deviceset name="MMBTA42" prefix="Q" uservalue="yes">
<description>&lt;H1&gt;NPN High Voltage tranzistor&lt;/h1&gt;

&lt;h2&gt;MMBTA42&lt;/h2&gt;

Datasheet: &lt;a href="\bipolar-datasheets\MMBTA42.pdf"&gt;\bipolar-datasheets\MMBTA42.pdf&lt;/a&gt;&lt;br&gt;&lt;br&gt;

This device is designed for application as a video output to
drive color CRT and other high voltage applications. Sourced
from Process 48.&lt;br&gt;&lt;br&gt;

&lt;b&gt;PARAMETERS:&lt;/b&gt;&lt;br&gt;


  Transistor Polarity: NPN &lt;br&gt;
  Collector Emitter Voltage V(br)ceo:300V &lt;br&gt;
  Transition Frequency Typ ft: 50MHz &lt;br&gt;
  Power Dissipation Pd: 300mW &lt;br&gt;
  DC Collector Current: 500mA &lt;br&gt;
  DC Current Gain hFE: 40 &lt;br&gt;
  Operating Temperature Range:-55°C to +150°C &lt;br&gt;
  Transistor Case Style: SOT-23 &lt;br&gt;
  No. of Pins: 3 &lt;br&gt;
  SVHC: No SVHC (18-Jun-2012) &lt;br&gt;
  Collector Emitter Voltage Vces: 500mV &lt;br&gt;
  Current Ic Continuous a Max: 500mA &lt;br&gt;
  Gain Bandwidth ft Typ: 50MHz &lt;br&gt;
  Hfe Min: 40 &lt;br&gt;
  Package / Case: SOT-23 &lt;br&gt;
  Termination Type: SMD &lt;br&gt;
  Transistor Type: Small Signal&lt;br&gt;&lt;br&gt;
&lt;table border=1 cellspacing="0" cellpadding="2"&gt;
&lt;tr&gt;&lt;th&gt;Symbol &lt;/th&gt;&lt;th&gt;Parameter&lt;/th&gt;&lt;th&gt; Value&lt;/th&gt;&lt;th&gt; Units&lt;/th&gt;&lt;/tr&gt;
&lt;tr&gt;&lt;td&gt;VCES &lt;/td&gt;&lt;td&gt;Collector-Emitter Voltage &lt;/td&gt;&lt;td&gt;300&lt;/td&gt;&lt;td&gt; V&lt;/td&gt;&lt;/tr&gt;
&lt;tr&gt;&lt;td&gt;VCBO&lt;/td&gt;&lt;td&gt; Collector-Base Voltage&lt;/td&gt;&lt;td&gt; 300&lt;/td&gt;&lt;td&gt; V&lt;/td&gt;&lt;/tr&gt;
&lt;tr&gt;&lt;td&gt;VEBO &lt;/td&gt;&lt;td&gt;Emitter-Base Voltage&lt;/td&gt;&lt;td&gt; 6.0 &lt;/td&gt;&lt;td&gt;V&lt;/td&gt;&lt;/tr&gt;
&lt;tr&gt;&lt;td&gt;IC &lt;/td&gt;&lt;td&gt;Collector Current - Continuous &lt;/td&gt;&lt;td&gt;500&lt;/td&gt;&lt;td&gt; mA&lt;/td&gt;&lt;/tr&gt;
&lt;tr&gt;&lt;td&gt;TJ, Tstg&lt;/td&gt;&lt;td&gt; Operating  Junction Temp &lt;/td&gt;&lt;td&gt;-55 to +150&lt;/td&gt;&lt;td&gt; °C&lt;/td&gt;&lt;/tr&gt;
&lt;/table&gt;&lt;br&gt;&lt;br&gt;

&lt;b&gt;alt. packages:&lt;/b&gt;
&lt;br&gt;

MPSA42 - TO-92&lt;br&gt;
PZTA42 - SOT223&lt;br&gt;</description>
<gates>
<gate name="G$1" symbol="TRANSISTOR_NPN" x="0" y="0"/>
</gates>
<devices>
<device name="" package="SOT23">
<connects>
<connect gate="G$1" pin="B" pad="1"/>
<connect gate="G$1" pin="C" pad="3"/>
<connect gate="G$1" pin="E" pad="2"/>
</connects>
<technologies>
<technology name="">
<attribute name="MPN" value="MMBTA42-7-F" constant="no"/>
<attribute name="OC_FARNELL" value="1773633" constant="no"/>
<attribute name="OC_NEWARK" value="" constant="no"/>
<attribute name="PACKAGE" value="SOT23" constant="no"/>
<attribute name="SUPPLIER" value="DIODES INC" constant="no"/>
</technology>
</technologies>
</device>
</devices>
</deviceset>
<deviceset name="MMBTA92" prefix="Q" uservalue="yes">
<description>&lt;H1&gt;PNP High Voltage tranzistor&lt;/h1&gt;


&lt;h2&gt;MMBTA92&lt;/h2&gt;

Datasheet: &lt;a href="\bipolar-datasheets\MMBTA92.pdf"&gt;\bipolar-datasheets\MMBTA92.pdf&lt;/a&gt;&lt;br&gt;&lt;br&gt;

This device is designed for high voltage driver applications.
Sourced from Process 76..&lt;br&gt;&lt;br&gt;

&lt;b&gt;PARAMETERS:&lt;/b&gt;&lt;br&gt;
  Transistor Polarity: PNP &lt;br&gt;
  Collector Emitter Voltage V(br)ceo: -300V &lt;br&gt;
  Transition Frequency Typ ft: 50MHz &lt;br&gt;
  Power Dissipation Pd: 300mW &lt;br&gt;
  DC Collector Current: -500mA &lt;br&gt;
  DC Current Gain hFE: 40 &lt;br&gt;
  Operating Temperature Range: -55°C to +150°C &lt;br&gt;
  Transistor Case Style: SOT-23 &lt;br&gt;
  No. of Pins: 3 &lt;br&gt;
  SVHC: No SVHC (18-Jun-2012) &lt;br&gt;
  Collector Emitter Voltage Vces: -500mV &lt;br&gt;
  Current Ic Continuous a Max: -500mA &lt;br&gt;
  Gain Bandwidth ft Typ: 50MHz &lt;br&gt;
  Hfe Min: 40 &lt;br&gt;
  Package / Case: SOT-23 &lt;br&gt;
  Termination Type: SMD &lt;br&gt;
  Transistor Type: Small Signal&lt;br&gt;


&lt;table border=1 cellspacing="0" cellpadding="2"&gt;
&lt;tr&gt;&lt;th&gt;Symbol &lt;/th&gt;&lt;th&gt;Parameter&lt;/th&gt;&lt;th&gt; Value&lt;/th&gt;&lt;th&gt; Units&lt;/th&gt;&lt;/tr&gt;
&lt;tr&gt;&lt;td&gt;VCES &lt;/td&gt;&lt;td&gt;Collector-Emitter Voltage &lt;/td&gt;&lt;td&gt;300&lt;/td&gt;&lt;td&gt; V&lt;/td&gt;&lt;/tr&gt;
&lt;tr&gt;&lt;td&gt;VCBO&lt;/td&gt;&lt;td&gt; Collector-Base Voltage&lt;/td&gt;&lt;td&gt; 300&lt;/td&gt;&lt;td&gt; V&lt;/td&gt;&lt;/tr&gt;
&lt;tr&gt;&lt;td&gt;VEBO &lt;/td&gt;&lt;td&gt;Emitter-Base Voltage&lt;/td&gt;&lt;td&gt; 5.0 &lt;/td&gt;&lt;td&gt;V&lt;/td&gt;&lt;/tr&gt;
&lt;tr&gt;&lt;td&gt;IC &lt;/td&gt;&lt;td&gt;Collector Current - Continuous &lt;/td&gt;&lt;td&gt;500&lt;/td&gt;&lt;td&gt; mA&lt;/td&gt;&lt;/tr&gt;
&lt;tr&gt;&lt;td&gt;TJ, Tstg&lt;/td&gt;&lt;td&gt; Operating  Junction Temp &lt;/td&gt;&lt;td&gt;-55 to +150&lt;/td&gt;&lt;td&gt; °C&lt;/td&gt;&lt;/tr&gt;
&lt;/table&gt;&lt;br&gt;&lt;br&gt;

&lt;b&gt;alt. packages:&lt;/b&gt;
&lt;br&gt;

MPSA92 - TO-92&lt;br&gt;
PZTA92 - SOT223&lt;br&gt;</description>
<gates>
<gate name="G$1" symbol="TRANSISTOR_PNP" x="0" y="0"/>
</gates>
<devices>
<device name="" package="SOT23">
<connects>
<connect gate="G$1" pin="B" pad="1"/>
<connect gate="G$1" pin="C" pad="3"/>
<connect gate="G$1" pin="E" pad="2"/>
</connects>
<technologies>
<technology name="">
<attribute name="MPN" value="MMBTA92-7-F" constant="no"/>
<attribute name="OC_FARNELL" value="1773634" constant="no"/>
<attribute name="OC_NEWARK" value="" constant="no"/>
<attribute name="PACKAGE" value="SOT23" constant="no"/>
<attribute name="SUPPLIER" value="DIODES INC" constant="no"/>
</technology>
</technologies>
</device>
</devices>
</deviceset>
</devicesets>
</library>
</drawing>
</eagle>
