%
M48
M72
T01C0.01378
T02C0.03200
T03C0.03600
T04C0.04331
T05C0.09843
T06C0.19685
%
T01
X39850Y41300
X39850Y59500
X53500Y66000
X80800Y34150
T02
X92000Y53500
X92000Y63500
T03
X92500Y37500
X92500Y27500
X81500Y96000
X81500Y106000
X71500Y106000
X71500Y96000
X61500Y96000
X61500Y106000
X51500Y106000
X51500Y96000
X41500Y96000
X41500Y106000
X31500Y106000
X31500Y96000
X21500Y96000
X21500Y106000
T04
X36502Y76778
X29878Y63717
X29378Y46000
X29878Y28283
X36502Y15222
X52250Y11285
X67998Y15222
X73372Y28283
X73872Y46000
X73372Y63717
X67998Y76778
X52250Y80715
T05
X11343Y10843
X11343Y75803
X92051Y75803
X92051Y10843
T06
X53500Y46000
M30
