%
M48
M72
T01C0.01378
T02C0.03150
T03C0.03937
T04C0.04000
T05C0.05118
T06C0.05200
T07C0.11811
%
T01
X99532Y46196
X115280Y52102
X131028Y54070
X146777Y54070
X162525Y54070
X171973Y53283
X183391Y51708
X194021Y54070
X208194Y51314
X225517Y58007
X208194Y64306
X261737Y52889
X269611Y52889
X282013Y60172
X288903Y58794
X302682Y61944
X303469Y57220
X281422Y65487
X268824Y67062
X303469Y68243
X316462Y69031
X302682Y77298
X288509Y96196
X274729Y98165
X262131Y100527
X266068Y104070
X278666Y106432
X288115Y103283
X312525Y100527
X331720Y106026
X291658Y120606
X258194Y120606
X244682Y122968
X238903Y107220
X230241Y105251
X213706Y93440
X234178Y86747
X141265Y89503
X129847Y93834
X123154Y87141
X91658Y77692
X94808Y72180
X52288Y85566
X42800Y81016
X51501Y75724
X12131Y65881
X44414Y97377
X40477Y101314
X90871Y112338
X123154Y126905
X231816Y27298
X294021Y18637
X308981Y15487
X388509Y72574
T02
X379336Y88165
X369336Y88165
X359336Y88165
X349336Y88165
X339336Y88165
X329336Y88165
X319336Y88165
X309336Y88165
X299336Y88165
X289336Y88165
X279336Y88165
X269336Y88165
X259336Y88165
X249336Y88165
X239336Y88165
X244336Y68165
X234336Y68165
X234336Y58165
X244336Y58165
X244336Y48165
X234336Y48165
X239336Y28165
X249336Y28165
X259336Y28165
X269336Y28165
X279336Y28165
X289336Y28165
X299336Y28165
X309336Y28165
X319336Y28165
X329336Y28165
X339336Y28165
X349336Y28165
X359336Y28165
X369336Y28165
X379336Y28165
X44414Y73952
X20202Y98165
T03
X28666Y124346
X33588Y134188
X51304Y134188
X70595Y134188
X88312Y134188
X107603Y134188
X125320Y134188
X144611Y134188
X162328Y134188
X167249Y124346
X139690Y124346
X130241Y124346
X102682Y124346
X93233Y124346
X65674Y124346
X56225Y124346
X58981Y43440
X34966Y43440
X46777Y24543
T04
X156895Y14700
X166895Y14700
X176895Y14700
X186895Y14700
X196895Y14700
X206895Y14700
X216895Y14700
X226895Y14700
X236895Y14700
X246895Y14700
X152133Y112136
X134333Y112136
X116700Y112136
X98900Y112136
X81267Y112136
X63467Y112136
X44653Y112136
X26853Y112136
X26853Y137736
X44653Y137736
X63467Y137736
X81267Y137736
X98900Y137736
X116700Y137736
X134333Y137736
X152133Y137736
X176895Y136747
X186895Y136747
X196895Y136747
X206895Y136747
X216895Y136747
X226895Y136747
T05
X116462Y99149
X116462Y20409
T06
X96047Y21393
X76247Y21393
T07
X14887Y17062
X14887Y134779
X388903Y134779
X388903Y16669
M30
