Spis Części

IC1 - NE555
L1 - 100uH 500mA-1A
D1 - BA157

C1 - 470uF/16V
C2 = 2,2uF/250V
C3 - 100pF
C4 - 2,2pF

R1 - 56k
R2 - 1k
R3 - 10k
R4 - 220k
R5 - 2,2k
R6 - 470R

R7(pot) - 1K

T1 - BC547
Q1 - IRF740 / IRF840

