<?xml version="1.0" encoding="utf-8"?>
<!DOCTYPE eagle SYSTEM "eagle.dtd">
<eagle version="8.6.3">
<drawing>
<settings>
<setting alwaysvectorfont="no"/>
<setting verticaltext="up"/>
</settings>
<grid distance="0.1" unitdist="inch" unit="inch" style="lines" multiple="1" display="no" altdistance="0.01" altunitdist="inch" altunit="inch"/>
<layers>
<layer number="1" name="Top" color="4" fill="1" visible="no" active="no"/>
<layer number="2" name="Route2" color="1" fill="3" visible="no" active="no"/>
<layer number="3" name="Route3" color="4" fill="3" visible="no" active="no"/>
<layer number="4" name="Route4" color="1" fill="4" visible="no" active="no"/>
<layer number="5" name="Route5" color="4" fill="4" visible="no" active="no"/>
<layer number="6" name="Route6" color="1" fill="8" visible="no" active="no"/>
<layer number="7" name="Route7" color="4" fill="8" visible="no" active="no"/>
<layer number="8" name="Route8" color="1" fill="2" visible="no" active="no"/>
<layer number="9" name="Route9" color="4" fill="2" visible="no" active="no"/>
<layer number="10" name="Route10" color="1" fill="7" visible="no" active="no"/>
<layer number="11" name="Route11" color="4" fill="7" visible="no" active="no"/>
<layer number="12" name="Route12" color="1" fill="5" visible="no" active="no"/>
<layer number="13" name="Route13" color="4" fill="5" visible="no" active="no"/>
<layer number="14" name="Route14" color="1" fill="6" visible="no" active="no"/>
<layer number="15" name="Route15" color="4" fill="6" visible="no" active="no"/>
<layer number="16" name="Bottom" color="1" fill="1" visible="no" active="no"/>
<layer number="17" name="Pads" color="2" fill="1" visible="no" active="no"/>
<layer number="18" name="Vias" color="2" fill="1" visible="no" active="no"/>
<layer number="19" name="Unrouted" color="6" fill="1" visible="no" active="no"/>
<layer number="20" name="Dimension" color="15" fill="1" visible="no" active="no"/>
<layer number="21" name="tPlace" color="7" fill="1" visible="no" active="no"/>
<layer number="22" name="bPlace" color="7" fill="1" visible="no" active="no"/>
<layer number="23" name="tOrigins" color="15" fill="1" visible="no" active="no"/>
<layer number="24" name="bOrigins" color="15" fill="1" visible="no" active="no"/>
<layer number="25" name="tNames" color="7" fill="1" visible="no" active="no"/>
<layer number="26" name="bNames" color="7" fill="1" visible="no" active="no"/>
<layer number="27" name="tValues" color="7" fill="1" visible="no" active="no"/>
<layer number="28" name="bValues" color="7" fill="1" visible="no" active="no"/>
<layer number="29" name="tStop" color="7" fill="3" visible="no" active="no"/>
<layer number="30" name="bStop" color="7" fill="6" visible="no" active="no"/>
<layer number="31" name="tCream" color="7" fill="4" visible="no" active="no"/>
<layer number="32" name="bCream" color="7" fill="5" visible="no" active="no"/>
<layer number="33" name="tFinish" color="6" fill="3" visible="no" active="no"/>
<layer number="34" name="bFinish" color="6" fill="6" visible="no" active="no"/>
<layer number="35" name="tGlue" color="7" fill="4" visible="no" active="no"/>
<layer number="36" name="bGlue" color="7" fill="5" visible="no" active="no"/>
<layer number="37" name="tTest" color="7" fill="1" visible="no" active="no"/>
<layer number="38" name="bTest" color="7" fill="1" visible="no" active="no"/>
<layer number="39" name="tKeepout" color="4" fill="11" visible="no" active="no"/>
<layer number="40" name="bKeepout" color="1" fill="11" visible="no" active="no"/>
<layer number="41" name="tRestrict" color="4" fill="10" visible="no" active="no"/>
<layer number="42" name="bRestrict" color="1" fill="10" visible="no" active="no"/>
<layer number="43" name="vRestrict" color="2" fill="10" visible="no" active="no"/>
<layer number="44" name="Drills" color="7" fill="1" visible="no" active="no"/>
<layer number="45" name="Holes" color="7" fill="1" visible="no" active="no"/>
<layer number="46" name="Milling" color="3" fill="1" visible="no" active="no"/>
<layer number="47" name="Measures" color="7" fill="1" visible="no" active="no"/>
<layer number="48" name="Document" color="7" fill="1" visible="no" active="no"/>
<layer number="49" name="Reference" color="7" fill="1" visible="no" active="no"/>
<layer number="50" name="dxf" color="7" fill="1" visible="no" active="no"/>
<layer number="51" name="tDocu" color="7" fill="1" visible="no" active="no"/>
<layer number="52" name="bDocu" color="7" fill="1" visible="no" active="no"/>
<layer number="53" name="tGND_GNDA" color="7" fill="1" visible="no" active="no"/>
<layer number="54" name="bGND_GNDA" color="7" fill="1" visible="no" active="no"/>
<layer number="56" name="wert" color="7" fill="1" visible="no" active="no"/>
<layer number="88" name="SimResults" color="9" fill="1" visible="yes" active="yes"/>
<layer number="89" name="SimProbes" color="9" fill="1" visible="yes" active="yes"/>
<layer number="90" name="Modules" color="5" fill="1" visible="yes" active="yes"/>
<layer number="91" name="Nets" color="2" fill="1" visible="yes" active="yes"/>
<layer number="92" name="Busses" color="1" fill="1" visible="yes" active="yes"/>
<layer number="93" name="Pins" color="2" fill="1" visible="no" active="yes"/>
<layer number="94" name="Symbols" color="4" fill="1" visible="yes" active="yes"/>
<layer number="95" name="Names" color="7" fill="1" visible="yes" active="yes"/>
<layer number="96" name="Values" color="7" fill="1" visible="yes" active="yes"/>
<layer number="97" name="Info" color="7" fill="1" visible="yes" active="yes"/>
<layer number="98" name="Guide" color="6" fill="1" visible="yes" active="yes"/>
<layer number="99" name="SpiceOrder" color="5" fill="1" visible="yes" active="yes"/>
<layer number="100" name="Muster" color="7" fill="1" visible="no" active="yes"/>
<layer number="101" name="Gehäuse" color="7" fill="1" visible="yes" active="yes"/>
<layer number="102" name="Mittellin" color="7" fill="1" visible="yes" active="yes"/>
<layer number="104" name="Name" color="7" fill="1" visible="yes" active="yes"/>
<layer number="105" name="Beschreib" color="9" fill="1" visible="no" active="no"/>
<layer number="106" name="BGA-Top" color="4" fill="1" visible="no" active="no"/>
<layer number="107" name="BD-Top" color="5" fill="1" visible="no" active="no"/>
<layer number="151" name="HeatSink" color="7" fill="1" visible="yes" active="yes"/>
<layer number="200" name="200bmp" color="1" fill="10" visible="no" active="no"/>
<layer number="250" name="Descript" color="3" fill="1" visible="no" active="no"/>
<layer number="251" name="SMDround" color="12" fill="11" visible="no" active="no"/>
<layer number="254" name="cooling" color="7" fill="1" visible="yes" active="yes"/>
</layers>
<schematic xreflabel="%F%N/%S.%C%R" xrefpart="/%S.%C%R">
<libraries>
<library name="russian-nixies">
<description>&lt;b&gt;Russian IN series nixie tubes&lt;/b&gt;&lt;br&gt;&lt;br&gt;

Based on the following sources:
&lt;ul&gt;
&lt;li&gt;Measurements taken from nixies in my collection
&lt;li&gt;http://www.tube-tester.com
&lt;/ul&gt;&lt;br&gt;
&lt;author&gt;Created by p.s.troost@student.tue.nl&lt;/author&gt;</description>
<packages>
<package name="IN-12">
<description>May be used with socket: &lt;b&gt;SK-136&lt;/b&gt;</description>
<wire x1="-8.89" y1="6.6675" x2="7.9375" y2="6.6675" width="0.127" layer="21" curve="-103.699894"/>
<wire x1="7.9375" y1="-6.35" x2="-8.89" y2="-6.35" width="0.127" layer="21" curve="-108.924838"/>
<wire x1="7.9375" y1="-6.35" x2="-8.89" y2="-6.35" width="0.254" layer="21" curve="-110.891013"/>
<wire x1="-8.89" y1="6.6675" x2="7.9375" y2="6.6675" width="0.254" layer="21" curve="-104.398074"/>
<wire x1="7.9375" y1="6.6675" x2="7.9375" y2="-6.35" width="0.254" layer="21"/>
<wire x1="-8.89" y1="-6.1913" x2="-8.89" y2="6.6675" width="0.254" layer="21"/>
<wire x1="-8.89" y1="-6.1913" x2="-8.89" y2="-6.35" width="0.254" layer="21"/>
<circle x="0" y="0" radius="2.54" width="0.127" layer="21"/>
<pad name="6" x="-0.3175" y="8.8175" drill="1.1" diameter="2.54"/>
<pad name="9" x="5.1745" y="0" drill="1.1" diameter="2.54"/>
<pad name="8" x="5.0475" y="4.5" drill="1.1" diameter="2.54"/>
<pad name="LHDP" x="-0.3175" y="-8.8175" drill="1.1" diameter="2.54"/>
<pad name="0" x="5.0475" y="-4.5" drill="1.1" diameter="2.54"/>
<pad name="A" x="3.6825" y="-7.8175" drill="1.1" diameter="2.54"/>
<pad name="7" x="3.6825" y="7.8175" drill="1.1" diameter="2.54"/>
<pad name="5" x="-4.3175" y="7.8175" drill="1.1" diameter="2.54"/>
<pad name="4" x="-6" y="4.5" drill="1.1" diameter="2.54"/>
<pad name="3" x="-6.127" y="0" drill="1.1" diameter="2.54"/>
<pad name="2" x="-6" y="-4.5" drill="1.1" diameter="2.54"/>
<pad name="1" x="-4.3175" y="-7.8175" drill="1.1" diameter="2.54"/>
<text x="10.3188" y="-2.8575" size="1.27" layer="25" rot="R90">&gt;NAME</text>
<hole x="0" y="0" drill="5"/>
</package>
</packages>
<symbols>
<symbol name="IN-12B">
<wire x1="-7.62" y1="-10.795" x2="-7.62" y2="13.335" width="0.4064" layer="94"/>
<wire x1="-7.62" y1="-10.795" x2="5.08" y2="-10.795" width="0.4064" layer="94" curve="180"/>
<wire x1="5.08" y1="-10.795" x2="5.08" y2="13.335" width="0.4064" layer="94"/>
<wire x1="-7.62" y1="13.335" x2="5.08" y2="13.335" width="0.4064" layer="94" curve="-180"/>
<text x="-4.445" y="20.955" size="1.778" layer="95">&gt;NAME</text>
<pin name="1" x="-12.7" y="12.7" visible="pin" length="middle"/>
<pin name="2" x="-12.7" y="10.16" visible="pin" length="middle"/>
<pin name="3" x="-12.7" y="7.62" visible="pin" length="middle"/>
<pin name="4" x="-12.7" y="5.08" visible="pin" length="middle"/>
<pin name="5" x="-12.7" y="2.54" visible="pin" length="middle"/>
<pin name="6" x="-12.7" y="0" visible="pin" length="middle"/>
<pin name="7" x="-12.7" y="-2.54" visible="pin" length="middle"/>
<pin name="8" x="-12.7" y="-5.08" visible="pin" length="middle"/>
<pin name="9" x="-12.7" y="-7.62" visible="pin" length="middle"/>
<pin name="0" x="-12.7" y="-10.16" visible="pin" length="middle"/>
<pin name="LHDP" x="10.16" y="12.7" visible="pin" length="middle" rot="R180"/>
<pin name="A" x="10.16" y="0" visible="pin" length="middle" rot="R180"/>
</symbol>
</symbols>
<devicesets>
<deviceset name="IN-12B" prefix="N">
<description>IN-12B: medium numeric &lt;b&gt;topview&lt;/b&gt; nixie tube</description>
<gates>
<gate name="G$1" symbol="IN-12B" x="2.54" y="0"/>
</gates>
<devices>
<device name="" package="IN-12">
<connects>
<connect gate="G$1" pin="0" pad="0"/>
<connect gate="G$1" pin="1" pad="1"/>
<connect gate="G$1" pin="2" pad="2"/>
<connect gate="G$1" pin="3" pad="3"/>
<connect gate="G$1" pin="4" pad="4"/>
<connect gate="G$1" pin="5" pad="5"/>
<connect gate="G$1" pin="6" pad="6"/>
<connect gate="G$1" pin="7" pad="7"/>
<connect gate="G$1" pin="8" pad="8"/>
<connect gate="G$1" pin="9" pad="9"/>
<connect gate="G$1" pin="A" pad="A"/>
<connect gate="G$1" pin="LHDP" pad="LHDP"/>
</connects>
<technologies>
<technology name=""/>
</technologies>
</device>
</devices>
</deviceset>
</devicesets>
</library>
<library name="con-lstb" urn="urn:adsk.eagle:library:162">
<description>&lt;b&gt;Pin Headers&lt;/b&gt;&lt;p&gt;
Naming:&lt;p&gt;
MA = male&lt;p&gt;
# contacts - # rows&lt;p&gt;
W = angled&lt;p&gt;
&lt;author&gt;Created by librarian@cadsoft.de&lt;/author&gt;</description>
<packages>
<package name="MA10-1" urn="urn:adsk.eagle:footprint:8300/1" library_version="1">
<description>&lt;b&gt;PIN HEADER&lt;/b&gt;</description>
<wire x1="-12.065" y1="1.27" x2="-10.795" y2="1.27" width="0.1524" layer="21"/>
<wire x1="-10.795" y1="1.27" x2="-10.16" y2="0.635" width="0.1524" layer="21"/>
<wire x1="-10.16" y1="-0.635" x2="-10.795" y2="-1.27" width="0.1524" layer="21"/>
<wire x1="-10.16" y1="0.635" x2="-9.525" y2="1.27" width="0.1524" layer="21"/>
<wire x1="-9.525" y1="1.27" x2="-8.255" y2="1.27" width="0.1524" layer="21"/>
<wire x1="-8.255" y1="1.27" x2="-7.62" y2="0.635" width="0.1524" layer="21"/>
<wire x1="-7.62" y1="-0.635" x2="-8.255" y2="-1.27" width="0.1524" layer="21"/>
<wire x1="-8.255" y1="-1.27" x2="-9.525" y2="-1.27" width="0.1524" layer="21"/>
<wire x1="-9.525" y1="-1.27" x2="-10.16" y2="-0.635" width="0.1524" layer="21"/>
<wire x1="-12.7" y1="0.635" x2="-12.7" y2="-0.635" width="0.1524" layer="21"/>
<wire x1="-12.065" y1="1.27" x2="-12.7" y2="0.635" width="0.1524" layer="21"/>
<wire x1="-12.7" y1="-0.635" x2="-12.065" y2="-1.27" width="0.1524" layer="21"/>
<wire x1="-10.795" y1="-1.27" x2="-12.065" y2="-1.27" width="0.1524" layer="21"/>
<wire x1="-7.62" y1="0.635" x2="-6.985" y2="1.27" width="0.1524" layer="21"/>
<wire x1="-6.985" y1="1.27" x2="-5.715" y2="1.27" width="0.1524" layer="21"/>
<wire x1="-5.715" y1="1.27" x2="-5.08" y2="0.635" width="0.1524" layer="21"/>
<wire x1="-5.08" y1="-0.635" x2="-5.715" y2="-1.27" width="0.1524" layer="21"/>
<wire x1="-5.715" y1="-1.27" x2="-6.985" y2="-1.27" width="0.1524" layer="21"/>
<wire x1="-6.985" y1="-1.27" x2="-7.62" y2="-0.635" width="0.1524" layer="21"/>
<wire x1="-4.445" y1="1.27" x2="-3.175" y2="1.27" width="0.1524" layer="21"/>
<wire x1="-3.175" y1="1.27" x2="-2.54" y2="0.635" width="0.1524" layer="21"/>
<wire x1="-2.54" y1="-0.635" x2="-3.175" y2="-1.27" width="0.1524" layer="21"/>
<wire x1="-4.445" y1="1.27" x2="-5.08" y2="0.635" width="0.1524" layer="21"/>
<wire x1="-5.08" y1="-0.635" x2="-4.445" y2="-1.27" width="0.1524" layer="21"/>
<wire x1="-3.175" y1="-1.27" x2="-4.445" y2="-1.27" width="0.1524" layer="21"/>
<wire x1="-1.905" y1="1.27" x2="-0.635" y2="1.27" width="0.1524" layer="21"/>
<wire x1="-0.635" y1="1.27" x2="0" y2="0.635" width="0.1524" layer="21"/>
<wire x1="0" y1="-0.635" x2="-0.635" y2="-1.27" width="0.1524" layer="21"/>
<wire x1="0" y1="0.635" x2="0.635" y2="1.27" width="0.1524" layer="21"/>
<wire x1="0.635" y1="1.27" x2="1.905" y2="1.27" width="0.1524" layer="21"/>
<wire x1="1.905" y1="1.27" x2="2.54" y2="0.635" width="0.1524" layer="21"/>
<wire x1="2.54" y1="-0.635" x2="1.905" y2="-1.27" width="0.1524" layer="21"/>
<wire x1="1.905" y1="-1.27" x2="0.635" y2="-1.27" width="0.1524" layer="21"/>
<wire x1="0.635" y1="-1.27" x2="0" y2="-0.635" width="0.1524" layer="21"/>
<wire x1="-1.905" y1="1.27" x2="-2.54" y2="0.635" width="0.1524" layer="21"/>
<wire x1="-2.54" y1="-0.635" x2="-1.905" y2="-1.27" width="0.1524" layer="21"/>
<wire x1="-0.635" y1="-1.27" x2="-1.905" y2="-1.27" width="0.1524" layer="21"/>
<wire x1="2.54" y1="0.635" x2="3.175" y2="1.27" width="0.1524" layer="21"/>
<wire x1="3.175" y1="1.27" x2="4.445" y2="1.27" width="0.1524" layer="21"/>
<wire x1="4.445" y1="1.27" x2="5.08" y2="0.635" width="0.1524" layer="21"/>
<wire x1="5.08" y1="-0.635" x2="4.445" y2="-1.27" width="0.1524" layer="21"/>
<wire x1="4.445" y1="-1.27" x2="3.175" y2="-1.27" width="0.1524" layer="21"/>
<wire x1="3.175" y1="-1.27" x2="2.54" y2="-0.635" width="0.1524" layer="21"/>
<wire x1="5.715" y1="1.27" x2="6.985" y2="1.27" width="0.1524" layer="21"/>
<wire x1="6.985" y1="1.27" x2="7.62" y2="0.635" width="0.1524" layer="21"/>
<wire x1="7.62" y1="-0.635" x2="6.985" y2="-1.27" width="0.1524" layer="21"/>
<wire x1="5.715" y1="1.27" x2="5.08" y2="0.635" width="0.1524" layer="21"/>
<wire x1="5.08" y1="-0.635" x2="5.715" y2="-1.27" width="0.1524" layer="21"/>
<wire x1="6.985" y1="-1.27" x2="5.715" y2="-1.27" width="0.1524" layer="21"/>
<wire x1="8.255" y1="1.27" x2="9.525" y2="1.27" width="0.1524" layer="21"/>
<wire x1="9.525" y1="1.27" x2="10.16" y2="0.635" width="0.1524" layer="21"/>
<wire x1="10.16" y1="-0.635" x2="9.525" y2="-1.27" width="0.1524" layer="21"/>
<wire x1="10.16" y1="0.635" x2="10.795" y2="1.27" width="0.1524" layer="21"/>
<wire x1="10.795" y1="1.27" x2="12.065" y2="1.27" width="0.1524" layer="21"/>
<wire x1="12.065" y1="1.27" x2="12.7" y2="0.635" width="0.1524" layer="21"/>
<wire x1="12.7" y1="-0.635" x2="12.065" y2="-1.27" width="0.1524" layer="21"/>
<wire x1="12.065" y1="-1.27" x2="10.795" y2="-1.27" width="0.1524" layer="21"/>
<wire x1="10.795" y1="-1.27" x2="10.16" y2="-0.635" width="0.1524" layer="21"/>
<wire x1="8.255" y1="1.27" x2="7.62" y2="0.635" width="0.1524" layer="21"/>
<wire x1="7.62" y1="-0.635" x2="8.255" y2="-1.27" width="0.1524" layer="21"/>
<wire x1="9.525" y1="-1.27" x2="8.255" y2="-1.27" width="0.1524" layer="21"/>
<wire x1="12.7" y1="0.635" x2="12.7" y2="-0.635" width="0.1524" layer="21"/>
<pad name="1" x="-11.43" y="0" drill="1.016" shape="long" rot="R90"/>
<pad name="2" x="-8.89" y="0" drill="1.016" shape="long" rot="R90"/>
<pad name="3" x="-6.35" y="0" drill="1.016" shape="long" rot="R90"/>
<pad name="4" x="-3.81" y="0" drill="1.016" shape="long" rot="R90"/>
<pad name="5" x="-1.27" y="0" drill="1.016" shape="long" rot="R90"/>
<pad name="6" x="1.27" y="0" drill="1.016" shape="long" rot="R90"/>
<pad name="7" x="3.81" y="0" drill="1.016" shape="long" rot="R90"/>
<pad name="8" x="6.35" y="0" drill="1.016" shape="long" rot="R90"/>
<pad name="9" x="8.89" y="0" drill="1.016" shape="long" rot="R90"/>
<pad name="10" x="11.43" y="0" drill="1.016" shape="long" rot="R90"/>
<text x="-12.7" y="1.651" size="1.27" layer="25" ratio="10">&gt;NAME</text>
<text x="-11.938" y="-2.921" size="1.27" layer="21" ratio="10">1</text>
<text x="10.795" y="1.651" size="1.27" layer="21" ratio="10">10</text>
<text x="1.27" y="-2.921" size="1.27" layer="27" ratio="10">&gt;VALUE</text>
<rectangle x1="-9.144" y1="-0.254" x2="-8.636" y2="0.254" layer="51"/>
<rectangle x1="-11.684" y1="-0.254" x2="-11.176" y2="0.254" layer="51"/>
<rectangle x1="-6.604" y1="-0.254" x2="-6.096" y2="0.254" layer="51"/>
<rectangle x1="-4.064" y1="-0.254" x2="-3.556" y2="0.254" layer="51"/>
<rectangle x1="1.016" y1="-0.254" x2="1.524" y2="0.254" layer="51"/>
<rectangle x1="-1.524" y1="-0.254" x2="-1.016" y2="0.254" layer="51"/>
<rectangle x1="3.556" y1="-0.254" x2="4.064" y2="0.254" layer="51"/>
<rectangle x1="6.096" y1="-0.254" x2="6.604" y2="0.254" layer="51"/>
<rectangle x1="11.176" y1="-0.254" x2="11.684" y2="0.254" layer="51"/>
<rectangle x1="8.636" y1="-0.254" x2="9.144" y2="0.254" layer="51"/>
</package>
<package name="MA06-1" urn="urn:adsk.eagle:footprint:8287/1" library_version="1">
<description>&lt;b&gt;PIN HEADER&lt;/b&gt;</description>
<wire x1="-6.985" y1="1.27" x2="-5.715" y2="1.27" width="0.1524" layer="21"/>
<wire x1="-5.715" y1="1.27" x2="-5.08" y2="0.635" width="0.1524" layer="21"/>
<wire x1="-5.08" y1="-0.635" x2="-5.715" y2="-1.27" width="0.1524" layer="21"/>
<wire x1="-5.08" y1="0.635" x2="-4.445" y2="1.27" width="0.1524" layer="21"/>
<wire x1="-4.445" y1="1.27" x2="-3.175" y2="1.27" width="0.1524" layer="21"/>
<wire x1="-3.175" y1="1.27" x2="-2.54" y2="0.635" width="0.1524" layer="21"/>
<wire x1="-2.54" y1="-0.635" x2="-3.175" y2="-1.27" width="0.1524" layer="21"/>
<wire x1="-3.175" y1="-1.27" x2="-4.445" y2="-1.27" width="0.1524" layer="21"/>
<wire x1="-4.445" y1="-1.27" x2="-5.08" y2="-0.635" width="0.1524" layer="21"/>
<wire x1="-7.62" y1="0.635" x2="-7.62" y2="-0.635" width="0.1524" layer="21"/>
<wire x1="-6.985" y1="1.27" x2="-7.62" y2="0.635" width="0.1524" layer="21"/>
<wire x1="-7.62" y1="-0.635" x2="-6.985" y2="-1.27" width="0.1524" layer="21"/>
<wire x1="-5.715" y1="-1.27" x2="-6.985" y2="-1.27" width="0.1524" layer="21"/>
<wire x1="-2.54" y1="0.635" x2="-1.905" y2="1.27" width="0.1524" layer="21"/>
<wire x1="-1.905" y1="1.27" x2="-0.635" y2="1.27" width="0.1524" layer="21"/>
<wire x1="-0.635" y1="1.27" x2="0" y2="0.635" width="0.1524" layer="21"/>
<wire x1="0" y1="-0.635" x2="-0.635" y2="-1.27" width="0.1524" layer="21"/>
<wire x1="-0.635" y1="-1.27" x2="-1.905" y2="-1.27" width="0.1524" layer="21"/>
<wire x1="-1.905" y1="-1.27" x2="-2.54" y2="-0.635" width="0.1524" layer="21"/>
<wire x1="0.635" y1="1.27" x2="1.905" y2="1.27" width="0.1524" layer="21"/>
<wire x1="1.905" y1="1.27" x2="2.54" y2="0.635" width="0.1524" layer="21"/>
<wire x1="2.54" y1="-0.635" x2="1.905" y2="-1.27" width="0.1524" layer="21"/>
<wire x1="2.54" y1="0.635" x2="3.175" y2="1.27" width="0.1524" layer="21"/>
<wire x1="3.175" y1="1.27" x2="4.445" y2="1.27" width="0.1524" layer="21"/>
<wire x1="4.445" y1="1.27" x2="5.08" y2="0.635" width="0.1524" layer="21"/>
<wire x1="5.08" y1="-0.635" x2="4.445" y2="-1.27" width="0.1524" layer="21"/>
<wire x1="4.445" y1="-1.27" x2="3.175" y2="-1.27" width="0.1524" layer="21"/>
<wire x1="3.175" y1="-1.27" x2="2.54" y2="-0.635" width="0.1524" layer="21"/>
<wire x1="0.635" y1="1.27" x2="0" y2="0.635" width="0.1524" layer="21"/>
<wire x1="0" y1="-0.635" x2="0.635" y2="-1.27" width="0.1524" layer="21"/>
<wire x1="1.905" y1="-1.27" x2="0.635" y2="-1.27" width="0.1524" layer="21"/>
<wire x1="5.08" y1="0.635" x2="5.715" y2="1.27" width="0.1524" layer="21"/>
<wire x1="5.715" y1="1.27" x2="6.985" y2="1.27" width="0.1524" layer="21"/>
<wire x1="6.985" y1="1.27" x2="7.62" y2="0.635" width="0.1524" layer="21"/>
<wire x1="7.62" y1="-0.635" x2="6.985" y2="-1.27" width="0.1524" layer="21"/>
<wire x1="6.985" y1="-1.27" x2="5.715" y2="-1.27" width="0.1524" layer="21"/>
<wire x1="5.715" y1="-1.27" x2="5.08" y2="-0.635" width="0.1524" layer="21"/>
<wire x1="7.62" y1="0.635" x2="7.62" y2="-0.635" width="0.1524" layer="21"/>
<pad name="1" x="-6.35" y="0" drill="1.016" shape="long" rot="R90"/>
<pad name="2" x="-3.81" y="0" drill="1.016" shape="long" rot="R90"/>
<pad name="3" x="-1.27" y="0" drill="1.016" shape="long" rot="R90"/>
<pad name="4" x="1.27" y="0" drill="1.016" shape="long" rot="R90"/>
<pad name="5" x="3.81" y="0" drill="1.016" shape="long" rot="R90"/>
<pad name="6" x="6.35" y="0" drill="1.016" shape="long" rot="R90"/>
<text x="-7.62" y="1.651" size="1.27" layer="25" ratio="10">&gt;NAME</text>
<text x="-6.985" y="-2.921" size="1.27" layer="21" ratio="10">1</text>
<text x="5.715" y="1.651" size="1.27" layer="21" ratio="10">6</text>
<text x="-2.54" y="-2.921" size="1.27" layer="27" ratio="10">&gt;VALUE</text>
<rectangle x1="-4.064" y1="-0.254" x2="-3.556" y2="0.254" layer="51"/>
<rectangle x1="-6.604" y1="-0.254" x2="-6.096" y2="0.254" layer="51"/>
<rectangle x1="-1.524" y1="-0.254" x2="-1.016" y2="0.254" layer="51"/>
<rectangle x1="3.556" y1="-0.254" x2="4.064" y2="0.254" layer="51"/>
<rectangle x1="1.016" y1="-0.254" x2="1.524" y2="0.254" layer="51"/>
<rectangle x1="6.096" y1="-0.254" x2="6.604" y2="0.254" layer="51"/>
</package>
<package name="MA04-1" urn="urn:adsk.eagle:footprint:8285/1" library_version="1">
<description>&lt;b&gt;PIN HEADER&lt;/b&gt;</description>
<wire x1="-4.445" y1="1.27" x2="-3.175" y2="1.27" width="0.1524" layer="21"/>
<wire x1="-3.175" y1="1.27" x2="-2.54" y2="0.635" width="0.1524" layer="21"/>
<wire x1="-2.54" y1="-0.635" x2="-3.175" y2="-1.27" width="0.1524" layer="21"/>
<wire x1="-2.54" y1="0.635" x2="-1.905" y2="1.27" width="0.1524" layer="21"/>
<wire x1="-1.905" y1="1.27" x2="-0.635" y2="1.27" width="0.1524" layer="21"/>
<wire x1="-0.635" y1="1.27" x2="0" y2="0.635" width="0.1524" layer="21"/>
<wire x1="0" y1="-0.635" x2="-0.635" y2="-1.27" width="0.1524" layer="21"/>
<wire x1="-0.635" y1="-1.27" x2="-1.905" y2="-1.27" width="0.1524" layer="21"/>
<wire x1="-1.905" y1="-1.27" x2="-2.54" y2="-0.635" width="0.1524" layer="21"/>
<wire x1="-5.08" y1="0.635" x2="-5.08" y2="-0.635" width="0.1524" layer="21"/>
<wire x1="-4.445" y1="1.27" x2="-5.08" y2="0.635" width="0.1524" layer="21"/>
<wire x1="-5.08" y1="-0.635" x2="-4.445" y2="-1.27" width="0.1524" layer="21"/>
<wire x1="-3.175" y1="-1.27" x2="-4.445" y2="-1.27" width="0.1524" layer="21"/>
<wire x1="0" y1="0.635" x2="0.635" y2="1.27" width="0.1524" layer="21"/>
<wire x1="0.635" y1="1.27" x2="1.905" y2="1.27" width="0.1524" layer="21"/>
<wire x1="1.905" y1="1.27" x2="2.54" y2="0.635" width="0.1524" layer="21"/>
<wire x1="2.54" y1="-0.635" x2="1.905" y2="-1.27" width="0.1524" layer="21"/>
<wire x1="1.905" y1="-1.27" x2="0.635" y2="-1.27" width="0.1524" layer="21"/>
<wire x1="0.635" y1="-1.27" x2="0" y2="-0.635" width="0.1524" layer="21"/>
<wire x1="3.175" y1="1.27" x2="4.445" y2="1.27" width="0.1524" layer="21"/>
<wire x1="4.445" y1="1.27" x2="5.08" y2="0.635" width="0.1524" layer="21"/>
<wire x1="5.08" y1="0.635" x2="5.08" y2="-0.635" width="0.1524" layer="21"/>
<wire x1="5.08" y1="-0.635" x2="4.445" y2="-1.27" width="0.1524" layer="21"/>
<wire x1="3.175" y1="1.27" x2="2.54" y2="0.635" width="0.1524" layer="21"/>
<wire x1="2.54" y1="-0.635" x2="3.175" y2="-1.27" width="0.1524" layer="21"/>
<wire x1="4.445" y1="-1.27" x2="3.175" y2="-1.27" width="0.1524" layer="21"/>
<pad name="1" x="-3.81" y="0" drill="1.016" shape="long" rot="R90"/>
<pad name="2" x="-1.27" y="0" drill="1.016" shape="long" rot="R90"/>
<pad name="3" x="1.27" y="0" drill="1.016" shape="long" rot="R90"/>
<pad name="4" x="3.81" y="0" drill="1.016" shape="long" rot="R90"/>
<text x="-5.08" y="1.651" size="1.27" layer="25" ratio="10">&gt;NAME</text>
<text x="-6.223" y="-0.635" size="1.27" layer="21" ratio="10">1</text>
<text x="0.635" y="1.651" size="1.27" layer="27" ratio="10">&gt;VALUE</text>
<text x="5.334" y="-0.635" size="1.27" layer="21" ratio="10">4</text>
<rectangle x1="-1.524" y1="-0.254" x2="-1.016" y2="0.254" layer="51"/>
<rectangle x1="-4.064" y1="-0.254" x2="-3.556" y2="0.254" layer="51"/>
<rectangle x1="1.016" y1="-0.254" x2="1.524" y2="0.254" layer="51"/>
<rectangle x1="3.556" y1="-0.254" x2="4.064" y2="0.254" layer="51"/>
</package>
</packages>
<packages3d>
<package3d name="MA10-1" urn="urn:adsk.eagle:package:8346/1" type="box" library_version="1">
<description>PIN HEADER</description>
</package3d>
<package3d name="MA06-1" urn="urn:adsk.eagle:package:8340/1" type="box" library_version="1">
<description>PIN HEADER</description>
</package3d>
<package3d name="MA04-1" urn="urn:adsk.eagle:package:8337/1" type="box" library_version="1">
<description>PIN HEADER</description>
</package3d>
</packages3d>
<symbols>
<symbol name="MA10-1" urn="urn:adsk.eagle:symbol:8299/1" library_version="1">
<wire x1="3.81" y1="-12.7" x2="-1.27" y2="-12.7" width="0.4064" layer="94"/>
<wire x1="1.27" y1="-5.08" x2="2.54" y2="-5.08" width="0.6096" layer="94"/>
<wire x1="1.27" y1="-7.62" x2="2.54" y2="-7.62" width="0.6096" layer="94"/>
<wire x1="1.27" y1="-10.16" x2="2.54" y2="-10.16" width="0.6096" layer="94"/>
<wire x1="1.27" y1="0" x2="2.54" y2="0" width="0.6096" layer="94"/>
<wire x1="1.27" y1="-2.54" x2="2.54" y2="-2.54" width="0.6096" layer="94"/>
<wire x1="1.27" y1="7.62" x2="2.54" y2="7.62" width="0.6096" layer="94"/>
<wire x1="1.27" y1="5.08" x2="2.54" y2="5.08" width="0.6096" layer="94"/>
<wire x1="1.27" y1="2.54" x2="2.54" y2="2.54" width="0.6096" layer="94"/>
<wire x1="1.27" y1="12.7" x2="2.54" y2="12.7" width="0.6096" layer="94"/>
<wire x1="1.27" y1="10.16" x2="2.54" y2="10.16" width="0.6096" layer="94"/>
<wire x1="-1.27" y1="15.24" x2="-1.27" y2="-12.7" width="0.4064" layer="94"/>
<wire x1="3.81" y1="-12.7" x2="3.81" y2="15.24" width="0.4064" layer="94"/>
<wire x1="-1.27" y1="15.24" x2="3.81" y2="15.24" width="0.4064" layer="94"/>
<text x="-1.27" y="-15.24" size="1.778" layer="96">&gt;VALUE</text>
<text x="-1.27" y="16.002" size="1.778" layer="95">&gt;NAME</text>
<pin name="1" x="7.62" y="-10.16" visible="pad" length="middle" direction="pas" swaplevel="1" rot="R180"/>
<pin name="2" x="7.62" y="-7.62" visible="pad" length="middle" direction="pas" swaplevel="1" rot="R180"/>
<pin name="3" x="7.62" y="-5.08" visible="pad" length="middle" direction="pas" swaplevel="1" rot="R180"/>
<pin name="4" x="7.62" y="-2.54" visible="pad" length="middle" direction="pas" swaplevel="1" rot="R180"/>
<pin name="5" x="7.62" y="0" visible="pad" length="middle" direction="pas" swaplevel="1" rot="R180"/>
<pin name="6" x="7.62" y="2.54" visible="pad" length="middle" direction="pas" swaplevel="1" rot="R180"/>
<pin name="7" x="7.62" y="5.08" visible="pad" length="middle" direction="pas" swaplevel="1" rot="R180"/>
<pin name="8" x="7.62" y="7.62" visible="pad" length="middle" direction="pas" swaplevel="1" rot="R180"/>
<pin name="9" x="7.62" y="10.16" visible="pad" length="middle" direction="pas" swaplevel="1" rot="R180"/>
<pin name="10" x="7.62" y="12.7" visible="pad" length="middle" direction="pas" swaplevel="1" rot="R180"/>
</symbol>
<symbol name="MA06-1" urn="urn:adsk.eagle:symbol:8286/1" library_version="1">
<wire x1="3.81" y1="-10.16" x2="-1.27" y2="-10.16" width="0.4064" layer="94"/>
<wire x1="1.27" y1="-2.54" x2="2.54" y2="-2.54" width="0.6096" layer="94"/>
<wire x1="1.27" y1="-5.08" x2="2.54" y2="-5.08" width="0.6096" layer="94"/>
<wire x1="1.27" y1="-7.62" x2="2.54" y2="-7.62" width="0.6096" layer="94"/>
<wire x1="1.27" y1="2.54" x2="2.54" y2="2.54" width="0.6096" layer="94"/>
<wire x1="1.27" y1="0" x2="2.54" y2="0" width="0.6096" layer="94"/>
<wire x1="1.27" y1="5.08" x2="2.54" y2="5.08" width="0.6096" layer="94"/>
<wire x1="-1.27" y1="7.62" x2="-1.27" y2="-10.16" width="0.4064" layer="94"/>
<wire x1="3.81" y1="-10.16" x2="3.81" y2="7.62" width="0.4064" layer="94"/>
<wire x1="-1.27" y1="7.62" x2="3.81" y2="7.62" width="0.4064" layer="94"/>
<text x="-1.27" y="-12.7" size="1.778" layer="96">&gt;VALUE</text>
<text x="-1.27" y="8.382" size="1.778" layer="95">&gt;NAME</text>
<pin name="1" x="7.62" y="-7.62" visible="pad" length="middle" direction="pas" swaplevel="1" rot="R180"/>
<pin name="2" x="7.62" y="-5.08" visible="pad" length="middle" direction="pas" swaplevel="1" rot="R180"/>
<pin name="3" x="7.62" y="-2.54" visible="pad" length="middle" direction="pas" swaplevel="1" rot="R180"/>
<pin name="4" x="7.62" y="0" visible="pad" length="middle" direction="pas" swaplevel="1" rot="R180"/>
<pin name="5" x="7.62" y="2.54" visible="pad" length="middle" direction="pas" swaplevel="1" rot="R180"/>
<pin name="6" x="7.62" y="5.08" visible="pad" length="middle" direction="pas" swaplevel="1" rot="R180"/>
</symbol>
<symbol name="MA04-1" urn="urn:adsk.eagle:symbol:8284/1" library_version="1">
<wire x1="3.81" y1="-7.62" x2="-1.27" y2="-7.62" width="0.4064" layer="94"/>
<wire x1="1.27" y1="0" x2="2.54" y2="0" width="0.6096" layer="94"/>
<wire x1="1.27" y1="-2.54" x2="2.54" y2="-2.54" width="0.6096" layer="94"/>
<wire x1="1.27" y1="-5.08" x2="2.54" y2="-5.08" width="0.6096" layer="94"/>
<wire x1="-1.27" y1="5.08" x2="-1.27" y2="-7.62" width="0.4064" layer="94"/>
<wire x1="3.81" y1="-7.62" x2="3.81" y2="5.08" width="0.4064" layer="94"/>
<wire x1="-1.27" y1="5.08" x2="3.81" y2="5.08" width="0.4064" layer="94"/>
<wire x1="1.27" y1="2.54" x2="2.54" y2="2.54" width="0.6096" layer="94"/>
<text x="-1.27" y="-10.16" size="1.778" layer="96">&gt;VALUE</text>
<text x="-1.27" y="5.842" size="1.778" layer="95">&gt;NAME</text>
<pin name="1" x="7.62" y="-5.08" visible="pad" length="middle" direction="pas" swaplevel="1" rot="R180"/>
<pin name="2" x="7.62" y="-2.54" visible="pad" length="middle" direction="pas" swaplevel="1" rot="R180"/>
<pin name="3" x="7.62" y="0" visible="pad" length="middle" direction="pas" swaplevel="1" rot="R180"/>
<pin name="4" x="7.62" y="2.54" visible="pad" length="middle" direction="pas" swaplevel="1" rot="R180"/>
</symbol>
</symbols>
<devicesets>
<deviceset name="MA10-1" urn="urn:adsk.eagle:component:8394/1" prefix="SV" uservalue="yes" library_version="1">
<description>&lt;b&gt;PIN HEADER&lt;/b&gt;</description>
<gates>
<gate name="1" symbol="MA10-1" x="0" y="0"/>
</gates>
<devices>
<device name="" package="MA10-1">
<connects>
<connect gate="1" pin="1" pad="1"/>
<connect gate="1" pin="10" pad="10"/>
<connect gate="1" pin="2" pad="2"/>
<connect gate="1" pin="3" pad="3"/>
<connect gate="1" pin="4" pad="4"/>
<connect gate="1" pin="5" pad="5"/>
<connect gate="1" pin="6" pad="6"/>
<connect gate="1" pin="7" pad="7"/>
<connect gate="1" pin="8" pad="8"/>
<connect gate="1" pin="9" pad="9"/>
</connects>
<package3dinstances>
<package3dinstance package3d_urn="urn:adsk.eagle:package:8346/1"/>
</package3dinstances>
<technologies>
<technology name="">
<attribute name="MF" value="" constant="no"/>
<attribute name="MPN" value="" constant="no"/>
<attribute name="OC_FARNELL" value="unknown" constant="no"/>
<attribute name="OC_NEWARK" value="unknown" constant="no"/>
</technology>
</technologies>
</device>
</devices>
</deviceset>
<deviceset name="MA06-1" urn="urn:adsk.eagle:component:8378/1" prefix="SV" uservalue="yes" library_version="1">
<description>&lt;b&gt;PIN HEADER&lt;/b&gt;</description>
<gates>
<gate name="1" symbol="MA06-1" x="0" y="0"/>
</gates>
<devices>
<device name="" package="MA06-1">
<connects>
<connect gate="1" pin="1" pad="1"/>
<connect gate="1" pin="2" pad="2"/>
<connect gate="1" pin="3" pad="3"/>
<connect gate="1" pin="4" pad="4"/>
<connect gate="1" pin="5" pad="5"/>
<connect gate="1" pin="6" pad="6"/>
</connects>
<package3dinstances>
<package3dinstance package3d_urn="urn:adsk.eagle:package:8340/1"/>
</package3dinstances>
<technologies>
<technology name="">
<attribute name="MF" value="" constant="no"/>
<attribute name="MPN" value="" constant="no"/>
<attribute name="OC_FARNELL" value="unknown" constant="no"/>
<attribute name="OC_NEWARK" value="unknown" constant="no"/>
</technology>
</technologies>
</device>
</devices>
</deviceset>
<deviceset name="MA04-1" urn="urn:adsk.eagle:component:8375/1" prefix="SV" uservalue="yes" library_version="1">
<description>&lt;b&gt;PIN HEADER&lt;/b&gt;</description>
<gates>
<gate name="1" symbol="MA04-1" x="0" y="0"/>
</gates>
<devices>
<device name="" package="MA04-1">
<connects>
<connect gate="1" pin="1" pad="1"/>
<connect gate="1" pin="2" pad="2"/>
<connect gate="1" pin="3" pad="3"/>
<connect gate="1" pin="4" pad="4"/>
</connects>
<package3dinstances>
<package3dinstance package3d_urn="urn:adsk.eagle:package:8337/1"/>
</package3dinstances>
<technologies>
<technology name="">
<attribute name="MF" value="" constant="no"/>
<attribute name="MPN" value="" constant="no"/>
<attribute name="OC_FARNELL" value="unknown" constant="no"/>
<attribute name="OC_NEWARK" value="unknown" constant="no"/>
</technology>
</technologies>
</device>
</devices>
</deviceset>
</devicesets>
</library>
<library name="supply1" urn="urn:adsk.eagle:library:371">
<description>&lt;b&gt;Supply Symbols&lt;/b&gt;&lt;p&gt;
 GND, VCC, 0V, +5V, -5V, etc.&lt;p&gt;
 Please keep in mind, that these devices are necessary for the
 automatic wiring of the supply signals.&lt;p&gt;
 The pin name defined in the symbol is identical to the net which is to be wired automatically.&lt;p&gt;
 In this library the device names are the same as the pin names of the symbols, therefore the correct signal names appear next to the supply symbols in the schematic.&lt;p&gt;
 &lt;author&gt;Created by librarian@cadsoft.de&lt;/author&gt;</description>
<packages>
</packages>
<symbols>
<symbol name="GND" urn="urn:adsk.eagle:symbol:26925/1" library_version="1">
<wire x1="-1.905" y1="0" x2="1.905" y2="0" width="0.254" layer="94"/>
<text x="-2.54" y="-2.54" size="1.778" layer="96">&gt;VALUE</text>
<pin name="GND" x="0" y="2.54" visible="off" length="short" direction="sup" rot="R270"/>
</symbol>
</symbols>
<devicesets>
<deviceset name="GND" urn="urn:adsk.eagle:component:26954/1" prefix="GND" library_version="1">
<description>&lt;b&gt;SUPPLY SYMBOL&lt;/b&gt;</description>
<gates>
<gate name="1" symbol="GND" x="0" y="0"/>
</gates>
<devices>
<device name="">
<technologies>
<technology name=""/>
</technologies>
</device>
</devices>
</deviceset>
</devicesets>
</library>
<library name="supply2" urn="urn:adsk.eagle:library:372">
<description>&lt;b&gt;Supply Symbols&lt;/b&gt;&lt;p&gt;
GND, VCC, 0V, +5V, -5V, etc.&lt;p&gt;
Please keep in mind, that these devices are necessary for the
automatic wiring of the supply signals.&lt;p&gt;
The pin name defined in the symbol is identical to the net which is to be wired automatically.&lt;p&gt;
In this library the device names are the same as the pin names of the symbols, therefore the correct signal names appear next to the supply symbols in the schematic.&lt;p&gt;
&lt;author&gt;Created by librarian@cadsoft.de&lt;/author&gt;</description>
<packages>
</packages>
<symbols>
<symbol name="VCC" urn="urn:adsk.eagle:symbol:26997/1" library_version="2">
<circle x="0" y="1.27" radius="1.27" width="0.254" layer="94"/>
<text x="-1.905" y="3.175" size="1.778" layer="96">&gt;VALUE</text>
<pin name="VCC" x="0" y="-2.54" visible="off" length="short" direction="sup" rot="R90"/>
</symbol>
</symbols>
<devicesets>
<deviceset name="VCC" urn="urn:adsk.eagle:component:27060/1" prefix="SUPPLY" library_version="2">
<description>&lt;b&gt;SUPPLY SYMBOL&lt;/b&gt;</description>
<gates>
<gate name="G$1" symbol="VCC" x="0" y="0"/>
</gates>
<devices>
<device name="">
<technologies>
<technology name=""/>
</technologies>
</device>
</devices>
</deviceset>
</devicesets>
</library>
<library name="con-ptr500" urn="urn:adsk.eagle:library:181">
<description>&lt;b&gt;PTR Connectors&lt;/b&gt;&lt;p&gt;
Aug. 2004 / PTR Meßtechnik:&lt;br&gt;
Die Bezeichnung der Serie AK505 wurde geändert.&lt;br&gt;
Es handelt sich hierbei um AK500 in horizontaler Ausführung.&lt;p&gt;
&lt;TABLE BORDER=0 CELLSPACING=1 CELLPADDING=2&gt;
  &lt;TR&gt;
    &lt;TD ALIGN=LEFT&gt;
      &lt;FONT SIZE=4 FACE=ARIAL&gt;&lt;B&gt;Alte Bezeichnung&lt;/B&gt;&lt;/FONT&gt;
    &lt;/TD&gt;
    &lt;TD ALIGN=LEFT&gt;
      &lt;FONT SIZE=4 FACE=ARIAL&gt;&lt;B&gt;Neue Bezeichnung&lt;/B&gt;&lt;/FONT&gt;
    &lt;/TD&gt;
  &lt;/TR&gt;
  &lt;TR&gt;
    &lt;TD ALIGN=LEFT&gt;
      &lt;B&gt;
      &lt;FONT SIZE=3 FACE=ARIAL color="#FF0000"&gt;AK505/2,grau&lt;/FONT&gt;
      &lt;/B&gt;
    &lt;/TD&gt;
    &lt;TD ALIGN=LEFT&gt;
      &lt;B&gt;
      &lt;FONT SIZE=3 FACE=ARIAL color="#0000FF"&gt;AK500/2-5.0-H-GRAU&lt;/FONT&gt;
      &lt;/B&gt;
    &lt;/TD&gt;
  &lt;/TR&gt;
  &lt;TR&gt;
    &lt;TD ALIGN=LEFT&gt;
      &lt;B&gt;
      &lt;FONT SIZE=3 FACE=ARIAL color="#FF0000"&gt;AK505/2DS,grau&lt;/FONT&gt;
      &lt;/B&gt;
    &lt;/TD&gt;
    &lt;TD ALIGN=LEFT&gt;
      &lt;B&gt;
      &lt;FONT SIZE=3 FACE=ARIAL color="#0000FF"&gt;AK500/2DS-5.0-H-GRAU&lt;/FONT&gt;
      &lt;/B&gt;
    &lt;/TD&gt;
  &lt;/TR&gt;
  &lt;TR&gt;
    &lt;TD ALIGN=LEFT&gt;
      &lt;B&gt;
      &lt;FONT SIZE=3 FACE=ARIAL color="#FF0000"&gt;AKZ505/2,grau&lt;/FONT&gt;
      &lt;/B&gt;
    &lt;/TD&gt;
    &lt;TD ALIGN=LEFT&gt;
      &lt;B&gt;
      &lt;FONT SIZE=3 FACE=ARIAL color="#0000FF"&gt;AKZ500/2-5.08-H-GRAU&lt;/FONT&gt;
      &lt;/B&gt;
    &lt;/TD&gt;
  &lt;/TABLE&gt;

&lt;author&gt;Created by librarian@cadsoft.de&lt;/author&gt;</description>
<packages>
<package name="AK500/4-H" urn="urn:adsk.eagle:footprint:9867/1" library_version="1">
<description>&lt;b&gt;CONNECTOR&lt;/b&gt;&lt;p&gt;
Aug. 2004 / PTR Meßtechnik:&lt;br&gt;
Die Bezeichnung der Serie AK505 wurde geändert.&lt;br&gt;
Es handelt sich hierbei um AK500 in horizontaler Ausführung.</description>
<wire x1="-10.0838" y1="-7.239" x2="-10.0838" y2="-3.81" width="0.1524" layer="21"/>
<wire x1="10.0838" y1="2.794" x2="-10.0838" y2="2.794" width="0.1524" layer="21"/>
<wire x1="-10.0838" y1="-7.239" x2="-9.3472" y2="-7.239" width="0.1524" layer="21"/>
<wire x1="10.0838" y1="2.794" x2="10.0838" y2="-3.429" width="0.1524" layer="21"/>
<wire x1="-10.0838" y1="-3.429" x2="10.0838" y2="-3.429" width="0.1524" layer="21"/>
<wire x1="-10.0838" y1="-3.429" x2="-10.0838" y2="2.794" width="0.1524" layer="21"/>
<wire x1="10.0838" y1="-3.429" x2="10.0838" y2="-3.81" width="0.1524" layer="21"/>
<wire x1="10.4648" y1="2.794" x2="10.4648" y2="-3.429" width="0.1524" layer="21"/>
<wire x1="10.4648" y1="-3.429" x2="10.0838" y2="-3.429" width="0.1524" layer="21"/>
<wire x1="10.4648" y1="2.794" x2="10.0838" y2="2.794" width="0.1524" layer="21"/>
<wire x1="-5.4864" y1="2.159" x2="-5.4864" y2="-2.794" width="0.1524" layer="21"/>
<wire x1="-9.5504" y1="-2.794" x2="-5.4864" y2="-2.794" width="0.1524" layer="21"/>
<wire x1="-9.5504" y1="-2.794" x2="-9.5504" y2="2.159" width="0.1524" layer="21"/>
<wire x1="-5.4864" y1="2.159" x2="-9.5504" y2="2.159" width="0.1524" layer="21"/>
<wire x1="-4.5212" y1="2.159" x2="-4.5212" y2="-2.794" width="0.1524" layer="21"/>
<wire x1="-4.5212" y1="-2.794" x2="-0.4572" y2="-2.794" width="0.1524" layer="21"/>
<wire x1="-0.4572" y1="-2.794" x2="-0.4572" y2="2.159" width="0.1524" layer="21"/>
<wire x1="-0.4572" y1="2.159" x2="-4.5212" y2="2.159" width="0.1524" layer="21"/>
<wire x1="-0.2032" y1="-3.048" x2="-4.7752" y2="-3.048" width="0.0508" layer="21"/>
<wire x1="-0.2032" y1="-3.048" x2="-0.2032" y2="2.413" width="0.0508" layer="21"/>
<wire x1="-4.7752" y1="2.413" x2="-0.2032" y2="2.413" width="0.0508" layer="21"/>
<wire x1="-4.7752" y1="2.413" x2="-4.7752" y2="-3.048" width="0.0508" layer="21"/>
<wire x1="-5.2324" y1="2.413" x2="-5.2324" y2="-3.048" width="0.0508" layer="21"/>
<wire x1="-9.8044" y1="2.413" x2="-5.2324" y2="2.413" width="0.0508" layer="21"/>
<wire x1="-9.8044" y1="2.413" x2="-9.8044" y2="-3.048" width="0.0508" layer="21"/>
<wire x1="-5.2324" y1="-3.048" x2="-9.8044" y2="-3.048" width="0.0508" layer="21"/>
<wire x1="-9.5504" y1="0" x2="-5.4864" y2="0" width="0.1524" layer="21" curve="-180"/>
<wire x1="-9.5504" y1="-2.413" x2="-9.2964" y2="-2.667" width="0.1524" layer="21" curve="90"/>
<wire x1="-5.7404" y1="-2.667" x2="-5.4864" y2="-2.413" width="0.1524" layer="21" curve="90"/>
<wire x1="-5.7404" y1="-2.667" x2="-9.2964" y2="-2.667" width="0.1524" layer="21"/>
<wire x1="-6.3754" y1="-2.413" x2="-6.1214" y2="-2.667" width="0.1524" layer="21" curve="90"/>
<wire x1="-8.9154" y1="-2.667" x2="-8.6614" y2="-2.413" width="0.1524" layer="21" curve="90"/>
<wire x1="-8.6614" y1="-0.127" x2="-8.6614" y2="-0.762" width="0.1524" layer="51"/>
<wire x1="-8.6614" y1="-0.127" x2="-6.3754" y2="-0.127" width="0.1524" layer="51"/>
<wire x1="-6.3754" y1="-0.127" x2="-6.3754" y2="-0.762" width="0.1524" layer="51"/>
<wire x1="-8.6614" y1="-0.762" x2="-6.3754" y2="-0.762" width="0.1524" layer="51"/>
<wire x1="-8.6614" y1="-0.762" x2="-8.6614" y2="-2.413" width="0.1524" layer="21"/>
<wire x1="-6.3754" y1="-0.762" x2="-6.3754" y2="-2.413" width="0.1524" layer="21"/>
<wire x1="10.0838" y1="-3.81" x2="-10.0838" y2="-3.81" width="0.0508" layer="21"/>
<wire x1="-10.0838" y1="-3.81" x2="-10.0838" y2="-3.429" width="0.1524" layer="21"/>
<wire x1="10.0838" y1="-3.81" x2="10.0838" y2="-7.239" width="0.1524" layer="21"/>
<wire x1="-4.5212" y1="0" x2="-0.4572" y2="0" width="0.1524" layer="21" curve="-180"/>
<wire x1="-3.6322" y1="-0.127" x2="-1.3462" y2="-0.127" width="0.1524" layer="51"/>
<wire x1="-3.6322" y1="-0.127" x2="-3.6322" y2="-0.762" width="0.1524" layer="51"/>
<wire x1="-3.6322" y1="-0.762" x2="-1.3462" y2="-0.762" width="0.1524" layer="51"/>
<wire x1="-3.6322" y1="-0.762" x2="-3.6322" y2="-2.413" width="0.1524" layer="21"/>
<wire x1="-1.3462" y1="-0.762" x2="-1.3462" y2="-2.413" width="0.1524" layer="21"/>
<wire x1="-1.3462" y1="-0.127" x2="-1.3462" y2="-0.762" width="0.1524" layer="51"/>
<wire x1="-3.8862" y1="-2.667" x2="-3.6322" y2="-2.413" width="0.1524" layer="21" curve="90"/>
<wire x1="-1.3462" y1="-2.413" x2="-1.0922" y2="-2.667" width="0.1524" layer="21" curve="90"/>
<wire x1="-0.7112" y1="-2.667" x2="-4.2672" y2="-2.667" width="0.1524" layer="21"/>
<wire x1="-0.7112" y1="-2.667" x2="-0.4572" y2="-2.413" width="0.1524" layer="21" curve="90"/>
<wire x1="-4.5212" y1="-2.413" x2="-4.2672" y2="-2.667" width="0.1524" layer="21" curve="90"/>
<wire x1="-5.7912" y1="-7.366" x2="-5.7912" y2="-7.239" width="0.1524" layer="21"/>
<wire x1="-5.7912" y1="-7.239" x2="-4.2418" y2="-7.239" width="0.1524" layer="21"/>
<wire x1="-9.3472" y1="-7.366" x2="-9.3472" y2="-7.239" width="0.1524" layer="21"/>
<wire x1="-9.3472" y1="-7.239" x2="-7.8232" y2="-7.239" width="0.1524" layer="21"/>
<wire x1="-9.3472" y1="-7.366" x2="-7.8232" y2="-7.366" width="0.1524" layer="21"/>
<wire x1="-7.8232" y1="-7.239" x2="-7.8232" y2="-7.366" width="0.1524" layer="21"/>
<wire x1="-7.8232" y1="-7.239" x2="-7.3152" y2="-7.239" width="0.1524" layer="21"/>
<wire x1="-7.3152" y1="-7.239" x2="-5.7912" y2="-7.239" width="0.1524" layer="21"/>
<wire x1="-7.3152" y1="-7.366" x2="-7.3152" y2="-7.239" width="0.1524" layer="21"/>
<wire x1="-7.3152" y1="-7.366" x2="-5.7912" y2="-7.366" width="0.1524" layer="21"/>
<wire x1="-2.7178" y1="-7.239" x2="-2.7178" y2="-7.366" width="0.1524" layer="21"/>
<wire x1="-2.7178" y1="-7.239" x2="-2.2098" y2="-7.239" width="0.1524" layer="21"/>
<wire x1="-4.2418" y1="-7.366" x2="-2.7178" y2="-7.366" width="0.1524" layer="21"/>
<wire x1="-2.2098" y1="-7.366" x2="-2.2098" y2="-7.239" width="0.1524" layer="21"/>
<wire x1="-2.2098" y1="-7.239" x2="-0.6858" y2="-7.239" width="0.1524" layer="21"/>
<wire x1="-2.2098" y1="-7.366" x2="-0.6858" y2="-7.366" width="0.1524" layer="21"/>
<wire x1="-0.6858" y1="-7.366" x2="-0.6858" y2="-7.239" width="0.1524" layer="21"/>
<wire x1="-4.2418" y1="-7.366" x2="-4.2418" y2="-7.239" width="0.1524" layer="21"/>
<wire x1="-4.2418" y1="-7.239" x2="-2.7178" y2="-7.239" width="0.1524" layer="21"/>
<wire x1="4.5212" y1="2.159" x2="4.5212" y2="-2.794" width="0.1524" layer="21"/>
<wire x1="0.4572" y1="-2.794" x2="4.5212" y2="-2.794" width="0.1524" layer="21"/>
<wire x1="0.4572" y1="-2.794" x2="0.4572" y2="2.159" width="0.1524" layer="21"/>
<wire x1="4.5212" y1="2.159" x2="0.4572" y2="2.159" width="0.1524" layer="21"/>
<wire x1="4.7752" y1="2.413" x2="4.7752" y2="-3.048" width="0.0508" layer="21"/>
<wire x1="0.2032" y1="2.413" x2="4.7752" y2="2.413" width="0.0508" layer="21"/>
<wire x1="0.2032" y1="2.413" x2="0.2032" y2="-3.048" width="0.0508" layer="21"/>
<wire x1="4.7752" y1="-3.048" x2="0.2032" y2="-3.048" width="0.0508" layer="21"/>
<wire x1="0.4572" y1="0" x2="4.5212" y2="0" width="0.1524" layer="21" curve="-180"/>
<wire x1="0.4572" y1="-2.413" x2="0.7112" y2="-2.667" width="0.1524" layer="21" curve="90"/>
<wire x1="4.2672" y1="-2.667" x2="4.5212" y2="-2.413" width="0.1524" layer="21" curve="90"/>
<wire x1="4.2672" y1="-2.667" x2="0.7112" y2="-2.667" width="0.1524" layer="21"/>
<wire x1="3.6322" y1="-2.413" x2="3.8862" y2="-2.667" width="0.1524" layer="21" curve="90"/>
<wire x1="1.0922" y1="-2.667" x2="1.3462" y2="-2.413" width="0.1524" layer="21" curve="90"/>
<wire x1="1.3462" y1="-0.127" x2="1.3462" y2="-0.762" width="0.1524" layer="51"/>
<wire x1="1.3462" y1="-0.127" x2="3.6322" y2="-0.127" width="0.1524" layer="51"/>
<wire x1="3.6322" y1="-0.127" x2="3.6322" y2="-0.762" width="0.1524" layer="51"/>
<wire x1="1.3462" y1="-0.762" x2="3.6322" y2="-0.762" width="0.1524" layer="51"/>
<wire x1="1.3462" y1="-0.762" x2="1.3462" y2="-2.413" width="0.1524" layer="21"/>
<wire x1="3.6322" y1="-0.762" x2="3.6322" y2="-2.413" width="0.1524" layer="21"/>
<wire x1="4.2164" y1="-7.366" x2="4.2164" y2="-7.239" width="0.1524" layer="21"/>
<wire x1="0.6604" y1="-7.366" x2="2.1844" y2="-7.366" width="0.1524" layer="21"/>
<wire x1="2.6924" y1="-7.366" x2="4.2164" y2="-7.366" width="0.1524" layer="21"/>
<wire x1="0.6604" y1="-7.239" x2="0.6604" y2="-7.366" width="0.1524" layer="21"/>
<wire x1="0.6604" y1="-7.239" x2="-0.6858" y2="-7.239" width="0.1524" layer="21"/>
<wire x1="0.6604" y1="-7.239" x2="2.1844" y2="-7.239" width="0.1524" layer="21"/>
<wire x1="2.1844" y1="-7.239" x2="2.1844" y2="-7.366" width="0.1524" layer="21"/>
<wire x1="2.1844" y1="-7.239" x2="2.6924" y2="-7.239" width="0.1524" layer="21"/>
<wire x1="2.6924" y1="-7.239" x2="2.6924" y2="-7.366" width="0.1524" layer="21"/>
<wire x1="2.6924" y1="-7.239" x2="4.2164" y2="-7.239" width="0.1524" layer="21"/>
<wire x1="10.0838" y1="-7.239" x2="9.2456" y2="-7.239" width="0.1524" layer="21"/>
<wire x1="9.5504" y1="2.159" x2="9.5504" y2="-2.794" width="0.1524" layer="21"/>
<wire x1="5.4864" y1="-2.794" x2="9.5504" y2="-2.794" width="0.1524" layer="21"/>
<wire x1="5.4864" y1="-2.794" x2="5.4864" y2="2.159" width="0.1524" layer="21"/>
<wire x1="9.5504" y1="2.159" x2="5.4864" y2="2.159" width="0.1524" layer="21"/>
<wire x1="9.8044" y1="2.413" x2="9.8044" y2="-3.048" width="0.0508" layer="21"/>
<wire x1="5.2324" y1="2.413" x2="9.8044" y2="2.413" width="0.0508" layer="21"/>
<wire x1="5.2324" y1="2.413" x2="5.2324" y2="-3.048" width="0.0508" layer="21"/>
<wire x1="9.8044" y1="-3.048" x2="5.2324" y2="-3.048" width="0.0508" layer="21"/>
<wire x1="5.4864" y1="0" x2="9.5504" y2="0" width="0.1524" layer="21" curve="-180"/>
<wire x1="5.4864" y1="-2.413" x2="5.7404" y2="-2.667" width="0.1524" layer="21" curve="90"/>
<wire x1="9.2964" y1="-2.667" x2="9.5504" y2="-2.413" width="0.1524" layer="21" curve="90"/>
<wire x1="9.2964" y1="-2.667" x2="5.7404" y2="-2.667" width="0.1524" layer="21"/>
<wire x1="8.6614" y1="-2.413" x2="8.9154" y2="-2.667" width="0.1524" layer="21" curve="90"/>
<wire x1="6.1214" y1="-2.667" x2="6.3754" y2="-2.413" width="0.1524" layer="21" curve="90"/>
<wire x1="6.3754" y1="-0.127" x2="6.3754" y2="-0.762" width="0.1524" layer="51"/>
<wire x1="6.3754" y1="-0.127" x2="8.6614" y2="-0.127" width="0.1524" layer="51"/>
<wire x1="8.6614" y1="-0.127" x2="8.6614" y2="-0.762" width="0.1524" layer="51"/>
<wire x1="6.3754" y1="-0.762" x2="8.6614" y2="-0.762" width="0.1524" layer="51"/>
<wire x1="6.3754" y1="-0.762" x2="6.3754" y2="-2.413" width="0.1524" layer="21"/>
<wire x1="8.6614" y1="-0.762" x2="8.6614" y2="-2.413" width="0.1524" layer="21"/>
<wire x1="9.2456" y1="-7.366" x2="9.2456" y2="-7.239" width="0.1524" layer="21"/>
<wire x1="5.6896" y1="-7.366" x2="7.2136" y2="-7.366" width="0.1524" layer="21"/>
<wire x1="7.7216" y1="-7.366" x2="9.2456" y2="-7.366" width="0.1524" layer="21"/>
<wire x1="5.6896" y1="-7.239" x2="5.6896" y2="-7.366" width="0.1524" layer="21"/>
<wire x1="7.2136" y1="-7.239" x2="7.2136" y2="-7.366" width="0.1524" layer="21"/>
<wire x1="7.7216" y1="-7.239" x2="7.7216" y2="-7.366" width="0.1524" layer="21"/>
<wire x1="7.7216" y1="-7.239" x2="7.2136" y2="-7.239" width="0.1524" layer="21"/>
<wire x1="9.2456" y1="-7.239" x2="7.7216" y2="-7.239" width="0.1524" layer="21"/>
<wire x1="7.2136" y1="-7.239" x2="5.6896" y2="-7.239" width="0.1524" layer="21"/>
<wire x1="5.6896" y1="-7.239" x2="4.2164" y2="-7.239" width="0.1524" layer="21"/>
<circle x="-7.5184" y="0" radius="1.397" width="0.1524" layer="51"/>
<circle x="-2.4892" y="0" radius="1.397" width="0.1524" layer="51"/>
<circle x="2.4892" y="0" radius="1.397" width="0.1524" layer="51"/>
<circle x="7.5184" y="0" radius="1.397" width="0.1524" layer="51"/>
<pad name="1" x="-7.5184" y="0" drill="1.3208" shape="long" rot="R90"/>
<pad name="2" x="-2.4892" y="0" drill="1.3208" shape="long" rot="R90"/>
<pad name="3" x="2.4892" y="0" drill="1.3208" shape="long" rot="R90"/>
<pad name="4" x="7.5184" y="0" drill="1.3208" shape="long" rot="R90"/>
<text x="-10.0838" y="3.556" size="1.778" layer="25" ratio="10">&gt;NAME</text>
<text x="-10.0838" y="-9.525" size="1.778" layer="27" ratio="10">&gt;VALUE</text>
<text x="-8.2042" y="-5.715" size="1.27" layer="21" ratio="10">1</text>
<text x="-3.0988" y="-5.715" size="1.27" layer="21" ratio="10">2</text>
<text x="1.8034" y="-5.715" size="1.27" layer="21" ratio="10">3</text>
<text x="6.8326" y="-5.715" size="1.27" layer="21" ratio="10">4</text>
<rectangle x1="-8.6614" y1="-1.524" x2="-6.3754" y2="-0.762" layer="51"/>
<rectangle x1="-3.6322" y1="-1.524" x2="-1.3462" y2="-0.762" layer="51"/>
<rectangle x1="-8.6614" y1="-2.667" x2="-6.3754" y2="-1.524" layer="21"/>
<rectangle x1="-3.6322" y1="-2.667" x2="-1.3462" y2="-1.524" layer="21"/>
<rectangle x1="1.3462" y1="-1.524" x2="3.6322" y2="-0.762" layer="51"/>
<rectangle x1="1.3462" y1="-2.667" x2="3.6322" y2="-1.524" layer="21"/>
<rectangle x1="6.3754" y1="-1.524" x2="8.6614" y2="-0.762" layer="51"/>
<rectangle x1="6.3754" y1="-2.667" x2="8.6614" y2="-1.524" layer="21"/>
</package>
</packages>
<packages3d>
<package3d name="AK500/4-H" urn="urn:adsk.eagle:package:9908/1" type="box" library_version="1">
<description>CONNECTOR
Aug. 2004 / PTR Meßtechnik:
Die Bezeichnung der Serie AK505 wurde geändert.
Es handelt sich hierbei um AK500 in horizontaler Ausführung.</description>
</package3d>
</packages3d>
<symbols>
<symbol name="KL" urn="urn:adsk.eagle:symbol:9841/1" library_version="1">
<circle x="1.27" y="0" radius="1.27" width="0.254" layer="94"/>
<text x="-1.27" y="0.889" size="1.778" layer="95" rot="R180">&gt;NAME</text>
<pin name="KL" x="5.08" y="0" visible="off" length="short" direction="pas" rot="R180"/>
</symbol>
<symbol name="KLV" urn="urn:adsk.eagle:symbol:9842/1" library_version="1">
<circle x="1.27" y="0" radius="1.27" width="0.254" layer="94"/>
<text x="-1.27" y="0.889" size="1.778" layer="95" rot="R180">&gt;NAME</text>
<text x="-3.81" y="-3.683" size="1.778" layer="96">&gt;VALUE</text>
<pin name="KL" x="5.08" y="0" visible="off" length="short" direction="pas" rot="R180"/>
</symbol>
</symbols>
<devicesets>
<deviceset name="AK500/4-H" urn="urn:adsk.eagle:component:9939/1" prefix="X" uservalue="yes" library_version="1">
<description>&lt;b&gt;CONNECTOR&lt;/b&gt;&lt;p&gt;
Aug. 2004 / PTR Meßtechnik:&lt;br&gt;
Die Bezeichnung der Serie AK505 wurde geändert.&lt;br&gt;
Es handelt sich hierbei um AK500 in horizontaler Ausführung.</description>
<gates>
<gate name="-1" symbol="KL" x="0" y="12.7" addlevel="always"/>
<gate name="-2" symbol="KL" x="0" y="7.62" addlevel="always"/>
<gate name="-3" symbol="KL" x="0" y="2.54" addlevel="always"/>
<gate name="-4" symbol="KLV" x="0" y="-2.54" addlevel="always"/>
</gates>
<devices>
<device name="" package="AK500/4-H">
<connects>
<connect gate="-1" pin="KL" pad="1"/>
<connect gate="-2" pin="KL" pad="2"/>
<connect gate="-3" pin="KL" pad="3"/>
<connect gate="-4" pin="KL" pad="4"/>
</connects>
<package3dinstances>
<package3dinstance package3d_urn="urn:adsk.eagle:package:9908/1"/>
</package3dinstances>
<technologies>
<technology name="">
<attribute name="MF" value="" constant="no"/>
<attribute name="MPN" value="" constant="no"/>
<attribute name="OC_FARNELL" value="unknown" constant="no"/>
<attribute name="OC_NEWARK" value="unknown" constant="no"/>
</technology>
</technologies>
</device>
</devices>
</deviceset>
</devicesets>
</library>
</libraries>
<attributes>
</attributes>
<variantdefs>
</variantdefs>
<classes>
<class number="0" name="default" width="0" drill="0">
</class>
</classes>
<parts>
<part name="N1" library="russian-nixies" deviceset="IN-12B" device=""/>
<part name="N2" library="russian-nixies" deviceset="IN-12B" device=""/>
<part name="N3" library="russian-nixies" deviceset="IN-12B" device=""/>
<part name="N4" library="russian-nixies" deviceset="IN-12B" device=""/>
<part name="SV1" library="con-lstb" library_urn="urn:adsk.eagle:library:162" deviceset="MA10-1" device="" package3d_urn="urn:adsk.eagle:package:8346/1" value="Piny"/>
<part name="SV2" library="con-lstb" library_urn="urn:adsk.eagle:library:162" deviceset="MA06-1" device="" package3d_urn="urn:adsk.eagle:package:8340/1" value="Katody"/>
<part name="DS3231" library="con-lstb" library_urn="urn:adsk.eagle:library:162" deviceset="MA04-1" device="" package3d_urn="urn:adsk.eagle:package:8337/1"/>
<part name="SUPPLY1" library="supply2" library_urn="urn:adsk.eagle:library:372" deviceset="VCC" device=""/>
<part name="GND6" library="supply1" library_urn="urn:adsk.eagle:library:371" deviceset="GND" device=""/>
<part name="X3" library="con-ptr500" library_urn="urn:adsk.eagle:library:181" deviceset="AK500/4-H" device="" package3d_urn="urn:adsk.eagle:package:9908/1"/>
<part name="GND1" library="supply1" library_urn="urn:adsk.eagle:library:371" deviceset="GND" device=""/>
<part name="SUPPLY2" library="supply2" library_urn="urn:adsk.eagle:library:372" deviceset="VCC" device=""/>
</parts>
<sheets>
<sheet>
<plain>
</plain>
<instances>
<instance part="N1" gate="G$1" x="-63.5" y="43.18" rot="R90"/>
<instance part="N2" gate="G$1" x="-15.24" y="43.18" rot="R90"/>
<instance part="N3" gate="G$1" x="33.02" y="43.18" rot="R90"/>
<instance part="N4" gate="G$1" x="83.82" y="43.18" rot="R90"/>
<instance part="SV1" gate="1" x="-101.6" y="12.7"/>
<instance part="SV2" gate="1" x="-101.6" y="71.12"/>
<instance part="DS3231" gate="1" x="-101.6" y="109.22"/>
<instance part="SUPPLY1" gate="G$1" x="-81.28" y="96.52" rot="R180"/>
<instance part="GND6" gate="1" x="-88.9" y="96.52"/>
<instance part="X3" gate="-1" x="-50.8" y="96.52" rot="R180"/>
<instance part="X3" gate="-2" x="-50.8" y="101.6" rot="R180"/>
<instance part="X3" gate="-3" x="-50.8" y="106.68" rot="R180"/>
<instance part="X3" gate="-4" x="-50.8" y="111.76" rot="R180"/>
<instance part="GND1" gate="1" x="-60.96" y="91.44"/>
<instance part="SUPPLY2" gate="G$1" x="-66.04" y="91.44" rot="R180"/>
</instances>
<busses>
</busses>
<nets>
<net name="N$1" class="0">
<segment>
<pinref part="SV1" gate="1" pin="10"/>
<wire x1="-93.98" y1="25.4" x2="-53.34" y2="25.4" width="0.1524" layer="91"/>
<wire x1="-53.34" y1="25.4" x2="-5.08" y2="25.4" width="0.1524" layer="91"/>
<pinref part="N1" gate="G$1" pin="0"/>
<wire x1="-5.08" y1="25.4" x2="43.18" y2="25.4" width="0.1524" layer="91"/>
<wire x1="43.18" y1="25.4" x2="93.98" y2="25.4" width="0.1524" layer="91"/>
<wire x1="-53.34" y1="30.48" x2="-53.34" y2="25.4" width="0.1524" layer="91"/>
<junction x="-53.34" y="25.4"/>
<pinref part="N2" gate="G$1" pin="0"/>
<wire x1="-5.08" y1="30.48" x2="-5.08" y2="25.4" width="0.1524" layer="91"/>
<junction x="-5.08" y="25.4"/>
<pinref part="N3" gate="G$1" pin="0"/>
<wire x1="43.18" y1="30.48" x2="43.18" y2="25.4" width="0.1524" layer="91"/>
<junction x="43.18" y="25.4"/>
<pinref part="N4" gate="G$1" pin="0"/>
<wire x1="93.98" y1="25.4" x2="93.98" y2="30.48" width="0.1524" layer="91"/>
</segment>
</net>
<net name="N$2" class="0">
<segment>
<pinref part="SV1" gate="1" pin="9"/>
<wire x1="-76.2" y1="22.86" x2="-93.98" y2="22.86" width="0.1524" layer="91"/>
<pinref part="N1" gate="G$1" pin="1"/>
<wire x1="-76.2" y1="30.48" x2="-76.2" y2="22.86" width="0.1524" layer="91"/>
<pinref part="N4" gate="G$1" pin="1"/>
<wire x1="71.12" y1="30.48" x2="71.12" y2="22.86" width="0.1524" layer="91"/>
<junction x="-76.2" y="22.86"/>
<wire x1="71.12" y1="22.86" x2="20.32" y2="22.86" width="0.1524" layer="91"/>
<wire x1="20.32" y1="22.86" x2="-27.94" y2="22.86" width="0.1524" layer="91"/>
<wire x1="-27.94" y1="22.86" x2="-76.2" y2="22.86" width="0.1524" layer="91"/>
<pinref part="N2" gate="G$1" pin="1"/>
<wire x1="-27.94" y1="30.48" x2="-27.94" y2="22.86" width="0.1524" layer="91"/>
<junction x="-27.94" y="22.86"/>
<pinref part="N3" gate="G$1" pin="1"/>
<wire x1="20.32" y1="30.48" x2="20.32" y2="22.86" width="0.1524" layer="91"/>
<junction x="20.32" y="22.86"/>
</segment>
</net>
<net name="N$3" class="0">
<segment>
<pinref part="SV1" gate="1" pin="8"/>
<wire x1="-93.98" y1="20.32" x2="-73.66" y2="20.32" width="0.1524" layer="91"/>
<pinref part="N1" gate="G$1" pin="2"/>
<wire x1="-73.66" y1="30.48" x2="-73.66" y2="20.32" width="0.1524" layer="91"/>
<pinref part="N4" gate="G$1" pin="2"/>
<wire x1="73.66" y1="30.48" x2="73.66" y2="20.32" width="0.1524" layer="91"/>
<junction x="-73.66" y="20.32"/>
<wire x1="73.66" y1="20.32" x2="22.86" y2="20.32" width="0.1524" layer="91"/>
<wire x1="22.86" y1="20.32" x2="-25.4" y2="20.32" width="0.1524" layer="91"/>
<wire x1="-25.4" y1="20.32" x2="-73.66" y2="20.32" width="0.1524" layer="91"/>
<pinref part="N2" gate="G$1" pin="2"/>
<wire x1="-25.4" y1="30.48" x2="-25.4" y2="20.32" width="0.1524" layer="91"/>
<junction x="-25.4" y="20.32"/>
<pinref part="N3" gate="G$1" pin="2"/>
<wire x1="22.86" y1="30.48" x2="22.86" y2="20.32" width="0.1524" layer="91"/>
<junction x="22.86" y="20.32"/>
</segment>
</net>
<net name="N$4" class="0">
<segment>
<pinref part="SV1" gate="1" pin="7"/>
<wire x1="-71.12" y1="17.78" x2="-93.98" y2="17.78" width="0.1524" layer="91"/>
<pinref part="N1" gate="G$1" pin="3"/>
<wire x1="-71.12" y1="30.48" x2="-71.12" y2="17.78" width="0.1524" layer="91"/>
<pinref part="N4" gate="G$1" pin="3"/>
<wire x1="76.2" y1="30.48" x2="76.2" y2="17.78" width="0.1524" layer="91"/>
<junction x="-71.12" y="17.78"/>
<wire x1="76.2" y1="17.78" x2="25.4" y2="17.78" width="0.1524" layer="91"/>
<wire x1="25.4" y1="17.78" x2="-22.86" y2="17.78" width="0.1524" layer="91"/>
<wire x1="-22.86" y1="17.78" x2="-71.12" y2="17.78" width="0.1524" layer="91"/>
<pinref part="N2" gate="G$1" pin="3"/>
<wire x1="-22.86" y1="30.48" x2="-22.86" y2="17.78" width="0.1524" layer="91"/>
<junction x="-22.86" y="17.78"/>
<pinref part="N3" gate="G$1" pin="3"/>
<wire x1="25.4" y1="30.48" x2="25.4" y2="17.78" width="0.1524" layer="91"/>
<junction x="25.4" y="17.78"/>
</segment>
</net>
<net name="N$5" class="0">
<segment>
<pinref part="SV1" gate="1" pin="6"/>
<wire x1="-68.58" y1="15.24" x2="-93.98" y2="15.24" width="0.1524" layer="91"/>
<pinref part="N1" gate="G$1" pin="4"/>
<wire x1="-68.58" y1="30.48" x2="-68.58" y2="15.24" width="0.1524" layer="91"/>
<pinref part="N4" gate="G$1" pin="4"/>
<wire x1="78.74" y1="30.48" x2="78.74" y2="15.24" width="0.1524" layer="91"/>
<junction x="-68.58" y="15.24"/>
<wire x1="78.74" y1="15.24" x2="27.94" y2="15.24" width="0.1524" layer="91"/>
<wire x1="27.94" y1="15.24" x2="-20.32" y2="15.24" width="0.1524" layer="91"/>
<wire x1="-20.32" y1="15.24" x2="-68.58" y2="15.24" width="0.1524" layer="91"/>
<pinref part="N2" gate="G$1" pin="4"/>
<wire x1="-20.32" y1="30.48" x2="-20.32" y2="15.24" width="0.1524" layer="91"/>
<junction x="-20.32" y="15.24"/>
<pinref part="N3" gate="G$1" pin="4"/>
<wire x1="27.94" y1="30.48" x2="27.94" y2="15.24" width="0.1524" layer="91"/>
<junction x="27.94" y="15.24"/>
</segment>
</net>
<net name="N$6" class="0">
<segment>
<pinref part="SV1" gate="1" pin="5"/>
<wire x1="-66.04" y1="12.7" x2="-93.98" y2="12.7" width="0.1524" layer="91"/>
<pinref part="N1" gate="G$1" pin="5"/>
<wire x1="-66.04" y1="30.48" x2="-66.04" y2="12.7" width="0.1524" layer="91"/>
<pinref part="N4" gate="G$1" pin="5"/>
<wire x1="81.28" y1="30.48" x2="81.28" y2="12.7" width="0.1524" layer="91"/>
<junction x="-66.04" y="12.7"/>
<wire x1="81.28" y1="12.7" x2="30.48" y2="12.7" width="0.1524" layer="91"/>
<wire x1="30.48" y1="12.7" x2="-17.78" y2="12.7" width="0.1524" layer="91"/>
<wire x1="-17.78" y1="12.7" x2="-66.04" y2="12.7" width="0.1524" layer="91"/>
<pinref part="N2" gate="G$1" pin="5"/>
<wire x1="-17.78" y1="30.48" x2="-17.78" y2="12.7" width="0.1524" layer="91"/>
<junction x="-17.78" y="12.7"/>
<pinref part="N3" gate="G$1" pin="5"/>
<wire x1="30.48" y1="30.48" x2="30.48" y2="12.7" width="0.1524" layer="91"/>
<junction x="30.48" y="12.7"/>
</segment>
</net>
<net name="N$7" class="0">
<segment>
<pinref part="SV1" gate="1" pin="4"/>
<wire x1="-63.5" y1="10.16" x2="-93.98" y2="10.16" width="0.1524" layer="91"/>
<pinref part="N1" gate="G$1" pin="6"/>
<wire x1="-63.5" y1="30.48" x2="-63.5" y2="10.16" width="0.1524" layer="91"/>
<pinref part="N4" gate="G$1" pin="6"/>
<wire x1="83.82" y1="30.48" x2="83.82" y2="10.16" width="0.1524" layer="91"/>
<junction x="-63.5" y="10.16"/>
<wire x1="83.82" y1="10.16" x2="33.02" y2="10.16" width="0.1524" layer="91"/>
<wire x1="33.02" y1="10.16" x2="-15.24" y2="10.16" width="0.1524" layer="91"/>
<wire x1="-15.24" y1="10.16" x2="-63.5" y2="10.16" width="0.1524" layer="91"/>
<pinref part="N2" gate="G$1" pin="6"/>
<wire x1="-15.24" y1="30.48" x2="-15.24" y2="10.16" width="0.1524" layer="91"/>
<junction x="-15.24" y="10.16"/>
<pinref part="N3" gate="G$1" pin="6"/>
<wire x1="33.02" y1="30.48" x2="33.02" y2="10.16" width="0.1524" layer="91"/>
<junction x="33.02" y="10.16"/>
</segment>
</net>
<net name="N$8" class="0">
<segment>
<pinref part="SV1" gate="1" pin="3"/>
<wire x1="86.36" y1="7.62" x2="35.56" y2="7.62" width="0.1524" layer="91"/>
<wire x1="35.56" y1="7.62" x2="-12.7" y2="7.62" width="0.1524" layer="91"/>
<wire x1="-12.7" y1="7.62" x2="-60.96" y2="7.62" width="0.1524" layer="91"/>
<wire x1="-60.96" y1="7.62" x2="-93.98" y2="7.62" width="0.1524" layer="91"/>
<pinref part="N1" gate="G$1" pin="7"/>
<wire x1="-60.96" y1="30.48" x2="-60.96" y2="7.62" width="0.1524" layer="91"/>
<junction x="-60.96" y="7.62"/>
<pinref part="N4" gate="G$1" pin="7"/>
<wire x1="86.36" y1="30.48" x2="86.36" y2="7.62" width="0.1524" layer="91"/>
<pinref part="N2" gate="G$1" pin="7"/>
<wire x1="-12.7" y1="30.48" x2="-12.7" y2="7.62" width="0.1524" layer="91"/>
<junction x="-12.7" y="7.62"/>
<pinref part="N3" gate="G$1" pin="7"/>
<wire x1="35.56" y1="30.48" x2="35.56" y2="7.62" width="0.1524" layer="91"/>
<junction x="35.56" y="7.62"/>
</segment>
</net>
<net name="N$9" class="0">
<segment>
<pinref part="SV1" gate="1" pin="2"/>
<wire x1="88.9" y1="5.08" x2="38.1" y2="5.08" width="0.1524" layer="91"/>
<wire x1="38.1" y1="5.08" x2="-10.16" y2="5.08" width="0.1524" layer="91"/>
<wire x1="-10.16" y1="5.08" x2="-58.42" y2="5.08" width="0.1524" layer="91"/>
<wire x1="-58.42" y1="5.08" x2="-93.98" y2="5.08" width="0.1524" layer="91"/>
<pinref part="N1" gate="G$1" pin="8"/>
<wire x1="-58.42" y1="30.48" x2="-58.42" y2="5.08" width="0.1524" layer="91"/>
<junction x="-58.42" y="5.08"/>
<pinref part="N4" gate="G$1" pin="8"/>
<wire x1="88.9" y1="30.48" x2="88.9" y2="5.08" width="0.1524" layer="91"/>
<pinref part="N2" gate="G$1" pin="8"/>
<wire x1="-10.16" y1="30.48" x2="-10.16" y2="5.08" width="0.1524" layer="91"/>
<junction x="-10.16" y="5.08"/>
<pinref part="N3" gate="G$1" pin="8"/>
<wire x1="38.1" y1="30.48" x2="38.1" y2="5.08" width="0.1524" layer="91"/>
<junction x="38.1" y="5.08"/>
</segment>
</net>
<net name="N$10" class="0">
<segment>
<pinref part="SV1" gate="1" pin="1"/>
<wire x1="91.44" y1="2.54" x2="40.64" y2="2.54" width="0.1524" layer="91"/>
<wire x1="40.64" y1="2.54" x2="-7.62" y2="2.54" width="0.1524" layer="91"/>
<wire x1="-7.62" y1="2.54" x2="-55.88" y2="2.54" width="0.1524" layer="91"/>
<wire x1="-55.88" y1="2.54" x2="-93.98" y2="2.54" width="0.1524" layer="91"/>
<pinref part="N1" gate="G$1" pin="9"/>
<wire x1="-55.88" y1="30.48" x2="-55.88" y2="2.54" width="0.1524" layer="91"/>
<junction x="-55.88" y="2.54"/>
<pinref part="N4" gate="G$1" pin="9"/>
<wire x1="91.44" y1="30.48" x2="91.44" y2="2.54" width="0.1524" layer="91"/>
<pinref part="N2" gate="G$1" pin="9"/>
<wire x1="-7.62" y1="30.48" x2="-7.62" y2="2.54" width="0.1524" layer="91"/>
<junction x="-7.62" y="2.54"/>
<pinref part="N3" gate="G$1" pin="9"/>
<wire x1="40.64" y1="30.48" x2="40.64" y2="2.54" width="0.1524" layer="91"/>
<junction x="40.64" y="2.54"/>
</segment>
</net>
<net name="N$11" class="0">
<segment>
<pinref part="SV2" gate="1" pin="1"/>
<pinref part="N1" gate="G$1" pin="A"/>
<wire x1="-93.98" y1="63.5" x2="-63.5" y2="63.5" width="0.1524" layer="91"/>
<wire x1="-63.5" y1="63.5" x2="-63.5" y2="53.34" width="0.1524" layer="91"/>
</segment>
</net>
<net name="N$12" class="0">
<segment>
<pinref part="SV2" gate="1" pin="2"/>
<pinref part="N2" gate="G$1" pin="A"/>
<wire x1="-93.98" y1="66.04" x2="-15.24" y2="66.04" width="0.1524" layer="91"/>
<wire x1="-15.24" y1="66.04" x2="-15.24" y2="53.34" width="0.1524" layer="91"/>
</segment>
</net>
<net name="N$13" class="0">
<segment>
<pinref part="SV2" gate="1" pin="3"/>
<pinref part="N3" gate="G$1" pin="A"/>
<wire x1="-93.98" y1="68.58" x2="33.02" y2="68.58" width="0.1524" layer="91"/>
<wire x1="33.02" y1="68.58" x2="33.02" y2="53.34" width="0.1524" layer="91"/>
</segment>
</net>
<net name="N$14" class="0">
<segment>
<pinref part="SV2" gate="1" pin="4"/>
<pinref part="N4" gate="G$1" pin="A"/>
<wire x1="-93.98" y1="71.12" x2="83.82" y2="71.12" width="0.1524" layer="91"/>
<wire x1="83.82" y1="71.12" x2="83.82" y2="53.34" width="0.1524" layer="91"/>
</segment>
</net>
<net name="GND" class="0">
<segment>
<pinref part="DS3231" gate="1" pin="1"/>
<wire x1="-93.98" y1="104.14" x2="-88.9" y2="104.14" width="0.1524" layer="91"/>
<wire x1="-88.9" y1="104.14" x2="-88.9" y2="99.06" width="0.1524" layer="91"/>
<pinref part="GND6" gate="1" pin="GND"/>
</segment>
<segment>
<pinref part="X3" gate="-1" pin="KL"/>
<wire x1="-55.88" y1="96.52" x2="-60.96" y2="96.52" width="0.1524" layer="91"/>
<pinref part="GND1" gate="1" pin="GND"/>
<wire x1="-60.96" y1="96.52" x2="-60.96" y2="93.98" width="0.1524" layer="91"/>
</segment>
</net>
<net name="VCC" class="0">
<segment>
<pinref part="DS3231" gate="1" pin="2"/>
<wire x1="-93.98" y1="106.68" x2="-81.28" y2="106.68" width="0.1524" layer="91"/>
<wire x1="-81.28" y1="106.68" x2="-81.28" y2="99.06" width="0.1524" layer="91"/>
<pinref part="SUPPLY1" gate="G$1" pin="VCC"/>
</segment>
<segment>
<pinref part="X3" gate="-2" pin="KL"/>
<wire x1="-55.88" y1="101.6" x2="-66.04" y2="101.6" width="0.1524" layer="91"/>
<pinref part="SUPPLY2" gate="G$1" pin="VCC"/>
<wire x1="-66.04" y1="101.6" x2="-66.04" y2="93.98" width="0.1524" layer="91"/>
</segment>
</net>
<net name="SDA" class="0">
<segment>
<pinref part="DS3231" gate="1" pin="3"/>
<label x="-86.36" y="109.22" size="1.778" layer="95" rot="R180"/>
<wire x1="-93.98" y1="109.22" x2="-73.66" y2="109.22" width="0.1524" layer="91"/>
<pinref part="X3" gate="-4" pin="KL"/>
<wire x1="-73.66" y1="109.22" x2="-73.66" y2="111.76" width="0.1524" layer="91"/>
<wire x1="-73.66" y1="111.76" x2="-55.88" y2="111.76" width="0.1524" layer="91"/>
</segment>
</net>
<net name="SCL" class="0">
<segment>
<pinref part="DS3231" gate="1" pin="4"/>
<wire x1="-93.98" y1="111.76" x2="-78.74" y2="111.76" width="0.1524" layer="91"/>
<wire x1="-78.74" y1="111.76" x2="-78.74" y2="106.68" width="0.1524" layer="91"/>
<pinref part="X3" gate="-3" pin="KL"/>
<wire x1="-78.74" y1="106.68" x2="-55.88" y2="106.68" width="0.1524" layer="91"/>
<label x="-86.36" y="111.76" size="1.778" layer="95"/>
</segment>
</net>
</nets>
</sheet>
</sheets>
</schematic>
</drawing>
<compatibility>
<note version="8.2" severity="warning">
Since Version 8.2, EAGLE supports online libraries. The ids
of those online libraries will not be understood (or retained)
with this version.
</note>
<note version="8.3" severity="warning">
Since Version 8.3, EAGLE supports URNs for individual library
assets (packages, symbols, and devices). The URNs of those assets
will not be understood (or retained) with this version.
</note>
<note version="8.3" severity="warning">
Since Version 8.3, EAGLE supports the association of 3D packages
with devices in libraries, schematics, and board files. Those 3D
packages will not be understood (or retained) with this version.
</note>
</compatibility>
</eagle>
