<?xml version="1.0" encoding="utf-8"?>
<!DOCTYPE eagle SYSTEM "eagle.dtd">
<eagle version="8.6.3">
<drawing>
<settings>
<setting alwaysvectorfont="no"/>
<setting verticaltext="up"/>
</settings>
<grid distance="0.1" unitdist="inch" unit="inch" style="lines" multiple="1" display="no" altdistance="0.01" altunitdist="inch" altunit="inch"/>
<layers>
<layer number="1" name="Top" color="4" fill="1" visible="no" active="no"/>
<layer number="16" name="Bottom" color="1" fill="1" visible="no" active="no"/>
<layer number="17" name="Pads" color="2" fill="1" visible="no" active="no"/>
<layer number="18" name="Vias" color="2" fill="1" visible="no" active="no"/>
<layer number="19" name="Unrouted" color="6" fill="1" visible="no" active="no"/>
<layer number="20" name="Dimension" color="15" fill="1" visible="no" active="no"/>
<layer number="21" name="tPlace" color="7" fill="1" visible="no" active="no"/>
<layer number="22" name="bPlace" color="7" fill="1" visible="no" active="no"/>
<layer number="23" name="tOrigins" color="15" fill="1" visible="no" active="no"/>
<layer number="24" name="bOrigins" color="15" fill="1" visible="no" active="no"/>
<layer number="25" name="tNames" color="7" fill="1" visible="no" active="no"/>
<layer number="26" name="bNames" color="7" fill="1" visible="no" active="no"/>
<layer number="27" name="tValues" color="7" fill="1" visible="no" active="no"/>
<layer number="28" name="bValues" color="7" fill="1" visible="no" active="no"/>
<layer number="29" name="tStop" color="7" fill="3" visible="no" active="no"/>
<layer number="30" name="bStop" color="7" fill="6" visible="no" active="no"/>
<layer number="31" name="tCream" color="7" fill="4" visible="no" active="no"/>
<layer number="32" name="bCream" color="7" fill="5" visible="no" active="no"/>
<layer number="33" name="tFinish" color="6" fill="3" visible="no" active="no"/>
<layer number="34" name="bFinish" color="6" fill="6" visible="no" active="no"/>
<layer number="35" name="tGlue" color="7" fill="4" visible="no" active="no"/>
<layer number="36" name="bGlue" color="7" fill="5" visible="no" active="no"/>
<layer number="37" name="tTest" color="7" fill="1" visible="no" active="no"/>
<layer number="38" name="bTest" color="7" fill="1" visible="no" active="no"/>
<layer number="39" name="tKeepout" color="4" fill="11" visible="no" active="no"/>
<layer number="40" name="bKeepout" color="1" fill="11" visible="no" active="no"/>
<layer number="41" name="tRestrict" color="4" fill="10" visible="no" active="no"/>
<layer number="42" name="bRestrict" color="1" fill="10" visible="no" active="no"/>
<layer number="43" name="vRestrict" color="2" fill="10" visible="no" active="no"/>
<layer number="44" name="Drills" color="7" fill="1" visible="no" active="no"/>
<layer number="45" name="Holes" color="7" fill="1" visible="no" active="no"/>
<layer number="46" name="Milling" color="3" fill="1" visible="no" active="no"/>
<layer number="47" name="Measures" color="7" fill="1" visible="no" active="no"/>
<layer number="48" name="Document" color="7" fill="1" visible="no" active="no"/>
<layer number="49" name="Reference" color="7" fill="1" visible="no" active="no"/>
<layer number="50" name="dxf" color="7" fill="1" visible="no" active="no"/>
<layer number="51" name="tDocu" color="7" fill="1" visible="no" active="no"/>
<layer number="52" name="bDocu" color="7" fill="1" visible="no" active="no"/>
<layer number="53" name="tGND_GNDA" color="7" fill="1" visible="no" active="no"/>
<layer number="54" name="bGND_GNDA" color="7" fill="1" visible="no" active="no"/>
<layer number="56" name="wert" color="7" fill="1" visible="no" active="no"/>
<layer number="88" name="SimResults" color="9" fill="1" visible="yes" active="yes"/>
<layer number="89" name="SimProbes" color="9" fill="1" visible="yes" active="yes"/>
<layer number="90" name="Modules" color="5" fill="1" visible="yes" active="yes"/>
<layer number="91" name="Nets" color="2" fill="1" visible="yes" active="yes"/>
<layer number="92" name="Busses" color="1" fill="1" visible="yes" active="yes"/>
<layer number="93" name="Pins" color="2" fill="1" visible="no" active="yes"/>
<layer number="94" name="Symbols" color="4" fill="1" visible="yes" active="yes"/>
<layer number="95" name="Names" color="7" fill="1" visible="yes" active="yes"/>
<layer number="96" name="Values" color="7" fill="1" visible="yes" active="yes"/>
<layer number="97" name="Info" color="7" fill="1" visible="yes" active="yes"/>
<layer number="98" name="Guide" color="6" fill="1" visible="yes" active="yes"/>
<layer number="99" name="SpiceOrder" color="5" fill="1" visible="yes" active="yes"/>
<layer number="250" name="Descript" color="3" fill="1" visible="no" active="no"/>
<layer number="251" name="SMDround" color="12" fill="11" visible="no" active="no"/>
</layers>
<schematic xreflabel="%F%N/%S.%C%R" xrefpart="/%S.%C%R">
<libraries>
<library name="russian-nixies">
<description>&lt;b&gt;Russian IN series nixie tubes&lt;/b&gt;&lt;br&gt;&lt;br&gt;

Based on the following sources:
&lt;ul&gt;
&lt;li&gt;Measurements taken from nixies in my collection
&lt;li&gt;http://www.tube-tester.com
&lt;/ul&gt;&lt;br&gt;
&lt;author&gt;Created by p.s.troost@student.tue.nl&lt;/author&gt;</description>
<packages>
<package name="IN-12">
<description>May be used with socket: &lt;b&gt;SK-136&lt;/b&gt;</description>
<wire x1="-8.89" y1="6.6675" x2="7.9375" y2="6.6675" width="0.127" layer="21" curve="-103.699894"/>
<wire x1="7.9375" y1="-6.35" x2="-8.89" y2="-6.35" width="0.127" layer="21" curve="-108.924838"/>
<wire x1="7.9375" y1="-6.35" x2="-8.89" y2="-6.35" width="0.254" layer="21" curve="-110.891013"/>
<wire x1="-8.89" y1="6.6675" x2="7.9375" y2="6.6675" width="0.254" layer="21" curve="-104.398074"/>
<wire x1="7.9375" y1="6.6675" x2="7.9375" y2="-6.35" width="0.254" layer="21"/>
<wire x1="-8.89" y1="-6.1913" x2="-8.89" y2="6.6675" width="0.254" layer="21"/>
<wire x1="-8.89" y1="-6.1913" x2="-8.89" y2="-6.35" width="0.254" layer="21"/>
<circle x="0" y="0" radius="2.54" width="0.127" layer="21"/>
<pad name="6" x="-0.3175" y="8.8175" drill="1.1" diameter="2.54"/>
<pad name="9" x="5.1745" y="0" drill="1.1" diameter="2.54"/>
<pad name="8" x="5.0475" y="4.5" drill="1.1" diameter="2.54"/>
<pad name="LHDP" x="-0.3175" y="-8.8175" drill="1.1" diameter="2.54"/>
<pad name="0" x="5.0475" y="-4.5" drill="1.1" diameter="2.54"/>
<pad name="A" x="3.6825" y="-7.8175" drill="1.1" diameter="2.54"/>
<pad name="7" x="3.6825" y="7.8175" drill="1.1" diameter="2.54"/>
<pad name="5" x="-4.3175" y="7.8175" drill="1.1" diameter="2.54"/>
<pad name="4" x="-6" y="4.5" drill="1.1" diameter="2.54"/>
<pad name="3" x="-6.127" y="0" drill="1.1" diameter="2.54"/>
<pad name="2" x="-6" y="-4.5" drill="1.1" diameter="2.54"/>
<pad name="1" x="-4.3175" y="-7.8175" drill="1.1" diameter="2.54"/>
<text x="10.3188" y="-2.8575" size="1.27" layer="25" rot="R90">&gt;NAME</text>
<hole x="0" y="0" drill="5"/>
</package>
</packages>
<symbols>
<symbol name="IN-12B">
<wire x1="-7.62" y1="-10.795" x2="-7.62" y2="13.335" width="0.4064" layer="94"/>
<wire x1="-7.62" y1="-10.795" x2="5.08" y2="-10.795" width="0.4064" layer="94" curve="180"/>
<wire x1="5.08" y1="-10.795" x2="5.08" y2="13.335" width="0.4064" layer="94"/>
<wire x1="-7.62" y1="13.335" x2="5.08" y2="13.335" width="0.4064" layer="94" curve="-180"/>
<text x="-4.445" y="20.955" size="1.778" layer="95">&gt;NAME</text>
<pin name="1" x="-12.7" y="12.7" visible="pin" length="middle"/>
<pin name="2" x="-12.7" y="10.16" visible="pin" length="middle"/>
<pin name="3" x="-12.7" y="7.62" visible="pin" length="middle"/>
<pin name="4" x="-12.7" y="5.08" visible="pin" length="middle"/>
<pin name="5" x="-12.7" y="2.54" visible="pin" length="middle"/>
<pin name="6" x="-12.7" y="0" visible="pin" length="middle"/>
<pin name="7" x="-12.7" y="-2.54" visible="pin" length="middle"/>
<pin name="8" x="-12.7" y="-5.08" visible="pin" length="middle"/>
<pin name="9" x="-12.7" y="-7.62" visible="pin" length="middle"/>
<pin name="0" x="-12.7" y="-10.16" visible="pin" length="middle"/>
<pin name="LHDP" x="10.16" y="12.7" visible="pin" length="middle" rot="R180"/>
<pin name="A" x="10.16" y="0" visible="pin" length="middle" rot="R180"/>
</symbol>
</symbols>
<devicesets>
<deviceset name="IN-12B" prefix="N">
<description>IN-12B: medium numeric &lt;b&gt;topview&lt;/b&gt; nixie tube</description>
<gates>
<gate name="G$1" symbol="IN-12B" x="2.54" y="0"/>
</gates>
<devices>
<device name="" package="IN-12">
<connects>
<connect gate="G$1" pin="0" pad="0"/>
<connect gate="G$1" pin="1" pad="1"/>
<connect gate="G$1" pin="2" pad="2"/>
<connect gate="G$1" pin="3" pad="3"/>
<connect gate="G$1" pin="4" pad="4"/>
<connect gate="G$1" pin="5" pad="5"/>
<connect gate="G$1" pin="6" pad="6"/>
<connect gate="G$1" pin="7" pad="7"/>
<connect gate="G$1" pin="8" pad="8"/>
<connect gate="G$1" pin="9" pad="9"/>
<connect gate="G$1" pin="A" pad="A"/>
<connect gate="G$1" pin="LHDP" pad="LHDP"/>
</connects>
<technologies>
<technology name=""/>
</technologies>
</device>
</devices>
</deviceset>
</devicesets>
</library>
<library name="con-lstb" urn="urn:adsk.eagle:library:162">
<description>&lt;b&gt;Pin Headers&lt;/b&gt;&lt;p&gt;
Naming:&lt;p&gt;
MA = male&lt;p&gt;
# contacts - # rows&lt;p&gt;
W = angled&lt;p&gt;
&lt;author&gt;Created by librarian@cadsoft.de&lt;/author&gt;</description>
<packages>
<package name="MA10-1" urn="urn:adsk.eagle:footprint:8300/1" library_version="1">
<description>&lt;b&gt;PIN HEADER&lt;/b&gt;</description>
<wire x1="-12.065" y1="1.27" x2="-10.795" y2="1.27" width="0.1524" layer="21"/>
<wire x1="-10.795" y1="1.27" x2="-10.16" y2="0.635" width="0.1524" layer="21"/>
<wire x1="-10.16" y1="-0.635" x2="-10.795" y2="-1.27" width="0.1524" layer="21"/>
<wire x1="-10.16" y1="0.635" x2="-9.525" y2="1.27" width="0.1524" layer="21"/>
<wire x1="-9.525" y1="1.27" x2="-8.255" y2="1.27" width="0.1524" layer="21"/>
<wire x1="-8.255" y1="1.27" x2="-7.62" y2="0.635" width="0.1524" layer="21"/>
<wire x1="-7.62" y1="-0.635" x2="-8.255" y2="-1.27" width="0.1524" layer="21"/>
<wire x1="-8.255" y1="-1.27" x2="-9.525" y2="-1.27" width="0.1524" layer="21"/>
<wire x1="-9.525" y1="-1.27" x2="-10.16" y2="-0.635" width="0.1524" layer="21"/>
<wire x1="-12.7" y1="0.635" x2="-12.7" y2="-0.635" width="0.1524" layer="21"/>
<wire x1="-12.065" y1="1.27" x2="-12.7" y2="0.635" width="0.1524" layer="21"/>
<wire x1="-12.7" y1="-0.635" x2="-12.065" y2="-1.27" width="0.1524" layer="21"/>
<wire x1="-10.795" y1="-1.27" x2="-12.065" y2="-1.27" width="0.1524" layer="21"/>
<wire x1="-7.62" y1="0.635" x2="-6.985" y2="1.27" width="0.1524" layer="21"/>
<wire x1="-6.985" y1="1.27" x2="-5.715" y2="1.27" width="0.1524" layer="21"/>
<wire x1="-5.715" y1="1.27" x2="-5.08" y2="0.635" width="0.1524" layer="21"/>
<wire x1="-5.08" y1="-0.635" x2="-5.715" y2="-1.27" width="0.1524" layer="21"/>
<wire x1="-5.715" y1="-1.27" x2="-6.985" y2="-1.27" width="0.1524" layer="21"/>
<wire x1="-6.985" y1="-1.27" x2="-7.62" y2="-0.635" width="0.1524" layer="21"/>
<wire x1="-4.445" y1="1.27" x2="-3.175" y2="1.27" width="0.1524" layer="21"/>
<wire x1="-3.175" y1="1.27" x2="-2.54" y2="0.635" width="0.1524" layer="21"/>
<wire x1="-2.54" y1="-0.635" x2="-3.175" y2="-1.27" width="0.1524" layer="21"/>
<wire x1="-4.445" y1="1.27" x2="-5.08" y2="0.635" width="0.1524" layer="21"/>
<wire x1="-5.08" y1="-0.635" x2="-4.445" y2="-1.27" width="0.1524" layer="21"/>
<wire x1="-3.175" y1="-1.27" x2="-4.445" y2="-1.27" width="0.1524" layer="21"/>
<wire x1="-1.905" y1="1.27" x2="-0.635" y2="1.27" width="0.1524" layer="21"/>
<wire x1="-0.635" y1="1.27" x2="0" y2="0.635" width="0.1524" layer="21"/>
<wire x1="0" y1="-0.635" x2="-0.635" y2="-1.27" width="0.1524" layer="21"/>
<wire x1="0" y1="0.635" x2="0.635" y2="1.27" width="0.1524" layer="21"/>
<wire x1="0.635" y1="1.27" x2="1.905" y2="1.27" width="0.1524" layer="21"/>
<wire x1="1.905" y1="1.27" x2="2.54" y2="0.635" width="0.1524" layer="21"/>
<wire x1="2.54" y1="-0.635" x2="1.905" y2="-1.27" width="0.1524" layer="21"/>
<wire x1="1.905" y1="-1.27" x2="0.635" y2="-1.27" width="0.1524" layer="21"/>
<wire x1="0.635" y1="-1.27" x2="0" y2="-0.635" width="0.1524" layer="21"/>
<wire x1="-1.905" y1="1.27" x2="-2.54" y2="0.635" width="0.1524" layer="21"/>
<wire x1="-2.54" y1="-0.635" x2="-1.905" y2="-1.27" width="0.1524" layer="21"/>
<wire x1="-0.635" y1="-1.27" x2="-1.905" y2="-1.27" width="0.1524" layer="21"/>
<wire x1="2.54" y1="0.635" x2="3.175" y2="1.27" width="0.1524" layer="21"/>
<wire x1="3.175" y1="1.27" x2="4.445" y2="1.27" width="0.1524" layer="21"/>
<wire x1="4.445" y1="1.27" x2="5.08" y2="0.635" width="0.1524" layer="21"/>
<wire x1="5.08" y1="-0.635" x2="4.445" y2="-1.27" width="0.1524" layer="21"/>
<wire x1="4.445" y1="-1.27" x2="3.175" y2="-1.27" width="0.1524" layer="21"/>
<wire x1="3.175" y1="-1.27" x2="2.54" y2="-0.635" width="0.1524" layer="21"/>
<wire x1="5.715" y1="1.27" x2="6.985" y2="1.27" width="0.1524" layer="21"/>
<wire x1="6.985" y1="1.27" x2="7.62" y2="0.635" width="0.1524" layer="21"/>
<wire x1="7.62" y1="-0.635" x2="6.985" y2="-1.27" width="0.1524" layer="21"/>
<wire x1="5.715" y1="1.27" x2="5.08" y2="0.635" width="0.1524" layer="21"/>
<wire x1="5.08" y1="-0.635" x2="5.715" y2="-1.27" width="0.1524" layer="21"/>
<wire x1="6.985" y1="-1.27" x2="5.715" y2="-1.27" width="0.1524" layer="21"/>
<wire x1="8.255" y1="1.27" x2="9.525" y2="1.27" width="0.1524" layer="21"/>
<wire x1="9.525" y1="1.27" x2="10.16" y2="0.635" width="0.1524" layer="21"/>
<wire x1="10.16" y1="-0.635" x2="9.525" y2="-1.27" width="0.1524" layer="21"/>
<wire x1="10.16" y1="0.635" x2="10.795" y2="1.27" width="0.1524" layer="21"/>
<wire x1="10.795" y1="1.27" x2="12.065" y2="1.27" width="0.1524" layer="21"/>
<wire x1="12.065" y1="1.27" x2="12.7" y2="0.635" width="0.1524" layer="21"/>
<wire x1="12.7" y1="-0.635" x2="12.065" y2="-1.27" width="0.1524" layer="21"/>
<wire x1="12.065" y1="-1.27" x2="10.795" y2="-1.27" width="0.1524" layer="21"/>
<wire x1="10.795" y1="-1.27" x2="10.16" y2="-0.635" width="0.1524" layer="21"/>
<wire x1="8.255" y1="1.27" x2="7.62" y2="0.635" width="0.1524" layer="21"/>
<wire x1="7.62" y1="-0.635" x2="8.255" y2="-1.27" width="0.1524" layer="21"/>
<wire x1="9.525" y1="-1.27" x2="8.255" y2="-1.27" width="0.1524" layer="21"/>
<wire x1="12.7" y1="0.635" x2="12.7" y2="-0.635" width="0.1524" layer="21"/>
<pad name="1" x="-11.43" y="0" drill="1.016" shape="long" rot="R90"/>
<pad name="2" x="-8.89" y="0" drill="1.016" shape="long" rot="R90"/>
<pad name="3" x="-6.35" y="0" drill="1.016" shape="long" rot="R90"/>
<pad name="4" x="-3.81" y="0" drill="1.016" shape="long" rot="R90"/>
<pad name="5" x="-1.27" y="0" drill="1.016" shape="long" rot="R90"/>
<pad name="6" x="1.27" y="0" drill="1.016" shape="long" rot="R90"/>
<pad name="7" x="3.81" y="0" drill="1.016" shape="long" rot="R90"/>
<pad name="8" x="6.35" y="0" drill="1.016" shape="long" rot="R90"/>
<pad name="9" x="8.89" y="0" drill="1.016" shape="long" rot="R90"/>
<pad name="10" x="11.43" y="0" drill="1.016" shape="long" rot="R90"/>
<text x="-12.7" y="1.651" size="1.27" layer="25" ratio="10">&gt;NAME</text>
<text x="-11.938" y="-2.921" size="1.27" layer="21" ratio="10">1</text>
<text x="10.795" y="1.651" size="1.27" layer="21" ratio="10">10</text>
<text x="1.27" y="-2.921" size="1.27" layer="27" ratio="10">&gt;VALUE</text>
<rectangle x1="-9.144" y1="-0.254" x2="-8.636" y2="0.254" layer="51"/>
<rectangle x1="-11.684" y1="-0.254" x2="-11.176" y2="0.254" layer="51"/>
<rectangle x1="-6.604" y1="-0.254" x2="-6.096" y2="0.254" layer="51"/>
<rectangle x1="-4.064" y1="-0.254" x2="-3.556" y2="0.254" layer="51"/>
<rectangle x1="1.016" y1="-0.254" x2="1.524" y2="0.254" layer="51"/>
<rectangle x1="-1.524" y1="-0.254" x2="-1.016" y2="0.254" layer="51"/>
<rectangle x1="3.556" y1="-0.254" x2="4.064" y2="0.254" layer="51"/>
<rectangle x1="6.096" y1="-0.254" x2="6.604" y2="0.254" layer="51"/>
<rectangle x1="11.176" y1="-0.254" x2="11.684" y2="0.254" layer="51"/>
<rectangle x1="8.636" y1="-0.254" x2="9.144" y2="0.254" layer="51"/>
</package>
<package name="MA06-1" urn="urn:adsk.eagle:footprint:8287/1" library_version="1">
<description>&lt;b&gt;PIN HEADER&lt;/b&gt;</description>
<wire x1="-6.985" y1="1.27" x2="-5.715" y2="1.27" width="0.1524" layer="21"/>
<wire x1="-5.715" y1="1.27" x2="-5.08" y2="0.635" width="0.1524" layer="21"/>
<wire x1="-5.08" y1="-0.635" x2="-5.715" y2="-1.27" width="0.1524" layer="21"/>
<wire x1="-5.08" y1="0.635" x2="-4.445" y2="1.27" width="0.1524" layer="21"/>
<wire x1="-4.445" y1="1.27" x2="-3.175" y2="1.27" width="0.1524" layer="21"/>
<wire x1="-3.175" y1="1.27" x2="-2.54" y2="0.635" width="0.1524" layer="21"/>
<wire x1="-2.54" y1="-0.635" x2="-3.175" y2="-1.27" width="0.1524" layer="21"/>
<wire x1="-3.175" y1="-1.27" x2="-4.445" y2="-1.27" width="0.1524" layer="21"/>
<wire x1="-4.445" y1="-1.27" x2="-5.08" y2="-0.635" width="0.1524" layer="21"/>
<wire x1="-7.62" y1="0.635" x2="-7.62" y2="-0.635" width="0.1524" layer="21"/>
<wire x1="-6.985" y1="1.27" x2="-7.62" y2="0.635" width="0.1524" layer="21"/>
<wire x1="-7.62" y1="-0.635" x2="-6.985" y2="-1.27" width="0.1524" layer="21"/>
<wire x1="-5.715" y1="-1.27" x2="-6.985" y2="-1.27" width="0.1524" layer="21"/>
<wire x1="-2.54" y1="0.635" x2="-1.905" y2="1.27" width="0.1524" layer="21"/>
<wire x1="-1.905" y1="1.27" x2="-0.635" y2="1.27" width="0.1524" layer="21"/>
<wire x1="-0.635" y1="1.27" x2="0" y2="0.635" width="0.1524" layer="21"/>
<wire x1="0" y1="-0.635" x2="-0.635" y2="-1.27" width="0.1524" layer="21"/>
<wire x1="-0.635" y1="-1.27" x2="-1.905" y2="-1.27" width="0.1524" layer="21"/>
<wire x1="-1.905" y1="-1.27" x2="-2.54" y2="-0.635" width="0.1524" layer="21"/>
<wire x1="0.635" y1="1.27" x2="1.905" y2="1.27" width="0.1524" layer="21"/>
<wire x1="1.905" y1="1.27" x2="2.54" y2="0.635" width="0.1524" layer="21"/>
<wire x1="2.54" y1="-0.635" x2="1.905" y2="-1.27" width="0.1524" layer="21"/>
<wire x1="2.54" y1="0.635" x2="3.175" y2="1.27" width="0.1524" layer="21"/>
<wire x1="3.175" y1="1.27" x2="4.445" y2="1.27" width="0.1524" layer="21"/>
<wire x1="4.445" y1="1.27" x2="5.08" y2="0.635" width="0.1524" layer="21"/>
<wire x1="5.08" y1="-0.635" x2="4.445" y2="-1.27" width="0.1524" layer="21"/>
<wire x1="4.445" y1="-1.27" x2="3.175" y2="-1.27" width="0.1524" layer="21"/>
<wire x1="3.175" y1="-1.27" x2="2.54" y2="-0.635" width="0.1524" layer="21"/>
<wire x1="0.635" y1="1.27" x2="0" y2="0.635" width="0.1524" layer="21"/>
<wire x1="0" y1="-0.635" x2="0.635" y2="-1.27" width="0.1524" layer="21"/>
<wire x1="1.905" y1="-1.27" x2="0.635" y2="-1.27" width="0.1524" layer="21"/>
<wire x1="5.08" y1="0.635" x2="5.715" y2="1.27" width="0.1524" layer="21"/>
<wire x1="5.715" y1="1.27" x2="6.985" y2="1.27" width="0.1524" layer="21"/>
<wire x1="6.985" y1="1.27" x2="7.62" y2="0.635" width="0.1524" layer="21"/>
<wire x1="7.62" y1="-0.635" x2="6.985" y2="-1.27" width="0.1524" layer="21"/>
<wire x1="6.985" y1="-1.27" x2="5.715" y2="-1.27" width="0.1524" layer="21"/>
<wire x1="5.715" y1="-1.27" x2="5.08" y2="-0.635" width="0.1524" layer="21"/>
<wire x1="7.62" y1="0.635" x2="7.62" y2="-0.635" width="0.1524" layer="21"/>
<pad name="1" x="-6.35" y="0" drill="1.016" shape="long" rot="R90"/>
<pad name="2" x="-3.81" y="0" drill="1.016" shape="long" rot="R90"/>
<pad name="3" x="-1.27" y="0" drill="1.016" shape="long" rot="R90"/>
<pad name="4" x="1.27" y="0" drill="1.016" shape="long" rot="R90"/>
<pad name="5" x="3.81" y="0" drill="1.016" shape="long" rot="R90"/>
<pad name="6" x="6.35" y="0" drill="1.016" shape="long" rot="R90"/>
<text x="-7.62" y="1.651" size="1.27" layer="25" ratio="10">&gt;NAME</text>
<text x="-6.985" y="-2.921" size="1.27" layer="21" ratio="10">1</text>
<text x="5.715" y="1.651" size="1.27" layer="21" ratio="10">6</text>
<text x="-2.54" y="-2.921" size="1.27" layer="27" ratio="10">&gt;VALUE</text>
<rectangle x1="-4.064" y1="-0.254" x2="-3.556" y2="0.254" layer="51"/>
<rectangle x1="-6.604" y1="-0.254" x2="-6.096" y2="0.254" layer="51"/>
<rectangle x1="-1.524" y1="-0.254" x2="-1.016" y2="0.254" layer="51"/>
<rectangle x1="3.556" y1="-0.254" x2="4.064" y2="0.254" layer="51"/>
<rectangle x1="1.016" y1="-0.254" x2="1.524" y2="0.254" layer="51"/>
<rectangle x1="6.096" y1="-0.254" x2="6.604" y2="0.254" layer="51"/>
</package>
</packages>
<packages3d>
<package3d name="MA10-1" urn="urn:adsk.eagle:package:8346/1" type="box" library_version="1">
<description>PIN HEADER</description>
</package3d>
<package3d name="MA06-1" urn="urn:adsk.eagle:package:8340/1" type="box" library_version="1">
<description>PIN HEADER</description>
</package3d>
</packages3d>
<symbols>
<symbol name="MA10-1" urn="urn:adsk.eagle:symbol:8299/1" library_version="1">
<wire x1="3.81" y1="-12.7" x2="-1.27" y2="-12.7" width="0.4064" layer="94"/>
<wire x1="1.27" y1="-5.08" x2="2.54" y2="-5.08" width="0.6096" layer="94"/>
<wire x1="1.27" y1="-7.62" x2="2.54" y2="-7.62" width="0.6096" layer="94"/>
<wire x1="1.27" y1="-10.16" x2="2.54" y2="-10.16" width="0.6096" layer="94"/>
<wire x1="1.27" y1="0" x2="2.54" y2="0" width="0.6096" layer="94"/>
<wire x1="1.27" y1="-2.54" x2="2.54" y2="-2.54" width="0.6096" layer="94"/>
<wire x1="1.27" y1="7.62" x2="2.54" y2="7.62" width="0.6096" layer="94"/>
<wire x1="1.27" y1="5.08" x2="2.54" y2="5.08" width="0.6096" layer="94"/>
<wire x1="1.27" y1="2.54" x2="2.54" y2="2.54" width="0.6096" layer="94"/>
<wire x1="1.27" y1="12.7" x2="2.54" y2="12.7" width="0.6096" layer="94"/>
<wire x1="1.27" y1="10.16" x2="2.54" y2="10.16" width="0.6096" layer="94"/>
<wire x1="-1.27" y1="15.24" x2="-1.27" y2="-12.7" width="0.4064" layer="94"/>
<wire x1="3.81" y1="-12.7" x2="3.81" y2="15.24" width="0.4064" layer="94"/>
<wire x1="-1.27" y1="15.24" x2="3.81" y2="15.24" width="0.4064" layer="94"/>
<text x="-1.27" y="-15.24" size="1.778" layer="96">&gt;VALUE</text>
<text x="-1.27" y="16.002" size="1.778" layer="95">&gt;NAME</text>
<pin name="1" x="7.62" y="-10.16" visible="pad" length="middle" direction="pas" swaplevel="1" rot="R180"/>
<pin name="2" x="7.62" y="-7.62" visible="pad" length="middle" direction="pas" swaplevel="1" rot="R180"/>
<pin name="3" x="7.62" y="-5.08" visible="pad" length="middle" direction="pas" swaplevel="1" rot="R180"/>
<pin name="4" x="7.62" y="-2.54" visible="pad" length="middle" direction="pas" swaplevel="1" rot="R180"/>
<pin name="5" x="7.62" y="0" visible="pad" length="middle" direction="pas" swaplevel="1" rot="R180"/>
<pin name="6" x="7.62" y="2.54" visible="pad" length="middle" direction="pas" swaplevel="1" rot="R180"/>
<pin name="7" x="7.62" y="5.08" visible="pad" length="middle" direction="pas" swaplevel="1" rot="R180"/>
<pin name="8" x="7.62" y="7.62" visible="pad" length="middle" direction="pas" swaplevel="1" rot="R180"/>
<pin name="9" x="7.62" y="10.16" visible="pad" length="middle" direction="pas" swaplevel="1" rot="R180"/>
<pin name="10" x="7.62" y="12.7" visible="pad" length="middle" direction="pas" swaplevel="1" rot="R180"/>
</symbol>
<symbol name="MA06-1" urn="urn:adsk.eagle:symbol:8286/1" library_version="1">
<wire x1="3.81" y1="-10.16" x2="-1.27" y2="-10.16" width="0.4064" layer="94"/>
<wire x1="1.27" y1="-2.54" x2="2.54" y2="-2.54" width="0.6096" layer="94"/>
<wire x1="1.27" y1="-5.08" x2="2.54" y2="-5.08" width="0.6096" layer="94"/>
<wire x1="1.27" y1="-7.62" x2="2.54" y2="-7.62" width="0.6096" layer="94"/>
<wire x1="1.27" y1="2.54" x2="2.54" y2="2.54" width="0.6096" layer="94"/>
<wire x1="1.27" y1="0" x2="2.54" y2="0" width="0.6096" layer="94"/>
<wire x1="1.27" y1="5.08" x2="2.54" y2="5.08" width="0.6096" layer="94"/>
<wire x1="-1.27" y1="7.62" x2="-1.27" y2="-10.16" width="0.4064" layer="94"/>
<wire x1="3.81" y1="-10.16" x2="3.81" y2="7.62" width="0.4064" layer="94"/>
<wire x1="-1.27" y1="7.62" x2="3.81" y2="7.62" width="0.4064" layer="94"/>
<text x="-1.27" y="-12.7" size="1.778" layer="96">&gt;VALUE</text>
<text x="-1.27" y="8.382" size="1.778" layer="95">&gt;NAME</text>
<pin name="1" x="7.62" y="-7.62" visible="pad" length="middle" direction="pas" swaplevel="1" rot="R180"/>
<pin name="2" x="7.62" y="-5.08" visible="pad" length="middle" direction="pas" swaplevel="1" rot="R180"/>
<pin name="3" x="7.62" y="-2.54" visible="pad" length="middle" direction="pas" swaplevel="1" rot="R180"/>
<pin name="4" x="7.62" y="0" visible="pad" length="middle" direction="pas" swaplevel="1" rot="R180"/>
<pin name="5" x="7.62" y="2.54" visible="pad" length="middle" direction="pas" swaplevel="1" rot="R180"/>
<pin name="6" x="7.62" y="5.08" visible="pad" length="middle" direction="pas" swaplevel="1" rot="R180"/>
</symbol>
</symbols>
<devicesets>
<deviceset name="MA10-1" urn="urn:adsk.eagle:component:8394/1" prefix="SV" uservalue="yes" library_version="1">
<description>&lt;b&gt;PIN HEADER&lt;/b&gt;</description>
<gates>
<gate name="1" symbol="MA10-1" x="0" y="0"/>
</gates>
<devices>
<device name="" package="MA10-1">
<connects>
<connect gate="1" pin="1" pad="1"/>
<connect gate="1" pin="10" pad="10"/>
<connect gate="1" pin="2" pad="2"/>
<connect gate="1" pin="3" pad="3"/>
<connect gate="1" pin="4" pad="4"/>
<connect gate="1" pin="5" pad="5"/>
<connect gate="1" pin="6" pad="6"/>
<connect gate="1" pin="7" pad="7"/>
<connect gate="1" pin="8" pad="8"/>
<connect gate="1" pin="9" pad="9"/>
</connects>
<package3dinstances>
<package3dinstance package3d_urn="urn:adsk.eagle:package:8346/1"/>
</package3dinstances>
<technologies>
<technology name="">
<attribute name="MF" value="" constant="no"/>
<attribute name="MPN" value="" constant="no"/>
<attribute name="OC_FARNELL" value="unknown" constant="no"/>
<attribute name="OC_NEWARK" value="unknown" constant="no"/>
</technology>
</technologies>
</device>
</devices>
</deviceset>
<deviceset name="MA06-1" urn="urn:adsk.eagle:component:8378/1" prefix="SV" uservalue="yes" library_version="1">
<description>&lt;b&gt;PIN HEADER&lt;/b&gt;</description>
<gates>
<gate name="1" symbol="MA06-1" x="0" y="0"/>
</gates>
<devices>
<device name="" package="MA06-1">
<connects>
<connect gate="1" pin="1" pad="1"/>
<connect gate="1" pin="2" pad="2"/>
<connect gate="1" pin="3" pad="3"/>
<connect gate="1" pin="4" pad="4"/>
<connect gate="1" pin="5" pad="5"/>
<connect gate="1" pin="6" pad="6"/>
</connects>
<package3dinstances>
<package3dinstance package3d_urn="urn:adsk.eagle:package:8340/1"/>
</package3dinstances>
<technologies>
<technology name="">
<attribute name="MF" value="" constant="no"/>
<attribute name="MPN" value="" constant="no"/>
<attribute name="OC_FARNELL" value="unknown" constant="no"/>
<attribute name="OC_NEWARK" value="unknown" constant="no"/>
</technology>
</technologies>
</device>
</devices>
</deviceset>
</devicesets>
</library>
</libraries>
<attributes>
</attributes>
<variantdefs>
</variantdefs>
<classes>
<class number="0" name="default" width="0" drill="0">
</class>
</classes>
<parts>
<part name="N1" library="russian-nixies" deviceset="IN-12B" device=""/>
<part name="N2" library="russian-nixies" deviceset="IN-12B" device=""/>
<part name="N3" library="russian-nixies" deviceset="IN-12B" device=""/>
<part name="N4" library="russian-nixies" deviceset="IN-12B" device=""/>
<part name="SV1" library="con-lstb" library_urn="urn:adsk.eagle:library:162" deviceset="MA10-1" device="" package3d_urn="urn:adsk.eagle:package:8346/1" value="Piny"/>
<part name="SV2" library="con-lstb" library_urn="urn:adsk.eagle:library:162" deviceset="MA06-1" device="" package3d_urn="urn:adsk.eagle:package:8340/1" value="Katody"/>
</parts>
<sheets>
<sheet>
<plain>
</plain>
<instances>
<instance part="N1" gate="G$1" x="-63.5" y="43.18" rot="R90"/>
<instance part="N2" gate="G$1" x="-15.24" y="43.18" rot="R90"/>
<instance part="N3" gate="G$1" x="33.02" y="43.18" rot="R90"/>
<instance part="N4" gate="G$1" x="83.82" y="43.18" rot="R90"/>
<instance part="SV1" gate="1" x="-101.6" y="12.7"/>
<instance part="SV2" gate="1" x="-101.6" y="71.12"/>
</instances>
<busses>
</busses>
<nets>
<net name="N$1" class="0">
<segment>
<pinref part="SV1" gate="1" pin="10"/>
<wire x1="-93.98" y1="25.4" x2="-53.34" y2="25.4" width="0.1524" layer="91"/>
<wire x1="-53.34" y1="25.4" x2="-5.08" y2="25.4" width="0.1524" layer="91"/>
<pinref part="N1" gate="G$1" pin="0"/>
<wire x1="-5.08" y1="25.4" x2="43.18" y2="25.4" width="0.1524" layer="91"/>
<wire x1="43.18" y1="25.4" x2="93.98" y2="25.4" width="0.1524" layer="91"/>
<wire x1="-53.34" y1="30.48" x2="-53.34" y2="25.4" width="0.1524" layer="91"/>
<junction x="-53.34" y="25.4"/>
<pinref part="N2" gate="G$1" pin="0"/>
<wire x1="-5.08" y1="30.48" x2="-5.08" y2="25.4" width="0.1524" layer="91"/>
<junction x="-5.08" y="25.4"/>
<pinref part="N3" gate="G$1" pin="0"/>
<wire x1="43.18" y1="30.48" x2="43.18" y2="25.4" width="0.1524" layer="91"/>
<junction x="43.18" y="25.4"/>
<pinref part="N4" gate="G$1" pin="0"/>
<wire x1="93.98" y1="25.4" x2="93.98" y2="30.48" width="0.1524" layer="91"/>
</segment>
</net>
<net name="N$2" class="0">
<segment>
<pinref part="SV1" gate="1" pin="9"/>
<wire x1="-76.2" y1="22.86" x2="-93.98" y2="22.86" width="0.1524" layer="91"/>
<pinref part="N1" gate="G$1" pin="1"/>
<wire x1="-76.2" y1="30.48" x2="-76.2" y2="22.86" width="0.1524" layer="91"/>
<pinref part="N4" gate="G$1" pin="1"/>
<wire x1="71.12" y1="30.48" x2="71.12" y2="22.86" width="0.1524" layer="91"/>
<junction x="-76.2" y="22.86"/>
<wire x1="71.12" y1="22.86" x2="20.32" y2="22.86" width="0.1524" layer="91"/>
<wire x1="20.32" y1="22.86" x2="-27.94" y2="22.86" width="0.1524" layer="91"/>
<wire x1="-27.94" y1="22.86" x2="-76.2" y2="22.86" width="0.1524" layer="91"/>
<pinref part="N2" gate="G$1" pin="1"/>
<wire x1="-27.94" y1="30.48" x2="-27.94" y2="22.86" width="0.1524" layer="91"/>
<junction x="-27.94" y="22.86"/>
<pinref part="N3" gate="G$1" pin="1"/>
<wire x1="20.32" y1="30.48" x2="20.32" y2="22.86" width="0.1524" layer="91"/>
<junction x="20.32" y="22.86"/>
</segment>
</net>
<net name="N$3" class="0">
<segment>
<pinref part="SV1" gate="1" pin="8"/>
<wire x1="-93.98" y1="20.32" x2="-73.66" y2="20.32" width="0.1524" layer="91"/>
<pinref part="N1" gate="G$1" pin="2"/>
<wire x1="-73.66" y1="30.48" x2="-73.66" y2="20.32" width="0.1524" layer="91"/>
<pinref part="N4" gate="G$1" pin="2"/>
<wire x1="73.66" y1="30.48" x2="73.66" y2="20.32" width="0.1524" layer="91"/>
<junction x="-73.66" y="20.32"/>
<wire x1="73.66" y1="20.32" x2="22.86" y2="20.32" width="0.1524" layer="91"/>
<wire x1="22.86" y1="20.32" x2="-25.4" y2="20.32" width="0.1524" layer="91"/>
<wire x1="-25.4" y1="20.32" x2="-73.66" y2="20.32" width="0.1524" layer="91"/>
<pinref part="N2" gate="G$1" pin="2"/>
<wire x1="-25.4" y1="30.48" x2="-25.4" y2="20.32" width="0.1524" layer="91"/>
<junction x="-25.4" y="20.32"/>
<pinref part="N3" gate="G$1" pin="2"/>
<wire x1="22.86" y1="30.48" x2="22.86" y2="20.32" width="0.1524" layer="91"/>
<junction x="22.86" y="20.32"/>
</segment>
</net>
<net name="N$4" class="0">
<segment>
<pinref part="SV1" gate="1" pin="7"/>
<wire x1="-71.12" y1="17.78" x2="-93.98" y2="17.78" width="0.1524" layer="91"/>
<pinref part="N1" gate="G$1" pin="3"/>
<wire x1="-71.12" y1="30.48" x2="-71.12" y2="17.78" width="0.1524" layer="91"/>
<pinref part="N4" gate="G$1" pin="3"/>
<wire x1="76.2" y1="30.48" x2="76.2" y2="17.78" width="0.1524" layer="91"/>
<junction x="-71.12" y="17.78"/>
<wire x1="76.2" y1="17.78" x2="25.4" y2="17.78" width="0.1524" layer="91"/>
<wire x1="25.4" y1="17.78" x2="-22.86" y2="17.78" width="0.1524" layer="91"/>
<wire x1="-22.86" y1="17.78" x2="-71.12" y2="17.78" width="0.1524" layer="91"/>
<pinref part="N2" gate="G$1" pin="3"/>
<wire x1="-22.86" y1="30.48" x2="-22.86" y2="17.78" width="0.1524" layer="91"/>
<junction x="-22.86" y="17.78"/>
<pinref part="N3" gate="G$1" pin="3"/>
<wire x1="25.4" y1="30.48" x2="25.4" y2="17.78" width="0.1524" layer="91"/>
<junction x="25.4" y="17.78"/>
</segment>
</net>
<net name="N$5" class="0">
<segment>
<pinref part="SV1" gate="1" pin="6"/>
<wire x1="-68.58" y1="15.24" x2="-93.98" y2="15.24" width="0.1524" layer="91"/>
<pinref part="N1" gate="G$1" pin="4"/>
<wire x1="-68.58" y1="30.48" x2="-68.58" y2="15.24" width="0.1524" layer="91"/>
<pinref part="N4" gate="G$1" pin="4"/>
<wire x1="78.74" y1="30.48" x2="78.74" y2="15.24" width="0.1524" layer="91"/>
<junction x="-68.58" y="15.24"/>
<wire x1="78.74" y1="15.24" x2="27.94" y2="15.24" width="0.1524" layer="91"/>
<wire x1="27.94" y1="15.24" x2="-20.32" y2="15.24" width="0.1524" layer="91"/>
<wire x1="-20.32" y1="15.24" x2="-68.58" y2="15.24" width="0.1524" layer="91"/>
<pinref part="N2" gate="G$1" pin="4"/>
<wire x1="-20.32" y1="30.48" x2="-20.32" y2="15.24" width="0.1524" layer="91"/>
<junction x="-20.32" y="15.24"/>
<pinref part="N3" gate="G$1" pin="4"/>
<wire x1="27.94" y1="30.48" x2="27.94" y2="15.24" width="0.1524" layer="91"/>
<junction x="27.94" y="15.24"/>
</segment>
</net>
<net name="N$6" class="0">
<segment>
<pinref part="SV1" gate="1" pin="5"/>
<wire x1="-66.04" y1="12.7" x2="-93.98" y2="12.7" width="0.1524" layer="91"/>
<pinref part="N1" gate="G$1" pin="5"/>
<wire x1="-66.04" y1="30.48" x2="-66.04" y2="12.7" width="0.1524" layer="91"/>
<pinref part="N4" gate="G$1" pin="5"/>
<wire x1="81.28" y1="30.48" x2="81.28" y2="12.7" width="0.1524" layer="91"/>
<junction x="-66.04" y="12.7"/>
<wire x1="81.28" y1="12.7" x2="30.48" y2="12.7" width="0.1524" layer="91"/>
<wire x1="30.48" y1="12.7" x2="-17.78" y2="12.7" width="0.1524" layer="91"/>
<wire x1="-17.78" y1="12.7" x2="-66.04" y2="12.7" width="0.1524" layer="91"/>
<pinref part="N2" gate="G$1" pin="5"/>
<wire x1="-17.78" y1="30.48" x2="-17.78" y2="12.7" width="0.1524" layer="91"/>
<junction x="-17.78" y="12.7"/>
<pinref part="N3" gate="G$1" pin="5"/>
<wire x1="30.48" y1="30.48" x2="30.48" y2="12.7" width="0.1524" layer="91"/>
<junction x="30.48" y="12.7"/>
</segment>
</net>
<net name="N$7" class="0">
<segment>
<pinref part="SV1" gate="1" pin="4"/>
<wire x1="-63.5" y1="10.16" x2="-93.98" y2="10.16" width="0.1524" layer="91"/>
<pinref part="N1" gate="G$1" pin="6"/>
<wire x1="-63.5" y1="30.48" x2="-63.5" y2="10.16" width="0.1524" layer="91"/>
<pinref part="N4" gate="G$1" pin="6"/>
<wire x1="83.82" y1="30.48" x2="83.82" y2="10.16" width="0.1524" layer="91"/>
<junction x="-63.5" y="10.16"/>
<wire x1="83.82" y1="10.16" x2="33.02" y2="10.16" width="0.1524" layer="91"/>
<wire x1="33.02" y1="10.16" x2="-15.24" y2="10.16" width="0.1524" layer="91"/>
<wire x1="-15.24" y1="10.16" x2="-63.5" y2="10.16" width="0.1524" layer="91"/>
<pinref part="N2" gate="G$1" pin="6"/>
<wire x1="-15.24" y1="30.48" x2="-15.24" y2="10.16" width="0.1524" layer="91"/>
<junction x="-15.24" y="10.16"/>
<pinref part="N3" gate="G$1" pin="6"/>
<wire x1="33.02" y1="30.48" x2="33.02" y2="10.16" width="0.1524" layer="91"/>
<junction x="33.02" y="10.16"/>
</segment>
</net>
<net name="N$8" class="0">
<segment>
<pinref part="SV1" gate="1" pin="3"/>
<wire x1="86.36" y1="7.62" x2="35.56" y2="7.62" width="0.1524" layer="91"/>
<wire x1="35.56" y1="7.62" x2="-12.7" y2="7.62" width="0.1524" layer="91"/>
<wire x1="-12.7" y1="7.62" x2="-60.96" y2="7.62" width="0.1524" layer="91"/>
<wire x1="-60.96" y1="7.62" x2="-93.98" y2="7.62" width="0.1524" layer="91"/>
<pinref part="N1" gate="G$1" pin="7"/>
<wire x1="-60.96" y1="30.48" x2="-60.96" y2="7.62" width="0.1524" layer="91"/>
<junction x="-60.96" y="7.62"/>
<pinref part="N4" gate="G$1" pin="7"/>
<wire x1="86.36" y1="30.48" x2="86.36" y2="7.62" width="0.1524" layer="91"/>
<pinref part="N2" gate="G$1" pin="7"/>
<wire x1="-12.7" y1="30.48" x2="-12.7" y2="7.62" width="0.1524" layer="91"/>
<junction x="-12.7" y="7.62"/>
<pinref part="N3" gate="G$1" pin="7"/>
<wire x1="35.56" y1="30.48" x2="35.56" y2="7.62" width="0.1524" layer="91"/>
<junction x="35.56" y="7.62"/>
</segment>
</net>
<net name="N$9" class="0">
<segment>
<pinref part="SV1" gate="1" pin="2"/>
<wire x1="88.9" y1="5.08" x2="38.1" y2="5.08" width="0.1524" layer="91"/>
<wire x1="38.1" y1="5.08" x2="-10.16" y2="5.08" width="0.1524" layer="91"/>
<wire x1="-10.16" y1="5.08" x2="-58.42" y2="5.08" width="0.1524" layer="91"/>
<wire x1="-58.42" y1="5.08" x2="-93.98" y2="5.08" width="0.1524" layer="91"/>
<pinref part="N1" gate="G$1" pin="8"/>
<wire x1="-58.42" y1="30.48" x2="-58.42" y2="5.08" width="0.1524" layer="91"/>
<junction x="-58.42" y="5.08"/>
<pinref part="N4" gate="G$1" pin="8"/>
<wire x1="88.9" y1="30.48" x2="88.9" y2="5.08" width="0.1524" layer="91"/>
<pinref part="N2" gate="G$1" pin="8"/>
<wire x1="-10.16" y1="30.48" x2="-10.16" y2="5.08" width="0.1524" layer="91"/>
<junction x="-10.16" y="5.08"/>
<pinref part="N3" gate="G$1" pin="8"/>
<wire x1="38.1" y1="30.48" x2="38.1" y2="5.08" width="0.1524" layer="91"/>
<junction x="38.1" y="5.08"/>
</segment>
</net>
<net name="N$10" class="0">
<segment>
<pinref part="SV1" gate="1" pin="1"/>
<wire x1="91.44" y1="2.54" x2="40.64" y2="2.54" width="0.1524" layer="91"/>
<wire x1="40.64" y1="2.54" x2="-7.62" y2="2.54" width="0.1524" layer="91"/>
<wire x1="-7.62" y1="2.54" x2="-55.88" y2="2.54" width="0.1524" layer="91"/>
<wire x1="-55.88" y1="2.54" x2="-93.98" y2="2.54" width="0.1524" layer="91"/>
<pinref part="N1" gate="G$1" pin="9"/>
<wire x1="-55.88" y1="30.48" x2="-55.88" y2="2.54" width="0.1524" layer="91"/>
<junction x="-55.88" y="2.54"/>
<pinref part="N4" gate="G$1" pin="9"/>
<wire x1="91.44" y1="30.48" x2="91.44" y2="2.54" width="0.1524" layer="91"/>
<pinref part="N2" gate="G$1" pin="9"/>
<wire x1="-7.62" y1="30.48" x2="-7.62" y2="2.54" width="0.1524" layer="91"/>
<junction x="-7.62" y="2.54"/>
<pinref part="N3" gate="G$1" pin="9"/>
<wire x1="40.64" y1="30.48" x2="40.64" y2="2.54" width="0.1524" layer="91"/>
<junction x="40.64" y="2.54"/>
</segment>
</net>
<net name="N$11" class="0">
<segment>
<pinref part="SV2" gate="1" pin="1"/>
<pinref part="N1" gate="G$1" pin="A"/>
<wire x1="-93.98" y1="63.5" x2="-63.5" y2="63.5" width="0.1524" layer="91"/>
<wire x1="-63.5" y1="63.5" x2="-63.5" y2="53.34" width="0.1524" layer="91"/>
</segment>
</net>
<net name="N$12" class="0">
<segment>
<pinref part="SV2" gate="1" pin="2"/>
<pinref part="N2" gate="G$1" pin="A"/>
<wire x1="-93.98" y1="66.04" x2="-15.24" y2="66.04" width="0.1524" layer="91"/>
<wire x1="-15.24" y1="66.04" x2="-15.24" y2="53.34" width="0.1524" layer="91"/>
</segment>
</net>
<net name="N$13" class="0">
<segment>
<pinref part="SV2" gate="1" pin="3"/>
<pinref part="N3" gate="G$1" pin="A"/>
<wire x1="-93.98" y1="68.58" x2="33.02" y2="68.58" width="0.1524" layer="91"/>
<wire x1="33.02" y1="68.58" x2="33.02" y2="53.34" width="0.1524" layer="91"/>
</segment>
</net>
<net name="N$14" class="0">
<segment>
<pinref part="SV2" gate="1" pin="4"/>
<pinref part="N4" gate="G$1" pin="A"/>
<wire x1="-93.98" y1="71.12" x2="83.82" y2="71.12" width="0.1524" layer="91"/>
<wire x1="83.82" y1="71.12" x2="83.82" y2="53.34" width="0.1524" layer="91"/>
</segment>
</net>
</nets>
</sheet>
</sheets>
</schematic>
</drawing>
<compatibility>
<note version="8.2" severity="warning">
Since Version 8.2, EAGLE supports online libraries. The ids
of those online libraries will not be understood (or retained)
with this version.
</note>
<note version="8.3" severity="warning">
Since Version 8.3, EAGLE supports URNs for individual library
assets (packages, symbols, and devices). The URNs of those assets
will not be understood (or retained) with this version.
</note>
<note version="8.3" severity="warning">
Since Version 8.3, EAGLE supports the association of 3D packages
with devices in libraries, schematics, and board files. Those 3D
packages will not be understood (or retained) with this version.
</note>
</compatibility>
</eagle>
