%
M48
M72
T01C0.01378
T02C0.02400
T03C0.03200
T04C0.03543
T05C0.04000
T06C0.04400
T07C0.05200
T08C0.10000
T09C0.13000
%
T01
X200279Y84539
X259334Y84539
X202248Y121940
T02
X221303Y124224
X231303Y124224
X241303Y124224
T03
X219708Y109330
X236834Y104330
X236834Y94330
X219708Y94830
X199708Y94830
X191334Y81330
X191334Y71330
X191334Y61330
X191334Y51330
X221334Y51330
X236834Y51330
X221334Y61330
X236834Y62830
X221334Y71330
X236834Y74330
X221334Y81330
X236834Y84330
X276834Y84330
X276834Y74330
X276834Y62830
X276834Y51330
X276834Y94330
X276834Y104330
X199708Y109330
X195122Y123574
X200122Y131074
X190122Y131074
T04
X297181Y70019
X316866Y70019
T05
X162366Y78830
X162366Y58830
X162366Y108436
X162366Y128436
T06
X264334Y123830
X264334Y113830
X264334Y133830
X337787Y94641
X337787Y54641
T07
X129334Y58930
X129334Y78730
X129334Y108930
X129334Y128730
T08
X178051Y94562
X288444Y94346
T09
X333334Y123830
M30
